{
  "polyfills": {
    "js": "/assets/polyfills.chunk.js"
  },
  "about": {
    "js": "/assets/about.chunk.js"
  },
  "admin": {
    "js": "/assets/admin.chunk.js"
  },
  "privacy": {
    "js": "/assets/privacy.chunk.js"
  },
  "whyhost": {
    "js": "/assets/whyhost.chunk.js"
  },
  "trustAndSafety": {
    "js": "/assets/trustAndSafety.chunk.js"
  },
  "travelCredit": {
    "js": "/assets/travelCredit.chunk.js"
  },
  "responsible-hosting": {
    "js": "/assets/responsible-hosting.chunk.js"
  },
  "press": {
    "js": "/assets/press.chunk.js"
  },
  "policies": {
    "js": "/assets/policies.chunk.js"
  },
  "hospitality": {
    "js": "/assets/hospitality.chunk.js"
  },
  "help": {
    "js": "/assets/help.chunk.js"
  },
  "guide": {
    "js": "/assets/guide.chunk.js"
  },
  "citizen": {
    "js": "/assets/citizen.chunk.js"
  },
  "careers": {
    "js": "/assets/careers.chunk.js"
  },
  "business": {
    "js": "/assets/business.chunk.js"
  },
  "client": {
    "js": "/assets/client.js"
  },
  "vendor": {
    "js": "/assets/vendor.js"
  }
}