Created on,Number,Letter,displayName,Name: Title,Name: First,Name: Middle,Name: Last,firstName,lastName,email,password,User Status,User Roles,country,city,location,dateOfBirth,Age,Age - 2,occupation,Profile photo,picture,phoneCountryCode,phoneNumber,socialProfileLink,memberType,memberDetail,recommandedBy,info,interestsTags,workRelatedLink,practiceTags,Work Img. 1,imageOne,imageDescriptionOne,Work Img. 2,imageTwo,imageDescriptionTwo,Work Img. 3,imageThree,imageDescriptionThree,Work Img. 4,imageFour,imageDescriptionFour,Work Img. 5,imageFive,imageDescriptionFive,Work Img. 6,imageSix,imageDescriptionSix,descriptionYourPractices,videoLinkOne,videoDescriptionOne,videoLinkTwo,videoDescriptionTwo,INTERNAL NOTES,I agree to the Terms of Use,Last Updated,Connections,emailConfirmed,Connections/Helpful Details,www.humanhotel.com,Host?
04/25/2017 7:09,1901,C,Irene Coll,,Irene,,Coll,Irene,Coll,irenecollingles@gmail.com,asdqweC1901,active,Member,Spain,Barcelona,"Barcelona, Spain",,35,48,Video Editor,"<img src=""https://s3.amazonaws.com/assets.knackhq.com/assets/5853e6992e7f151d490cd3f6/591467e85e6c7d2fb02e4c41/thumb/20170430_193650.jpg"" />",https://s3.amazonaws.com/assets.knackhq.com/assets/5853e6992e7f151d490cd3f6/591467e85e6c7d2fb02e4c41/original/20170430_193650.jpg,34,636512499,https://www.flickr.com/photos/airin_coll/,Guest & Host,Email,Claudia de Florio,"I like people, get a good conversation, know about other places and other cultures. I like to observe everything and be peaceful. I like good meal and friends. I like to have a lot of light in my life, that's why I couldn't live in in a city without light. Also, that's why my places are also so lighting. Good vibration and good people. Let it flow.","Paceful, Curious, Observer",http://www.irenecollingles.com,"Curious, Sensitive, Prespective",,,,,,,,,,,,,,,,,,,"I'm a video editor and video artist.<br /><br />I work principally as an editor in different audio-visual sectors, drama, television, fashion films, commercials, events, documentary and feature films.<br /><br />Also, I directed some short films that have been shown in festivals worldwide, in countries such as B&H, Spain, Serbia, USA, France, Australia, Germany, Belarus and the UK.",,,,,10% booking fee discount,Yes,,,,,https://www.humanhotel.com,
04/25/2017 8:53,1902,D,barneoud Lise,,barneoud,,Lise,barneoud,Lise,lisebarneoud@yahoo.fr,asdqweD1902,active,Member,France,DIE,"DIE, France",13/02/1980,37,38,science journalist,"<img src=""https://s3.amazonaws.com/assets.knackhq.com/assets/5853e6992e7f151d490cd3f6/58ff4562afa35425c13f1560/thumb/dsc_0133.jpg"" />",https://s3.amazonaws.com/assets.knackhq.com/assets/5853e6992e7f151d490cd3f6/58ff4562afa35425c13f1560/original/dsc_0133.jpg,33,475220115,@LiseBarneoud,Guest only,Partner event,ECSJ2017,"I am a French active woman. I live close to the Alps, with my family. I like sport (running, skiing, biking). And i love to travel and meet people, for my work or for my pleasure. ","Understanding, exploring, writing",http://www.premierparallele.fr/livre/vaccins-immunises,"environment, medicine, reporting","<img src=""https://s3.amazonaws.com/assets.knackhq.com/assets/5853e6992e7f151d490cd3f6/5ab9ee3a6f77e30ead78a668/thumb/couv.jpg"" />",https://s3.amazonaws.com/assets.knackhq.com/assets/5853e6992e7f151d490cd3f6/5ab9ee3a6f77e30ead78a668/original/couv.jpg,My last book,,,,,,,,,,,,,,,,I am a freelance science journalist. I cover medicine and environment for newspapers or magazines. I do also TV documentaries and have written some books.,https://youtu.be/1dj0xqZX6wc,A fake add for my book...,,,,Yes,03/27/2018 9:11,,,,https://www.humanhotel.com,
04/25/2017 11:40,1903,E,Dheepan Ramanan,,Dheepan,,Ramanan,Dheepan,Ramanan,dheepan.ramanan@gmail.com,asdqweE1903,active,Member,,Washington,"Washington, ",,26,48,Data Scientist,"<img src=""https://s3.amazonaws.com/assets.knackhq.com/assets/5853e6992e7f151d490cd3f6/58ff6d76321d0e25e68a2489/thumb/17342748_10208202286165853_8148948540597914424_n.jpg"" />",https://s3.amazonaws.com/assets.knackhq.com/assets/5853e6992e7f151d490cd3f6/58ff6d76321d0e25e68a2489/original/17342748_10208202286165853_8148948540597914424_n.jpg,,,https://www.instagram.com/dheepanramanan/,Guest only,Wooloo.org Newsletter,,,,http://dheepanart.com/,,,,,,,,,,,,,,,,,,,,,,,,,,Yes,,,,,https://www.humanhotel.com,
04/25/2017 17:57,1904,F,Virginia Patrone,,Virginia,,Patrone,Virginia,Patrone,virginiapatrone@gmail.com,asdqweF1904,active,Member,Spain,Barcelona,"Barcelona, Spain",,67,48,Visual Artist,"<img src=""https://s3.amazonaws.com/assets.knackhq.com/assets/5853e6992e7f151d490cd3f6/58ffc4f62105fc2bfcc89fbc/thumb/march20151.jpg"" />",https://s3.amazonaws.com/assets.knackhq.com/assets/5853e6992e7f151d490cd3f6/58ffc4f62105fc2bfcc89fbc/original/march20151.jpg,,,https://www.facebook.com/virginia.patrone.3,Guest & Host,Email,Claudia Di Florio,,,www.virginiapatrone.com,,,,,,,,,,,,,,,,,,,,,,,,,,Yes,,,,,https://www.humanhotel.com,
04/25/2017 19:44,1905,G,Vera Novais,,Vera,,Novais,Vera,Novais,vnovais@observador.pt,asdqweG1905,active,Member,Portugal,Lisbon,"Lisbon, Portugal",,35,48,Journalist,"<img src=""https://s3.amazonaws.com/assets.knackhq.com/assets/5853e6992e7f151d490cd3f6/58ffde201a426c3006906e6a/thumb/cam00577.jpg"" />",https://s3.amazonaws.com/assets.knackhq.com/assets/5853e6992e7f151d490cd3f6/58ffde201a426c3006906e6a/original/cam00577.jpg,,,https://www.facebook.com/novais.vera,Guest only,Partner event,ECSJ2017,,,https://www.linkedin.com/in/vnovais/,,,,,,,,,,,,,,,,,,,,,,,,,,Yes,,,,,https://www.humanhotel.com,
04/25/2018 10:16,1906,H,Matteo Gatti,,Matteo,,Gatti,Matteo,Gatti,gatti.ma@yahoo.com,asdqweH1906,active,Member,Italy,Torino,"Torino, Italy",10/04/1989,,29,Visual artist,"<img src=""https://s3.amazonaws.com/assets.knackhq.com/assets/5853e6992e7f151d490cd3f6/5ae038ae161816286d900f3c/thumb/12140622_752236088236661_4890305520710162230_n.jpg"" />",https://s3.amazonaws.com/assets.knackhq.com/assets/5853e6992e7f151d490cd3f6/5ae038ae161816286d900f3c/original/12140622_752236088236661_4890305520710162230_n.jpg,,,https://www.facebook.com/matteo.gatt,Guest & Host,Email,Valeria Kadelski,,,http://matteogatti.tumblr.com/,,,,,,,,,,,,,,,,,,,,,,,,,,Yes,04/25/2018 10:16,,Yes,"""I'm looking for hosts that are...   ""I'm searching for open calls that are...  ""I'm looking to get connected to someone that...""",https://www.humanhotel.com,No
04/25/2018 13:39,1907,I,Jo Kats,,Jo,,Kats,Jo,Kats,jok.39@hotmail.com,asdqweI1907,active,Member,,,", ",,,48,,,,,,,Guest & Host,,,,,,,,,,,,,,,,,,,,,,,,,,,,,,,Yes,04/25/2018 13:39,,No,"""I'm looking for hosts that are...   ""I'm searching for open calls that are...  ""I'm looking to get connected to someone that...""",https://www.humanhotel.com,No
04/25/2018 15:07,1908,J,Benedict Doonan,,Benedict,,Doonan,Benedict,Doonan,benedictdoonan@gmail.com,asdqweJ1908,active,Member,United Kingdom (UK),Frome,"Frome, United Kingdom (UK)",01/04/1967,,51,Artist,"<img src=""https://s3.amazonaws.com/assets.knackhq.com/assets/5853e6992e7f151d490cd3f6/5ae07d8aff3883285c0fddfe/thumb/redbeachstructure.jpg"" />",https://s3.amazonaws.com/assets.knackhq.com/assets/5853e6992e7f151d490cd3f6/5ae07d8aff3883285c0fddfe/original/redbeachstructure.jpg,,,@benedict_doonan (instagram),Guest only,Email,Francesca Pisani,,,https://www.benedictdoonan.com/,,,,,,,,,,,,,,,,,,,,,,,,,,Yes,04/25/2018 15:07,,Yes,"""I'm looking for hosts that are...   ""I'm searching for open calls that are...  ""I'm looking to get connected to someone that...""",https://www.humanhotel.com,No
04/26/2017 6:13,1909,K,mira,,mira,,,mira,,mira.villani@gmail.com,asdqweK1909,active,Member,,cagliari,"cagliari, ",,40,48,fotografa,"<img src=""https://s3.amazonaws.com/assets.knackhq.com/assets/5853e6992e7f151d490cd3f6/590072921819792d8a606070/thumb/mirav..jpg"" />",https://s3.amazonaws.com/assets.knackhq.com/assets/5853e6992e7f151d490cd3f6/590072921819792d8a606070/original/mirav..jpg,,,http://elisabettavillani.tumblr.com,Guest & Host,Wooloo.org Newsletter,,,,https://www.linkedin.com/in/elisabetta-villani-a490016/,,,,,,,,,,,,,,,,,,,,,,,,,,Yes,,,,,https://www.humanhotel.com,
04/26/2017 6:45,1910,L,Astrid Bin,,Astrid,,Bin,Astrid,Bin,astrid@astridbin.com,asdqweL1910,active,Member,United Kingdom (UK),London,"London, United Kingdom (UK)",,37,48,Artist/Technologist,"<img src=""https://s3.amazonaws.com/assets.knackhq.com/assets/5853e6992e7f151d490cd3f6/59007a1b91b98e2418722d78/thumb/file_000.jpeg"" />",https://s3.amazonaws.com/assets.knackhq.com/assets/5853e6992e7f151d490cd3f6/59007a1b91b98e2418722d78/original/file_000.jpeg,,,twitter.com/disastrid,Guest & Host,Email,,,,astridbin.com,,,,,,,,,,,,,,,,,,,,,,,,,,Yes,,,,,https://www.humanhotel.com,
04/26/2017 6:51,1911,M,Huw Spanner,,Huw,,Spanner,Huw,Spanner,huw@spannermedia.com,asdqweM1911,active,Member,,Bath,"Bath, ",,57,48,Editor and writer,"<img src=""https://s3.amazonaws.com/assets.knackhq.com/assets/5853e6992e7f151d490cd3f6/59007ae458f1912f9332599a/thumb/huwflower.jpg"" />",https://s3.amazonaws.com/assets.knackhq.com/assets/5853e6992e7f151d490cd3f6/59007ae458f1912f9332599a/original/huwflower.jpg,,,https://www.facebook.com/huw.spanner,Guest & Host,HH Newsletter,,,,https://www.linkedin.com/in/huwspanner/,,,,,,,,,,,,,,,,,,,,,,,,,,Yes,,,,,https://www.humanhotel.com,
04/26/2017 7:25,1912,N,Filipe Bianchi,,Filipe,,Bianchi,Filipe,Bianchi,filipe@filipebianchi.com,asdqweN1912,active,Member,Portugal,Lisbon,"Lisbon, Portugal",,52,48,Photographer,"<img src=""https://s3.amazonaws.com/assets.knackhq.com/assets/5853e6992e7f151d490cd3f6/5900831370e5902e244fe8ac/thumb/dsc_0053_bw_500x500px.jpg"" />",https://s3.amazonaws.com/assets.knackhq.com/assets/5853e6992e7f151d490cd3f6/5900831370e5902e244fe8ac/original/dsc_0053_bw_500x500px.jpg,,,https://www.facebook.com/filipe.bianchi,Guest only,Wooloo.org Newsletter,,,,http://www.filipebianchi.com/,,,,,,,,,,,,,,,,,,,,,,,,,,Yes,,,,,https://www.humanhotel.com,
04/26/2017 7:59,1913,O,Marijn van der Ploeg,,Marijn,,van der Ploeg,Marijn,van der Ploeg,marijn@ploegen.com,asdqweO1913,active,Member,,Rotterdam,"Rotterdam, ",,21,48,filmmaker,"<img src=""https://s3.amazonaws.com/assets.knackhq.com/assets/5853e6992e7f151d490cd3f6/59008b8af63c8f2e485344e5/thumb/12241691_1018988108164839_5026174248659099901_n.jpg"" />",https://s3.amazonaws.com/assets.knackhq.com/assets/5853e6992e7f151d490cd3f6/59008b8af63c8f2e485344e5/original/12241691_1018988108164839_5026174248659099901_n.jpg,,,https://www.facebook.com/marijn.vanderploeg.7,Guest & Host,Email,,,,marijnvanderploeg.nl,,,,,,,,,,,,,,,,,,,,,,,,,,Yes,,,,,https://www.humanhotel.com,
04/26/2017 8:08,1914,P,mira,,mira,,,mira,,mira.elisabetta@gmail.com,asdqweP1914,active,Member,,cagliari,"cagliari, ",,40,48,fotografa,"<img src=""https://s3.amazonaws.com/assets.knackhq.com/assets/5853e6992e7f151d490cd3f6/59008d77f5ff732f8c9d2288/thumb/mirav..jpg"" />",https://s3.amazonaws.com/assets.knackhq.com/assets/5853e6992e7f151d490cd3f6/59008d77f5ff732f8c9d2288/original/mirav..jpg,,,http://elisabettavillani.tumblr.com,Guest & Host,Wooloo.org Newsletter,,,,https://www.linkedin.com/in/elisabetta-villani-a490016/,,,,,,,,,,,,,,,,,,,,,,,,,,Yes,,,,,https://www.humanhotel.com,
04/26/2017 8:55,1915,Q,Yaron Lapid,,Yaron,,Lapid,Yaron,Lapid,70candlehouse@gmail.com,asdqweQ1915,active,Member,United Kingdom (UK),Leeds,"Leeds, United Kingdom (UK)",,42,48,artist,"<img src=""https://s3.amazonaws.com/assets.knackhq.com/assets/5853e6992e7f151d490cd3f6/5900984f1819792d8a608463/thumb/screenshot20170426at10.55.26.png"" />",https://s3.amazonaws.com/assets.knackhq.com/assets/5853e6992e7f151d490cd3f6/5900984f1819792d8a608463/original/screenshot20170426at10.55.26.png,44,,https://www.linkedin.com/in/yaron-lapid-74a01911?ppe=1,Host only,Word of mouth,,...,...,www.finderandkeeper.co.uk,...,,,,,,,,,,,,,,,,,,,...,,,,,5% booking fee discount<br />,Yes,,,,,https://www.humanhotel.com,
04/26/2017 9:19,1916,R,Deborah  Kelly,,Deborah,,Kelly,Deborah,Kelly,dkellysocialchange@yahoo.com,asdqweR1916,active,Member,,Sydney,"Sydney , ",,55,48,"Artist, art director ","<img src=""https://s3.amazonaws.com/assets.knackhq.com/assets/5853e6992e7f151d490cd3f6/59009db1987f31231d5d564c/thumb/img_2046.jpg"" />",https://s3.amazonaws.com/assets.knackhq.com/assets/5853e6992e7f151d490cd3f6/59009db1987f31231d5d564c/original/img_2046.jpg,,,https://m.facebook.com/artistdeborahkelly/?ref=bookmarks,Guest & Host,Email,You,,,https://www.theguardian.com/artanddesign/gallery/2015/dec/04/bodies-of-work-deborah-kellys-political-pop-art-in-pictures,,,,,,,,,,,,,,,,,,,,,,,,,,Yes,,,,,https://www.humanhotel.com,
04/26/2017 10:35,1917,S,Ray McCormack,,Ray,,McCormack,Ray,McCormack,ray.mccormack@icloud.com,asdqweS1917,active,Member,,Dublin,"Dublin, ",,59,48,film-maker,"<img src=""https://s3.amazonaws.com/assets.knackhq.com/assets/5853e6992e7f151d490cd3f6/5900af891a426c30069124a9/thumb/cocorosie.jpg"" />",https://s3.amazonaws.com/assets.knackhq.com/assets/5853e6992e7f151d490cd3f6/5900af891a426c30069124a9/original/cocorosie.jpg,,,twitter.com/Ray_McCormack,Guest & Host,Through an event,,,,gambitpictures.eu,,,,,,,,,,,,,,,,,,,,,,,,,,Yes,,,,,https://www.humanhotel.com,
04/26/2017 14:58,1918,T,pilar millan,,pilar,,millan,pilar,millan,pilarmillan.derqui@ymail.com,asdqweT1918,active,Member,Germany,berlin,"berlin, Germany",,55,48,visual artist,"<img src=""https://s3.amazonaws.com/assets.knackhq.com/assets/5853e6992e7f151d490cd3f6/5900ec4b147fb72e9ea5e965/thumb/retratobn.tif"" />",https://s3.amazonaws.com/assets.knackhq.com/assets/5853e6992e7f151d490cd3f6/5900ec4b147fb72e9ea5e965/original/retratobn.tif,,,tps://www.linkedin.com/in/pilar-millan-1a3b0a38/?ppe=1,Guest only,Email,,,,www.pilarmillan.com,,,,,,,,,,,,,,,,,,,,,,,,,,Yes,,,,,https://www.humanhotel.com,
04/26/2017 16:20,1919,U,Anders Ericson,,Anders,,Ericson,Anders,Ericson,frilanders@gmail.com,asdqweU1919,active,Member,,Moss,"Moss, ",,65,48,freelance journalist and librarian,"<img src=""https://s3.amazonaws.com/assets.knackhq.com/assets/5853e6992e7f151d490cd3f6/590100df76f900352a5880b6/thumb/anders2013.png"" />",https://s3.amazonaws.com/assets.knackhq.com/assets/5853e6992e7f151d490cd3f6/590100df76f900352a5880b6/original/anders2013.png,,,https://twitter.com/frilanders,Guest only,Word of mouth,Magnus Bjerk,,,https://bibliotekettarsaka.wordpress.com/,,,,,,,,,,,,,,,,,,,,,,,,,,Yes,,,,,https://www.humanhotel.com,
04/26/2017 21:12,1920,V,Monica Rezman,,Monica,,Rezman,Monica,Rezman,monicarezman@sbcglobal.net,asdqweV1920,active,Member,United States of America (USA),Chicago,"Chicago, United States of America (USA)",,59,48,Artist,"<img src=""https://s3.amazonaws.com/assets.knackhq.com/assets/5853e6992e7f151d490cd3f6/590145417e826838eef326c7/thumb/img_1612.jpg"" />",https://s3.amazonaws.com/assets.knackhq.com/assets/5853e6992e7f151d490cd3f6/590145417e826838eef326c7/original/img_1612.jpg,1,312.956.8839,monicarezman@instagram,Guest & Host,Email,,I would describe myself as a restless spirit. The 2 things that tie me down to one place these days are my artistic practice and my daughter. I live in a renovated brownstone with a enormous garden and a rear coachhouse that I use as my studio in Chicago.,"#extravert, #curious,#creative",monicarezman.com,"#tactile,#drawing,#embroidery","<img src=""https://s3.amazonaws.com/assets.knackhq.com/assets/5853e6992e7f151d490cd3f6/5946c85ff22ef04b88c02c6b/thumb/img_3255.jpg"" />",https://s3.amazonaws.com/assets.knackhq.com/assets/5853e6992e7f151d490cd3f6/5946c85ff22ef04b88c02c6b/original/img_3255.jpg,Painting and Paper Sculptures,"<img src=""https://s3.amazonaws.com/assets.knackhq.com/assets/5853e6992e7f151d490cd3f6/5946c860c070df603d66c364/thumb/morningrush.jpg"" />",https://s3.amazonaws.com/assets.knackhq.com/assets/5853e6992e7f151d490cd3f6/5946c860c070df603d66c364/original/morningrush.jpg,Painting and thread,"<img src=""https://s3.amazonaws.com/assets.knackhq.com/assets/5853e6992e7f151d490cd3f6/5946c867ff360c4c53723ccc/thumb/wards.jpg"" />",https://s3.amazonaws.com/assets.knackhq.com/assets/5853e6992e7f151d490cd3f6/5946c867ff360c4c53723ccc/original/wards.jpg,"Fabric, Paint, embroidery","<img src=""https://s3.amazonaws.com/assets.knackhq.com/assets/5853e6992e7f151d490cd3f6/5946c88dff360c4c53723ce3/thumb/hairpiece36.jpg"" />",https://s3.amazonaws.com/assets.knackhq.com/assets/5853e6992e7f151d490cd3f6/5946c88dff360c4c53723ce3/original/hairpiece36.jpg,Charcoal drawing on paper,"<img src=""https://s3.amazonaws.com/assets.knackhq.com/assets/5853e6992e7f151d490cd3f6/5946c892691eb74f077f0318/thumb/hairpiece36copy2.jpg"" />",https://s3.amazonaws.com/assets.knackhq.com/assets/5853e6992e7f151d490cd3f6/5946c892691eb74f077f0318/original/hairpiece36copy2.jpg,charcoal drawing on paper,"<img src=""https://s3.amazonaws.com/assets.knackhq.com/assets/5853e6992e7f151d490cd3f6/5946c8a26c8e1c4c2fa70273/thumb/themeetingoftwooceans.jpg"" />",https://s3.amazonaws.com/assets.knackhq.com/assets/5853e6992e7f151d490cd3f6/5946c8a26c8e1c4c2fa70273/original/themeetingoftwooceans.jpg,Painting and Charcoal drawing on paper,I enter my studio each with and open mind to explore endless possibilities!,,,,,"She describes herself as a restless spirit and loves to explore endless possibilities. Her last work, The Pollen Path, is investigating hair as a substance linked to rituals of femininity and the beauty industry.",Yes,06/18/2017 21:09,,,,https://www.humanhotel.com,
04/26/2018 19:17,1921,W,Isabelle Caron,,Isabelle,,Caron,Isabelle,Caron,isabellcaron@hotmail.com,asdqweW1921,active,Member,Canada,Montreal,"Montreal, Canada",12/12/1983,,35,"PhD in research-creation, cultural action, visual art","<img src=""https://s3.amazonaws.com/assets.knackhq.com/assets/5853e6992e7f151d490cd3f6/5ae208bb06d68d286a936834/thumb/ic_uqam.jpg"" />",https://s3.amazonaws.com/assets.knackhq.com/assets/5853e6992e7f151d490cd3f6/5ae208bb06d68d286a936834/original/ic_uqam.jpg,1,514-381-0863,https://www.facebook.com/isabelle.caron.iconova?ref=bookmarks,Guest only,Through an event,Open Engagement,Hi! I'm a visual artist from Montreal. I'm a citizen much involve in my community...!,"artist collective, cultural action, social justice",https://www.linkedin.com/in/isabelle-caron-ba105a30/,"artist collective, cultural action, visual arts","<img src=""https://s3.amazonaws.com/assets.knackhq.com/assets/5853e6992e7f151d490cd3f6/5ae20a9862fc8c286bad34a0/thumb/cortegereve_4.jpg"" />",https://s3.amazonaws.com/assets.knackhq.com/assets/5853e6992e7f151d490cd3f6/5ae20a9862fc8c286bad34a0/original/cortegereve_4.jpg,Le cortège rêvé,"<img src=""https://s3.amazonaws.com/assets.knackhq.com/assets/5853e6992e7f151d490cd3f6/5ae20a9fbe3302287fd307cb/thumb/cortegereve_3.jpg"" />",https://s3.amazonaws.com/assets.knackhq.com/assets/5853e6992e7f151d490cd3f6/5ae20a9fbe3302287fd307cb/original/cortegereve_3.jpg,Le cortège rêvé,"<img src=""https://s3.amazonaws.com/assets.knackhq.com/assets/5853e6992e7f151d490cd3f6/5ae20aa935b3ce2859994acd/thumb/cortegereve_1_prev.jpg"" />",https://s3.amazonaws.com/assets.knackhq.com/assets/5853e6992e7f151d490cd3f6/5ae20aa935b3ce2859994acd/original/cortegereve_1_prev.jpg,Le cortège rêvé,"<img src=""https://s3.amazonaws.com/assets.knackhq.com/assets/5853e6992e7f151d490cd3f6/5ae20bde59ef9f286c613593/thumb/dscf5741.jpg"" />",https://s3.amazonaws.com/assets.knackhq.com/assets/5853e6992e7f151d490cd3f6/5ae20bde59ef9f286c613593/original/dscf5741.jpg,Silk printing for a set design,"<img src=""https://s3.amazonaws.com/assets.knackhq.com/assets/5853e6992e7f151d490cd3f6/5ae20c27273e15286447092d/thumb/_mg_1025_sebastien_roy.jpg"" />",https://s3.amazonaws.com/assets.knackhq.com/assets/5853e6992e7f151d490cd3f6/5ae20c27273e15286447092d/original/_mg_1025_sebastien_roy.jpg,"Rouge Mekong, Lebovitz collective","<img src=""https://s3.amazonaws.com/assets.knackhq.com/assets/5853e6992e7f151d490cd3f6/5ae20c50ff3edd28722bfaef/thumb/_mg_0782_sebastien_roy.jpg"" />",https://s3.amazonaws.com/assets.knackhq.com/assets/5853e6992e7f151d490cd3f6/5ae20c50ff3edd28722bfaef/original/_mg_0782_sebastien_roy.jpg,"Rouge Mekong, Lebovitz collective","I mostly work in two montreal based artistic collectives: LEBOVITZ and Pourquoi jamais. I do set design for theatre, artistic direction and lot's of other things! ",,,,,,Yes,04/26/2018 19:17,,No,"""I'm looking for hosts that are...   ""I'm searching for open calls that are...  ""I'm looking to get connected to someone that...""",https://www.humanhotel.com,No
04/27/2017 7:12,1922,X,Sophie berger,,Sophie,,berger,Sophie,berger,sophie.olivia.berger@gmail.com,asdqweX1922,active,Member,,Okehampton,"Okehampton, ",,29,48,Artist - Painter,"<img src=""https://s3.amazonaws.com/assets.knackhq.com/assets/5853e6992e7f151d490cd3f6/5901d1e7caa02425c603c502/thumb/berger368.jpg"" />",https://s3.amazonaws.com/assets.knackhq.com/assets/5853e6992e7f151d490cd3f6/5901d1e7caa02425c603c502/original/berger368.jpg,,,https://www.instagram.com/sophie_berger_art/,Host only,Wooloo.org Newsletter,,,,www.sophieberger.co.uk,,,,,,,,,,,,,,,,,,,,,,,,,,Yes,,,,,https://www.humanhotel.com,
04/27/2017 10:46,1923,Y,Suzana Marjanovic,,Suzana,,Marjanovic,Suzana,Marjanovic,criticalpath@gmail.com,asdqweY1923,active,Member,,Portland,"Portland, ",,37,48,Artist/Graphic Designer/Photographer,"<img src=""https://s3.amazonaws.com/assets.knackhq.com/assets/5853e6992e7f151d490cd3f6/590204282414b225c1341c7f/thumb/ciderscrabble_justme2015.jpg"" />",https://s3.amazonaws.com/assets.knackhq.com/assets/5853e6992e7f151d490cd3f6/590204282414b225c1341c7f/original/ciderscrabble_justme2015.jpg,,,instagram.com/elasticfate,Guest & Host,Wooloo.org Newsletter,wooloo,,,elasticfate.com,,,,,,,,,,,,,,,,,,,,,,,,,,Yes,,,,,https://www.humanhotel.com,
04/27/2017 13:19,1924,Z,sujay saple,,sujay,,saple,sujay,saple,sujaysaple@gmail.com,asdqweZ1924,active,Member,,MUMBAI,"MUMBAI, ",,31,48,performance maker,"<img src=""https://s3.amazonaws.com/assets.knackhq.com/assets/5853e6992e7f151d490cd3f6/590227db02cf8b25c4ec2ed2/thumb/dillinov162.jpg"" />",https://s3.amazonaws.com/assets.knackhq.com/assets/5853e6992e7f151d490cd3f6/590227db02cf8b25c4ec2ed2/original/dillinov162.jpg,,,https://www.facebook.com/shapeshiftcollective.mumbai,Guest only,Word of mouth,a friend,,,https://www.facebook.com/shapeshiftcollective/?pnref=lhc,,,,,,,,,,,,,,,,,,,,,,,,,,Yes,,,,,https://www.humanhotel.com,
04/27/2017 14:26,1925,A,Talin Lyman,,Talin,,Lyman,Talin,Lyman,talintropic@yahoo.com,asdqweA1925,active,Member,,Boynton Beach,"Boynton Beach, ",,54,48,artist/designer,"<img src=""https://s3.amazonaws.com/assets.knackhq.com/assets/5853e6992e7f151d490cd3f6/5902375d0bd3b925b8f3b0ef/thumb/231d83bb54a24fb39067634e61b1212d_l.jpg"" />",https://s3.amazonaws.com/assets.knackhq.com/assets/5853e6992e7f151d490cd3f6/5902375d0bd3b925b8f3b0ef/original/231d83bb54a24fb39067634e61b1212d_l.jpg,,,https://www.facebook.com/talintropic/,Guest & Host,Wooloo.org Newsletter,,,,talintropic.com,,,,,,,,,,,,,,,,,,,,,,,,,,Yes,,,,,https://www.humanhotel.com,
04/27/2017 15:37,1926,B,Fari Bradley,,Fari,,Bradley,Fari,Bradley,fari@faribradley.co.uk,asdqweB1926,active,Member,United Kingdom (UK),London,"London, United Kingdom (UK)",,35,48,Sound Artist,"<img src=""https://s3.amazonaws.com/assets.knackhq.com/assets/5853e6992e7f151d490cd3f6/590247d5e7654326062509b3/thumb/smallnationalfaribradley.jpg"" />",https://s3.amazonaws.com/assets.knackhq.com/assets/5853e6992e7f151d490cd3f6/590247d5e7654326062509b3/original/smallnationalfaribradley.jpg,,,www.twitter.com/faribrad,Guest & Host,Email,forgot,...,...,www.faribradley.co.uk,...,,,,,,,,,,,,,,,,,,,...,,,,,,Yes,,,,,https://www.humanhotel.com,
04/27/2018 11:49,1927,C,Khalid Albaih,,Khalid,,Albaih,Khalid,Albaih,khalidalbaih@gmail.com,asdqweC1927,active,Member,Denmark,Copenhagen,"Copenhagen, Denmark",22/04/1980,,38,Political cartoonist/ Multimedia Artist/ cultural Producer,"<img src=""https://s3.amazonaws.com/assets.knackhq.com/assets/5853e6992e7f151d490cd3f6/5ae2f15d62e4d029f78e1769/thumb/khaliddardo.jpg"" />",https://s3.amazonaws.com/assets.knackhq.com/assets/5853e6992e7f151d490cd3f6/5ae2f15d62e4d029f78e1769/original/khaliddardo.jpg,45,29296476,@khalidlbaih,Guest only,Word of mouth,,Nomad (not by choice),#Sudan #Art #Museums,https://www.linkedin.com/in/khalidaali/,#Khartoon,,,,,,,,,,,,,,,,,,,"@khalidalbaih is a Sudanese artist and political cartoonist that born in Bucharest, Romania in 1980. He currently lives and works in Denmark where he is the ICORN/PEN Artist in residence for the city of  Copenhagen, Denmark.<br />Khalid has been based in Doha since 1990 where his last position was The head the Public Art for Qatar Museums Authority. He publishes his cartoons on social media under “Khartoon!,” a word play on cartoon and Khartoum, the capital of Sudan. Albaih has published his cartoons widely in international publications including The New York Time, The Atlantic, PRI, and NPR, BBC, in addition, Albaih has published his written social and political commentary in publications such as The Guardian and Al Jazeera. His work has been exhibited in group exhibitions including ""Arab Cartoon Festival"" (Belgium 2017) ""Gagged"" (Westminster Library 2017)  “The Khartoum School” (Sharjah, 2016) “do it [in Arabic]” (Sharjah, 2016) and “RE:BELLION // RE:LIGION // RE:FORM - Artistic Action in Times of Crisis” (Zwickau, Germany, 2015) as well as solo exhibitions at Asakusa Art Space (Tokyo,2017), #Crowdsourced at Katara Art Center (Doha, 2017) Harvard Center of Middle Eastern Studies (Boston, 2016).  Rhode Island School of Design (Providence, RI, 2017) Virgina Commonwealth University ( Doha, Qatar, 2016), 1After360 Gallery (New Delhi, India, 2016), the Arab American National Museum (Dearborn, MI, 2015), McGill University Montreal, 2014), and Edge of Arabia (London, 2013). <br />Khalid is also the founder of @DohaFashionFridays and Co-founder of Khartoum Art & Design Center",https://www.youtube.com/watch?v=tXnPpdxy_SE,,https://www.youtube.com/watch?time_continue=1&v=zh5Azdtg8gQ,,,Yes,04/27/2018 11:55,,Yes,"""I'm looking for hosts that are...   ""I'm searching for open calls that are...  ""I'm looking to get connected to someone that...""",https://www.humanhotel.com,No
04/27/2018 12:19,1928,D,Sara Afraz,,Sara,,Afraz,Sara,Afraz,sara.afraz@yahoo.com,asdqweD1928,active,Member,Iran,Tehran,"Tehran, Iran",17/07/1987,,31,Architect,"<img src=""https://s3.amazonaws.com/assets.knackhq.com/assets/5853e6992e7f151d490cd3f6/5ae2f88a9b377e29fb1f9e91/thumb/img_2647.jpg"" />",https://s3.amazonaws.com/assets.knackhq.com/assets/5853e6992e7f151d490cd3f6/5ae2f88a9b377e29fb1f9e91/original/img_2647.jpg,,3420057099,https://www.facebook.com/sara.gooop,Guest only,Through an event,Birgitte Lund,"I am a dreamer-setting-foot-on-reality kinda type. reliable, adaptable, and open-hearted. I love meditation, and am very much inspired by human behavior. I'm an introvert that does not look like one (haha true story), and am in love with stories, of any kind.",#visualart #meditation #stories,https://www.linkedin.com/in/sara-afraz/,#social #architecture #furniture,,,,,,,,,,,,,,,,,,,"I am an architect/interior designer/furniture designer. I choose to work with clients that have social initiatives. My last project was an interior design for a social enterprise aiming to provide perspective for refugees in Austrian labor market. I have lived/worked/studies in Iran, Italy, Kenya, and Austria.. and I am now trying my chances in Berlin. ",,,,,,Yes,04/27/2018 12:42,,Yes,"""I'm looking for hosts that are...   ""I'm searching for open calls that are...  ""I'm looking to get connected to someone that...""",https://www.humanhotel.com,No
04/27/2018 14:15,1929,E,Lily Parrott,,Lily,,Parrott,Lily,Parrott,lilith.parrott@gmail.com,asdqweE1929,active,Member,United Kingdom (UK),London,"London, United Kingdom (UK)",06/07/1988,,30,Student/organisation director,"<img src=""https://s3.amazonaws.com/assets.knackhq.com/assets/5853e6992e7f151d490cd3f6/5ae3141ff1289529e1ad9a18/thumb/me.jpg"" />",https://s3.amazonaws.com/assets.knackhq.com/assets/5853e6992e7f151d490cd3f6/5ae3141ff1289529e1ad9a18/original/me.jpg,44,7774269710,https://www.facebook.com/lily.parrott,Guest only,Through an event,,"Originally from the US, I am currently a law student in training to become an immigration solicitor in London. My passion is figuring out how to bring a shift in public opinion and awareness of migration issues through the work Migration Collective, an organisation of which I am a co-founder and project manager. Prior to this, I worked as a manager of refugee support and family tracing services with the British Red Cross. But this is a far cry from my first love, philosophy, particularly the philosophy of mind and metaphysics, which I studied as an undergraduate in Scotland.","migration, philosophy, law",https://www.migrationcollective.com/,"art, academia, action",,,,,,,,,,,,,,,,,,,"Migration Collective is a small London-based organisation that aims to challenge the narrow rhetoric on migration through projects & events sitting at the intersection of art, academia and action. The biggest event we host is the annual London Migration Film Festival.",,,,,,Yes,04/27/2018 14:24,,Yes,"""I'm looking for hosts that are...   ""I'm searching for open calls that are...  ""I'm looking to get connected to someone that...""",https://www.humanhotel.com,No
04/27/2018 20:27,1930,F,Nicky Martinez,,Nicky,,Martinez,Nicky,Martinez,nicky@counterpulse.org,asdqweF1930,active,Member,United States of America (USA),San Francisco,"San Francisco, United States of America (USA)",01/05/1994,,24,Program Manager,"<img src=""https://s3.amazonaws.com/assets.knackhq.com/assets/5853e6992e7f151d490cd3f6/5ae36b128a352229f40390dc/thumb/34739706731_64d69fee6a_h.jpg"" />",https://s3.amazonaws.com/assets.knackhq.com/assets/5853e6992e7f151d490cd3f6/5ae36b128a352229f40390dc/original/34739706731_64d69fee6a_h.jpg,,,https://www.facebook.com/nicky5194?ref=br_rs,Host only,Email,Human Hotel,,,http://counterpulse.org/,,,,,,,,,,,,,,,,,,,,,,,,,,Yes,04/27/2018 20:27,,Yes,"""I'm looking for hosts that are...   ""I'm searching for open calls that are...  ""I'm looking to get connected to someone that...""",https://www.humanhotel.com,No
04/28/2017 6:40,1931,G,Jørgen Husbond,,Jørgen,,Husbond,Jørgen,Husbond,husbond@gmail.com,asdqweG1931,active,Member,Denmark,Copenhagen,"Copenhagen, Denmark",,44,48,Management Consultant,"<img src=""https://s3.amazonaws.com/assets.knackhq.com/assets/5853e6992e7f151d490cd3f6/59031b978c87ef26645b148f/thumb/jorgenwhiteshirt.jpg"" />",https://s3.amazonaws.com/assets.knackhq.com/assets/5853e6992e7f151d490cd3f6/59031b978c87ef26645b148f/original/jorgenwhiteshirt.jpg,45,2820 0918,https://www.facebook.com/profile.php?id=742768711,Guest & Host,Word of mouth,Martin Rosengaard,.,.,https://www.linkedin.com/in/jørgen-husbond-47ba9a4/,.,,,,,,,,,,,,,,,,,,,.,,,,,5% booking fee discount<br />,Yes,,,,,https://www.humanhotel.com,
04/28/2017 11:33,1932,H,Steven Reker,,Steven,,Reker,Steven,Reker,stevenreker@gmail.com,asdqweH1932,active,Member,United States of America (USA),Brooklyn,"Brooklyn, United States of America (USA)",,34,48,Musician,"<img src=""https://s3.amazonaws.com/assets.knackhq.com/assets/5853e6992e7f151d490cd3f6/59036052a9b8f5265d6cb8e7/thumb/beach.jpg"" />",https://s3.amazonaws.com/assets.knackhq.com/assets/5853e6992e7f151d490cd3f6/59036052a9b8f5265d6cb8e7/original/beach.jpg,,,https://www.facebook.com/steven.reker.9,Guest & Host,Word of mouth,Robert Flynt,,,stevenreker.com,,,,,,,,,,,,,,,,,,,,,,,,,,Yes,,,,,https://www.humanhotel.com,
04/28/2017 11:59,1933,I,Jenya M,,Jenya,,M,Jenya,M,arxitectura@gmail.com,asdqweI1933,active,Member,United States of America (USA),"Brooklyn, NY","Brooklyn, NY, United States of America (USA)",29/10/1985,31,33,architect/artist/ceramist,"<img src=""https://s3.amazonaws.com/assets.knackhq.com/assets/5853e6992e7f151d490cd3f6/590366cd350806271bfb6dc8/thumb/img_8380.jpg"" />",https://s3.amazonaws.com/assets.knackhq.com/assets/5853e6992e7f151d490cd3f6/590366cd350806271bfb6dc8/original/img_8380.jpg,,9178895087,plantsandmagic,Guest & Host,Word of mouth,,I work in architecture/construction and also have my own ceramics practice. I am vegan for 2.5 years now.,"Ceramics, vegan, art",wingpartners.com,"Ceramics, vegan, art",,,,,,,,,,,,,,,,,,,I work in architecture/construction and also have my own ceramics practice.,,,,,,Yes,03/21/2018 15:30,,,,https://www.humanhotel.com,
04/28/2017 12:42,1934,J,Benoit Maubrey,,Benoit,,Maubrey,Benoit,Maubrey,mail@benoitmaubrey.com,asdqweJ1934,active,Member,Germany,Berlin,"Berlin, Germany",29/11/1952,64,66,artist,"<img src=""https://s3.amazonaws.com/assets.knackhq.com/assets/5853e6992e7f151d490cd3f6/5903707a652dbd3001e66810/thumb/benoitpassfoto.jpg"" />",https://s3.amazonaws.com/assets.knackhq.com/assets/5853e6992e7f151d490cd3f6/5903707a652dbd3001e66810/original/benoitpassfoto.jpg,49,49338418265,https://www.facebook.com/benoit.maubrey.5,Guest & Host,Wooloo.org Newsletter,,sound artist working in public spaces,"...public art, sound art, interactive art","www.benoitmaubrey.com, http://www.susken-rosenthal.de/","...sound sculpture, public art, performance","<img src=""https://s3.amazonaws.com/assets.knackhq.com/assets/5853e6992e7f151d490cd3f6/59d368db5af490225999516b/thumb/fieldwartist_mh144.jpeg"" />",https://s3.amazonaws.com/assets.knackhq.com/assets/5853e6992e7f151d490cd3f6/59d368db5af490225999516b/original/fieldwartist_mh144.jpeg,artist at work : Audio Farmer,"<img src=""https://s3.amazonaws.com/assets.knackhq.com/assets/5853e6992e7f151d490cd3f6/59d368f6ba19af2116cea10c/thumb/fielddetail_mhaeussinger116.jpg"" />",https://s3.amazonaws.com/assets.knackhq.com/assets/5853e6992e7f151d490cd3f6/59d368f6ba19af2116cea10c/original/fielddetail_mhaeussinger116.jpg,Sound Field,"<img src=""https://s3.amazonaws.com/assets.knackhq.com/assets/5853e6992e7f151d490cd3f6/59d36905e0ac7b32b73af6bf/thumb/fieldsolar_mh135.jpeg"" />",https://s3.amazonaws.com/assets.knackhq.com/assets/5853e6992e7f151d490cd3f6/59d36905e0ac7b32b73af6bf/original/fieldsolar_mh135.jpeg,interactive solar sound field,"<img src=""https://s3.amazonaws.com/assets.knackhq.com/assets/5853e6992e7f151d490cd3f6/59d369285af49022599951ba/thumb/shrine_goodsmall.jpg"" />",https://s3.amazonaws.com/assets.knackhq.com/assets/5853e6992e7f151d490cd3f6/59d369285af49022599951ba/original/shrine_goodsmall.jpg,audio Torii Gate,"<img src=""https://s3.amazonaws.com/assets.knackhq.com/assets/5853e6992e7f151d490cd3f6/59d3694677ebe224ac28ff66/thumb/templeeditedkids.jpg"" />",https://s3.amazonaws.com/assets.knackhq.com/assets/5853e6992e7f151d490cd3f6/59d3694677ebe224ac28ff66/original/templeeditedkids.jpg,Audio Temple,"<img src=""https://s3.amazonaws.com/assets.knackhq.com/assets/5853e6992e7f151d490cd3f6/59d36959de43f025b40a7b2a/thumb/cube.jpg"" />",https://s3.amazonaws.com/assets.knackhq.com/assets/5853e6992e7f151d490cd3f6/59d36959de43f025b40a7b2a/original/cube.jpg,CUBE: an interactive public sound space,"My decision in the early 1980s to stop working with pigments and canvas came from a desire to interact directly with public spaces. This is why I decided to work with loudspeakers and media. Loudspeakers have long been integrated into modern life inside our homes, mass transportation, and public spaces -- wherever you find people, you‘ll find loudspeakers. The art I make is not “high tech“, it‘s normal. Speakers are cheap and commonplace: they can be found at flea markets, second-hand stores, recycling centers or in garbage bins. I use loudspeakers and re-cycled electronics much in the same way that a sculptor uses clay or wood: as a modern medium to create artworks with the added attraction that they can make the air vibrate (""sound"") around them and create a public interactive ""hotspot”.",https://vimeo.com/207820855,public sound sculptures,https://vimeo.com/225265820,audio ballerina,,Yes,10/03/2017 12:44,,,,https://www.humanhotel.com,
04/28/2017 12:45,1935,K,Jessica Angel,,Jessica,,Angel,Jessica,Angel,jessica.angel@gmail.com,asdqweK1935,active,Member,United States of America (USA),Brooklyn,"Brooklyn, United States of America (USA)",,36,48,Visual Artist,"<img src=""https://s3.amazonaws.com/assets.knackhq.com/assets/5853e6992e7f151d490cd3f6/59037142e813d5292627235b/thumb/img_6099.jpg"" />",https://s3.amazonaws.com/assets.knackhq.com/assets/5853e6992e7f151d490cd3f6/59037142e813d5292627235b/original/img_6099.jpg,1,6468841390,@jessicaangelstudio,Guest & Host,Wooloo.org Newsletter,wooloo,"I'm a visual artist and educator. I have a small art studio in the apartment so you will be surrounded by art and will perhaps get to experience a little bit of my creative process.<br />Astronomy is my hobby, I'm obsessed with the Universe! I love thinking about the beginning of everything and the meaning of life.<br />","Smile, welcoming, respectful",www.jessicaangelarts.com,"Installation Art, immersive, optical",,,,,,,,,,,,,,,,,,,"My work takes over architectural interiors, exploring the possibility of visual illusion and the transformation of space with the use of perspective. I aim to address a non-traditional experience of space, using mural painting, large scale drawing interventions and wallpapering as tools to create immersive environments that bring people closer to their imagination. I recently completed a Studios at MASS MoCA Artist Residency and a solo exhibition at the School of Visual Arts’ CP Projects Space. In 2017 I was the first long term resident artist at the Abroms-Engel Institute for the Visual Arts. In 2016 I developed two large projects with 516 Arts where I was a recipient of the VAN Residency.",,,,,,Yes,,,,,https://www.humanhotel.com,
04/28/2017 13:04,1936,L,Donald Daedalus,,Donald,,Daedalus,Donald,Daedalus,ddaedalus@gmail.com,asdqweL1936,active,Member,United States of America (USA),New York,"New York, United States of America (USA)",,34,48,Artist,"<img src=""https://s3.amazonaws.com/assets.knackhq.com/assets/5853e6992e7f151d490cd3f6/590375f4e813d52926272950/thumb/daedalusportrait201677.jpg"" />",https://s3.amazonaws.com/assets.knackhq.com/assets/5853e6992e7f151d490cd3f6/590375f4e813d52926272950/original/daedalusportrait201677.jpg,,,https://www.instagram.com/dhpdaedalus/,Guest & Host,Email,,,,http://www.donalddaedalus.com/,,,,,,,,,,,,,,,,,,,,,,,,,,Yes,,,,,https://www.humanhotel.com,
04/28/2017 13:38,1937,M,Estelle Hoy,,Estelle,,Hoy,Estelle,Hoy,estelle.hoy@gmail.com,asdqweM1937,active,Member,Germany,Berlin,"Berlin, Germany",,34,48,Writer / Lecturer,"<img src=""https://s3.amazonaws.com/assets.knackhq.com/assets/5853e6992e7f151d490cd3f6/59037dbfbe53c02a199d7d82/thumb/s65_estelle.hoy.jpg"" />",https://s3.amazonaws.com/assets.knackhq.com/assets/5853e6992e7f151d490cd3f6/59037dbfbe53c02a199d7d82/original/s65_estelle.hoy.jpg,,,http://www.estellehoy.com/,Host only,Email,,I am an academic and writer living in Berlin with my partner.  We love welcoming people into our home and meeting other artists from around the world!  We would love to have you stay with us in out lovely home in Berlin!,"warm, friendly, hospitable",https://graduatehouse.academia.edu/EstelleHoy,"experimental, political, feminist ",,,,,,,,,,,,,,,,,,,I'm currently writing a novel about an Hungarian anarchist and her collective set in Paris.,,,,,"She is an academic and writer, currently working on a novel about a Hungarian anarchist and her collective set in Paris. As a social artist, Estelle works mostly in text, video and performance, always with a social and political agenda.",Yes,,,,,https://www.humanhotel.com,
04/28/2017 17:21,1938,N,Ralf Tekaat,,Ralf,,Tekaat,Ralf,Tekaat,info@ralftekaat.de,asdqweN1938,active,Member,Germany,Berlin,"Berlin, Germany",11/11/1970,46,48,artist,"<img src=""https://s3.amazonaws.com/assets.knackhq.com/assets/5853e6992e7f151d490cd3f6/59075e5c5ffed32690e3e3d6/thumb/10950687_10152564818076607_8172964200754885587_n.jpg"" />",https://s3.amazonaws.com/assets.knackhq.com/assets/5853e6992e7f151d490cd3f6/59075e5c5ffed32690e3e3d6/original/10950687_10152564818076607_8172964200754885587_n.jpg,49,491736443178,https://www.facebook.com/ralf.tekaat,Guest & Host,HH Newsletter,,"I was born 1970 in Bobingen, Bavaria. I studied Visual Communications at the University Of Applied Sciences, Münster and studied Visual Arts at the University Of The Arts Bremen. 2008 I lived half a year in Brooklyn, N.Y.. Since 2009 I live together with my wife and my son, 9 in Berlin, Germany.","friendly, helpful, solid",www.ralftekaat.de,"drawing, pencil, installation","<img src=""https://s3.amazonaws.com/assets.knackhq.com/assets/5853e6992e7f151d490cd3f6/59075f834e63ba2938d94b14/thumb/flugelausst.jpg"" />",https://s3.amazonaws.com/assets.knackhq.com/assets/5853e6992e7f151d490cd3f6/59075f834e63ba2938d94b14/original/flugelausst.jpg,Wing | 2012 |  pencil on paper | 110 x 300 cm,"<img src=""https://s3.amazonaws.com/assets.knackhq.com/assets/5853e6992e7f151d490cd3f6/59075fc4b32adb26a186b516/thumb/massiv_7.jpg"" />",https://s3.amazonaws.com/assets.knackhq.com/assets/5853e6992e7f151d490cd3f6/59075fc4b32adb26a186b516/original/massiv_7.jpg,Massif 7 | 2016 | pencil on paper | 310 x 220 cm,"<img src=""https://s3.amazonaws.com/assets.knackhq.com/assets/5853e6992e7f151d490cd3f6/59076103a1de4726856fb776/thumb/422dsc06452.jpg"" />",https://s3.amazonaws.com/assets.knackhq.com/assets/5853e6992e7f151d490cd3f6/59076103a1de4726856fb776/original/422dsc06452.jpg,42 | 2013 | mixed media | about 3 x 10 m,,,,,,,,,,"The drawing is my media. It is about drawing, about interventions on the paper and settings of wall and space. Openness and lightness of the shown things is important for me. In my drawings and story telling installations I use stories and images out of the common memory, to create a controlled chain of associations. The installations are drawings in a bigger scale, too.<br />",,,,,Where does he come from? Which people influenced him? Which things characterize him? His artwork is very much dealing with these questions. Did you get curious? Just book a stay with him!,Yes,10/03/2017 15:46,,,,https://www.humanhotel.com,
04/28/2017 20:32,1939,O,Debbie Davies,,Debbie,,Davies,Debbie,Davies,debbietdavies@aol.com,asdqweO1939,active,Member,United States of America (USA),New York,"New York, United States of America (USA)",,50,48,Gallery Owner & Financial Consultant,"<img src=""https://s3.amazonaws.com/assets.knackhq.com/assets/5853e6992e7f151d490cd3f6/5903de8be776a32977d86b17/thumb/img_7118.jpg"" />",https://s3.amazonaws.com/assets.knackhq.com/assets/5853e6992e7f151d490cd3f6/5903de8be776a32977d86b17/original/img_7118.jpg,1,917-690-0796,https://www.facebook.com/debbietdavies,Guest & Host,Email,,"I am a creative person. I enjoy traveling and hosting travelers. It expands my knowledge of the world. I'm pro-immigration, pro-choice, atheist, and anti-fascist. I'm easy-going and open to other's beliefs.","creative, smart, friendly",www.debbiedavies.net,"finance, art, activism","<img src=""https://s3.amazonaws.com/assets.knackhq.com/assets/5853e6992e7f151d490cd3f6/5910c7b084141f32a657656b/thumb/daviesdebbieflorette3.jpg"" />",https://s3.amazonaws.com/assets.knackhq.com/assets/5853e6992e7f151d490cd3f6/5910c7b084141f32a657656b/original/daviesdebbieflorette3.jpg,Paper flowers project,"<img src=""https://s3.amazonaws.com/assets.knackhq.com/assets/5853e6992e7f151d490cd3f6/5910c7cc631de2313ab3e7fd/thumb/spiral54small.jpg"" />",https://s3.amazonaws.com/assets.knackhq.com/assets/5853e6992e7f151d490cd3f6/5910c7cc631de2313ab3e7fd/original/spiral54small.jpg,Abstract painting series SPIRAL,"<img src=""https://s3.amazonaws.com/assets.knackhq.com/assets/5853e6992e7f151d490cd3f6/5910c7ece1c90335e6fbb665/thumb/hessenlightboxpostcard1000.jpg"" />",https://s3.amazonaws.com/assets.knackhq.com/assets/5853e6992e7f151d490cd3f6/5910c7ece1c90335e6fbb665/original/hessenlightboxpostcard1000.jpg,The I Love You Project,"<img src=""https://s3.amazonaws.com/assets.knackhq.com/assets/5853e6992e7f151d490cd3f6/5910c81565f0be2bf09629d6/thumb/hessenlightboxdark.jpg"" />",https://s3.amazonaws.com/assets.knackhq.com/assets/5853e6992e7f151d490cd3f6/5910c81565f0be2bf09629d6/original/hessenlightboxdark.jpg,The I Love You Project,"<img src=""https://s3.amazonaws.com/assets.knackhq.com/assets/5853e6992e7f151d490cd3f6/5910c8464f32303131b91782/thumb/mosaic14web.jpg"" />",https://s3.amazonaws.com/assets.knackhq.com/assets/5853e6992e7f151d490cd3f6/5910c8464f32303131b91782/original/mosaic14web.jpg,Abstract painting series MOSAIC,"<img src=""https://s3.amazonaws.com/assets.knackhq.com/assets/5853e6992e7f151d490cd3f6/5910c87aa2d3783133cfe62d/thumb/draculaact1.jpg"" />",https://s3.amazonaws.com/assets.knackhq.com/assets/5853e6992e7f151d490cd3f6/5910c87aa2d3783133cfe62d/original/draculaact1.jpg,Paper flowers project,"I am a small business owner. I own a finance business working with creative clients in New York, and I own a  non-profit art gallery in Berlin. I am also a visual artist and activist working with an environmental organization in New York and a cultural organization in Ukraine.",https://vimeo.com/160518279,,https://vimeo.com/111472738,,,Yes,,,,,https://www.humanhotel.com,
04/28/2018 8:23,1940,P,Lauren Ruth,,Lauren,,Ruth,Lauren,Ruth,laurencruth@gmail.com,asdqweP1940,active,Member,United States of America (USA),Chico,"Chico, United States of America (USA)",31/03/1984,,34,Sculptor and Assistant Professor,"<img src=""https://s3.amazonaws.com/assets.knackhq.com/assets/5853e6992e7f151d490cd3f6/5ae4123df849285e80cccc44/thumb/img_7184.jpg"" />",https://s3.amazonaws.com/assets.knackhq.com/assets/5853e6992e7f151d490cd3f6/5ae4123df849285e80cccc44/original/img_7184.jpg,1,6502691347,@laurencruth (instagram),Guest & Host,Through an event,,"I am an artist and educator who loves to travel the world and explore new cities. This summer I will be in Finland for a month-long artist residency, and I will then be spending a couple weeks in Berlin. When I am not making art, I enjoy yoga, hiking, and random walks in unknown places.<br /><br />In addition to my art practice, I am Assistant Professor of Sculpture at a university in California. ","Art, Outdoors, Food",https://www.csuchico.edu/art/people/faculty/ruth-lauren.shtml,"Sculpture, Installation, Performance","<img src=""https://s3.amazonaws.com/assets.knackhq.com/assets/5853e6992e7f151d490cd3f6/5b021e3a94355d2a05b76130/thumb/ruth_4.jpg"" />",https://s3.amazonaws.com/assets.knackhq.com/assets/5853e6992e7f151d490cd3f6/5b021e3a94355d2a05b76130/original/ruth_4.jpg,,"<img src=""https://s3.amazonaws.com/assets.knackhq.com/assets/5853e6992e7f151d490cd3f6/5b021e3efe36e12818464793/thumb/ruth_1.jpg"" />",https://s3.amazonaws.com/assets.knackhq.com/assets/5853e6992e7f151d490cd3f6/5b021e3efe36e12818464793/original/ruth_1.jpg,,"<img src=""https://s3.amazonaws.com/assets.knackhq.com/assets/5853e6992e7f151d490cd3f6/5b021e53b03518114e82c9c5/thumb/images_page_19.jpg"" />",https://s3.amazonaws.com/assets.knackhq.com/assets/5853e6992e7f151d490cd3f6/5b021e53b03518114e82c9c5/original/images_page_19.jpg,,"<img src=""https://s3.amazonaws.com/assets.knackhq.com/assets/5853e6992e7f151d490cd3f6/5b021e562a7bd14f3fae6be5/thumb/images_page_15.jpg"" />",https://s3.amazonaws.com/assets.knackhq.com/assets/5853e6992e7f151d490cd3f6/5b021e562a7bd14f3fae6be5/original/images_page_15.jpg,,"<img src=""https://s3.amazonaws.com/assets.knackhq.com/assets/5853e6992e7f151d490cd3f6/5b021e813ec3d1021dfd34d7/thumb/12ruth.jpg"" />",https://s3.amazonaws.com/assets.knackhq.com/assets/5853e6992e7f151d490cd3f6/5b021e813ec3d1021dfd34d7/original/12ruth.jpg,,"<img src=""https://s3.amazonaws.com/assets.knackhq.com/assets/5853e6992e7f151d490cd3f6/5b021d965152a5088b7bc430/thumb/images_page_14.jpg"" />",https://s3.amazonaws.com/assets.knackhq.com/assets/5853e6992e7f151d490cd3f6/5b021d965152a5088b7bc430/original/images_page_14.jpg,,"Lauren Ruth is a multimedia artist whose work playfully engages public audiences. By stretching the scale and scope of familiar human anatomies and remixing architectural forms and commercial signage, her work allows the body to take on new agency and pushes viewers toward a more participatory role. Large tongue banners hang like flags of mute nations, oversized ears eavesdrop on visitors’ conversations, and hand-powered chocolate fountains become stand-ins for a body. Implicating the viewer in a setting for an event that may or may not have occurred, the work calls into question the notion of a ""public"" body and probes the interstitial space between absence and presence, agency and autonomy, intimacy and alienation.  <br /><br />Ruth has exhibited at the Corcoran College of Art + Design; the Delaware Contemporary; Coop Gallery, Nashville; Zeitgeist Gallery, Nashville; Root Division, San Francisco; the University of the South, Sewanee; and others. Her artistic collaboration The Shaft, with Maiza Hixson, has exhibited and performed at venues including the Brooklyn Museum of Art; the Soap Factory, Minneapolis; H.J. Miossi Gallery at Cuesta College, San Luis Obispo; and the Koban Project, Baltimore. Ruth has attended artist residencies at ACRE Projects, Cannonball, Ox-bow, the Recycled Artist in Residency and has presented widely at venues including Cranbrook Academy of Art, The University of Tennessee at Knoxville, Dartmouth College, Open Engagement, and SECAC. Ruth holds a BA in Studio Art with Honors from Dartmouth College and an MFA in Sculpture from Cranbrook Academy of Art. Ruth lives and works in Chico, CA and is Assistant Professor of Sculpture at the California State University, Chico.<br />",,,,,,Yes,05/21/2018 3:20,,Yes,"""I'm looking for hosts that are...   ""I'm searching for open calls that are...  ""I'm looking to get connected to someone that...""",https://www.humanhotel.com,No
04/28/2018 10:29,1941,Q,Phoebe Barnicoat,,Phoebe,,Barnicoat,Phoebe,Barnicoat,phoebe.barnicoat@gmail.com,asdqweQ1941,active,Member,United Kingdom (UK),London,"London, United Kingdom (UK)",02/07/1991,,27,Artist/ Artist Facilitator,"<img src=""https://s3.amazonaws.com/assets.knackhq.com/assets/5853e6992e7f151d490cd3f6/5ae43081ee3f4d5ef0e841ac/thumb/s0703075.jpg"" />",https://s3.amazonaws.com/assets.knackhq.com/assets/5853e6992e7f151d490cd3f6/5ae43081ee3f4d5ef0e841ac/original/s0703075.jpg,,,@phoebebarnicoat,Guest only,Email,Francesca Pisani,,,www.phoebebarnicoat.co.uk,,,,,,,,,,,,,,,,,,,,,,,,,,Yes,04/28/2018 10:29,,Yes,"""I'm looking for hosts that are...   ""I'm searching for open calls that are...  ""I'm looking to get connected to someone that...""",https://www.humanhotel.com,No
04/29/2017 0:59,1942,R,Leigh Ruby,,Leigh,,Ruby,Leigh,Ruby,rubystudio.nyc@gmail.com,asdqweR1942,active,Member,United States of America (USA),Brooklyn,"Brooklyn, United States of America (USA)",,55,48,Arist,"<img src=""https://s3.amazonaws.com/assets.knackhq.com/assets/5853e6992e7f151d490cd3f6/59041d352698462a1a2fe461/thumb/eve_3drig_taghit_algieria.jpg"" />",https://s3.amazonaws.com/assets.knackhq.com/assets/5853e6992e7f151d490cd3f6/59041d352698462a1a2fe461/original/eve_3drig_taghit_algieria.jpg,,,https://vimeo.com/59268902,Guest & Host,Word of mouth,,,,https://vimeo.com/59268902,,,,,,,,,,,,,,,,,,,,,,,,,,Yes,,,,,https://www.humanhotel.com,
04/29/2017 8:42,1943,S,Jasmine Murrell,,Jasmine,,Murrell,Jasmine,Murrell,jasminemurrell@gmail.com,asdqweS1943,active,Member,United States of America (USA),Brooklyn,"Brooklyn, United States of America (USA)",,1000,48,Artist,"<img src=""https://s3.amazonaws.com/assets.knackhq.com/assets/5853e6992e7f151d490cd3f6/590489b96c7d562fa711a07a/thumb/img_1038.jpg"" />",https://s3.amazonaws.com/assets.knackhq.com/assets/5853e6992e7f151d490cd3f6/590489b96c7d562fa711a07a/original/img_1038.jpg,,,https://www.facebook.com/jasmine.murrell.73,Host only,Email,,,,jasminemurrell.com,,,,,,,,,,,,,,,,,,,,,,,,,,Yes,,,,,https://www.humanhotel.com,
04/29/2017 10:25,1944,T,Debbie Davies,,Debbie,,Davies,Debbie,Davies,litehausgalerie@gmail.com,asdqweT1944,active,Member,Germany,Berlin,"Berlin, Germany",,50,48,Gallery Owner and Artist,"<img src=""https://s3.amazonaws.com/assets.knackhq.com/assets/5853e6992e7f151d490cd3f6/59451eca5f41914bcdb8d8bd/thumb/debbieglasseshappy.jpg"" />",https://s3.amazonaws.com/assets.knackhq.com/assets/5853e6992e7f151d490cd3f6/59451eca5f41914bcdb8d8bd/original/debbieglasseshappy.jpg,49,1-917-690-0796,https://www.facebook.com/litehausgalerie,Host only,Wooloo.org Newsletter,,I live part time in Berlin where I have a live/work space in Neukölln that operates as a gallery. I'm a visual artist and I'm also involved in activism in Ukraine.,"creative, smart, friendly",http://www.lite-haus.net/,"non-profit, cultural, art","<img src=""https://s3.amazonaws.com/assets.knackhq.com/assets/5853e6992e7f151d490cd3f6/5910d5cb6d721631335c2b40/thumb/iloveyou5websmall.jpg"" />",https://s3.amazonaws.com/assets.knackhq.com/assets/5853e6992e7f151d490cd3f6/5910d5cb6d721631335c2b40/original/iloveyou5websmall.jpg,The I Love You Project exhibition by me,"<img src=""https://s3.amazonaws.com/assets.knackhq.com/assets/5853e6992e7f151d490cd3f6/5910d5d85a30f531401e784c/thumb/daviesexhdec2016bwebsmall.jpg"" />",https://s3.amazonaws.com/assets.knackhq.com/assets/5853e6992e7f151d490cd3f6/5910d5d85a30f531401e784c/original/daviesexhdec2016bwebsmall.jpg,my Paper Flowers exhibition,"<img src=""https://s3.amazonaws.com/assets.knackhq.com/assets/5853e6992e7f151d490cd3f6/5910d612982023313047fea5/thumb/theiloveyouprojectraum2b.jpg"" />",https://s3.amazonaws.com/assets.knackhq.com/assets/5853e6992e7f151d490cd3f6/5910d612982023313047fea5/original/theiloveyouprojectraum2b.jpg,The I Love You Project lightboxes,"<img src=""https://s3.amazonaws.com/assets.knackhq.com/assets/5853e6992e7f151d490cd3f6/5910d684db018a36fda3cff9/thumb/daviesdebbieflorette3.jpg"" />",https://s3.amazonaws.com/assets.knackhq.com/assets/5853e6992e7f151d490cd3f6/5910d684db018a36fda3cff9/original/daviesdebbieflorette3.jpg,my paper flowers project,"<img src=""https://s3.amazonaws.com/assets.knackhq.com/assets/5853e6992e7f151d490cd3f6/5910d68f52d58637faee9727/thumb/draculaact1.jpg"" />",https://s3.amazonaws.com/assets.knackhq.com/assets/5853e6992e7f151d490cd3f6/5910d68f52d58637faee9727/original/draculaact1.jpg,my paper flowers project,"<img src=""https://s3.amazonaws.com/assets.knackhq.com/assets/5853e6992e7f151d490cd3f6/5910d6bbc480ee2fee8e3b42/thumb/spiral54small.jpg"" />",https://s3.amazonaws.com/assets.knackhq.com/assets/5853e6992e7f151d490cd3f6/5910d6bbc480ee2fee8e3b42/original/spiral54small.jpg,my abstract painting series SPIRALS,I own LiTE-HAUS Galerie in Berlin and try to support emerging artists of all mediums. I also own Focus + Finance in New York which is a small firm helping creative clients with accounting and business management. I'm a visual artist and liaison to two activist groups in New York and Kyiv.,https://vimeo.com/111472738,Video from The I Love You Project,https://vimeo.com/160518279,Video from The I Love You Project,Activism in the Ukraine. Helping creatives with accounting and business management in New York. Expressing herself in the LiTE-HAUS Galerie in Berlin. This great woman has definitley many interesting stories to tell. And you can sleep in her gallerie - just saying.,Yes,06/17/2017 14:23,,,,https://www.humanhotel.com,
04/29/2017 11:36,1945,U,Gerry  Visco,,Gerry,,Visco,Gerry,Visco,gerryvisco@gmail.com,asdqweU1945,active,Member,United States of America (USA),New York,"New York, United States of America (USA)",,5025,48,"Actor, writer, nightlife host","<img src=""https://s3.amazonaws.com/assets.knackhq.com/assets/5853e6992e7f151d490cd3f6/590403b97352f6277a2533a8/thumb/img_1684.jpg"" />",https://s3.amazonaws.com/assets.knackhq.com/assets/5853e6992e7f151d490cd3f6/590403b97352f6277a2533a8/original/img_1684.jpg,1,917-689-4610,https://www.facebook.com/Gerry.Visco,Guest & Host,Social Media,Laure-Anne Deltort,"I'm outgoing, friendly, I work out every day yoga and swimming, I am a master chef, I am a nightlife host love to dance, I've been involved in the arts my entire life.  I'm originally from Boston, Massachusetts but have lived in NYC since the mid 1970s.  Anyone from out of town would enjoy staying with me because I know about the events of NYC and the various places worth going to.  I do need to be paid because I'm currently unemployed.","Fabulous, creative, friendly",https://www.instagram.com/gerryvisco/,"Actor, writer, nightlife host",,,,,,,,,,,,,,,,,,,"I'm a performer, a writer, nightlife host, photographer.  I worked at Columbia University for 31 years and have three degrees from there in writing.  I'm involved in the arts, visual , music, film, theater.  I also am a yoga teacher and do yoga and swim every day at the gym on the roof of my building.",,,,,,Yes,,,,,https://www.humanhotel.com,
04/29/2017 14:57,1946,V,bruce weston,,bruce,,weston,bruce,weston,bruceweston42@gmail.com,asdqweV1946,active,Member,United States of America (USA),New York,"New York, United States of America (USA)",,45,48,Painter,"<img src=""https://s3.amazonaws.com/assets.knackhq.com/assets/5853e6992e7f151d490cd3f6/5904d859c9df5b3013caec4e/thumb/westondowntownmontreal2012.jpg"" />",https://s3.amazonaws.com/assets.knackhq.com/assets/5853e6992e7f151d490cd3f6/5904d859c9df5b3013caec4e/original/westondowntownmontreal2012.jpg,,,@anything,Guest & Host,Word of mouth,Joseph Cavalieri,,,https://www.linkedin.com/in/bruce-weston-4884711/,,,,,,,,,,,,,,,,,,,,,,,,,,Yes,,,,,https://www.humanhotel.com,
04/29/2018 17:28,1947,W,Alexandra Jorg,,Alexandra,,Jorg,Alexandra,Jorg,alexandra.georgescu03@yahoo.com,asdqweW1947,active,Member,United Kingdom (UK),London,"London, United Kingdom (UK)",03/02/1987,,31,Performer,"<img src=""https://s3.amazonaws.com/assets.knackhq.com/assets/5853e6992e7f151d490cd3f6/5aff27082372f13806a0f22a/thumb/13221037_10201467532126067_2647199779215003793_n.jpg"" />",https://s3.amazonaws.com/assets.knackhq.com/assets/5853e6992e7f151d490cd3f6/5aff27082372f13806a0f22a/original/13221037_10201467532126067_2647199779215003793_n.jpg,44,7478068809,https://www.facebook.com/alexandra.georgescu03,Guest & Host,,Friends,"Actress and performance maker, I love to dance and to share nice meals and good tea. I'm very much into reading and nature. Listening to stories and sharing life experiences enriches me.<br />","Visual Art, Pschyconalysis, Nature",https://www.facebook.com/alexandra.georgescu03,"performer, writer, creative process facilitator","<img src=""https://s3.amazonaws.com/assets.knackhq.com/assets/5853e6992e7f151d490cd3f6/5aff348ffd63a02948c03757/thumb/img_20170318_183402_827.jpg"" />",https://s3.amazonaws.com/assets.knackhq.com/assets/5853e6992e7f151d490cd3f6/5aff348ffd63a02948c03757/original/img_20170318_183402_827.jpg,,"<img src=""https://s3.amazonaws.com/assets.knackhq.com/assets/5853e6992e7f151d490cd3f6/5aff34a602c08801d2dff589/thumb/img_20170505_154858_372.jpg"" />",https://s3.amazonaws.com/assets.knackhq.com/assets/5853e6992e7f151d490cd3f6/5aff34a602c08801d2dff589/original/img_20170505_154858_372.jpg,,"<img src=""https://s3.amazonaws.com/assets.knackhq.com/assets/5853e6992e7f151d490cd3f6/5aff34bc134c9f36fb433254/thumb/img_20171102_193732_632.jpg"" />",https://s3.amazonaws.com/assets.knackhq.com/assets/5853e6992e7f151d490cd3f6/5aff34bc134c9f36fb433254/original/img_20171102_193732_632.jpg,,"<img src=""https://s3.amazonaws.com/assets.knackhq.com/assets/5853e6992e7f151d490cd3f6/5aff34d8134c9f36fb433287/thumb/img_0741.jpg"" />",https://s3.amazonaws.com/assets.knackhq.com/assets/5853e6992e7f151d490cd3f6/5aff34d8134c9f36fb433287/original/img_0741.jpg,,"<img src=""https://s3.amazonaws.com/assets.knackhq.com/assets/5853e6992e7f151d490cd3f6/5aff34ead8b55f041ba7958f/thumb/stefan.png"" />",https://s3.amazonaws.com/assets.knackhq.com/assets/5853e6992e7f151d490cd3f6/5aff34ead8b55f041ba7958f/original/stefan.png,,,,,I've recently started working on a new project that concentrates on body memories and how we use memories on stage. This will be a 3 years practice-led research project and I am really excited about it.,,,,,,Yes,05/18/2018 22:38,,Yes,"""I'm looking for hosts that are...   ""I'm searching for open calls that are...  ""I'm looking to get connected to someone that...""",https://www.humanhotel.com,No
04/30/2018 1:17,1948,X,Moyin Saka,,Moyin,,Saka,Moyin,Saka,moyinsaka@hotmail.com,asdqweX1948,active,Member,,,", ",,,48,,,,,,,Guest & Host,,,,,,,,,,,,,,,,,,,,,,,,,,,,,,,Yes,04/30/2018 1:17,,No,"""I'm looking for hosts that are...   ""I'm searching for open calls that are...  ""I'm looking to get connected to someone that...""",https://www.humanhotel.com,No
04/30/2018 11:21,1949,Y,daria baiocchi,,daria,,baiocchi,daria,baiocchi,dariaba78@hotmail.it,asdqweY1949,active,Member,Italy,ascoli piceno,"ascoli piceno, Italy",14/04/1978,,40,professor,"<img src=""https://s3.amazonaws.com/assets.knackhq.com/assets/5853e6992e7f151d490cd3f6/5ae6dfdb0adafb6b828544a5/thumb/soundwave.png"" />",https://s3.amazonaws.com/assets.knackhq.com/assets/5853e6992e7f151d490cd3f6/5ae6dfdb0adafb6b828544a5/original/soundwave.png,,,https://soundcloud.com/dariapi,Host only,Wooloo.org Newsletter,,,,https://soundcloud.com/dariapi,,,,,,,,,,,,,,,,,,,,,,,,,,Yes,04/30/2018 11:21,,Yes,"""I'm looking for hosts that are...   ""I'm searching for open calls that are...  ""I'm looking to get connected to someone that...""",https://www.humanhotel.com,No
04/30/2018 15:17,1950,Z,Aylin Gökmen,,Aylin,,Gökmen,Aylin,Gökmen,aylingokmen1990@gmail.com,asdqweZ1950,active,Member,,,", ",,,48,,,,,,,Guest & Host,,,,,,,,,,,,,,,,,,,,,,,,,,,,,,,Yes,04/30/2018 15:17,,No,"""I'm looking for hosts that are...   ""I'm searching for open calls that are...  ""I'm looking to get connected to someone that...""",https://www.humanhotel.com,No