Number,Letter,displayName,Name: Title,Name: First,Name: Middle,Name: Last,firstName,lastName,email,password,User Status,User Roles,country,city,location,dateOfBirth,Age,Age - 2,occupation,Profile photo,picture,phoneCountryCode,phoneNumber,socialProfileLink,memberType,memberDetail,recommandedBy,info,interestsTags,workRelatedLink,practiceTags,Work Img. 1,imageOne,imageDescriptionOne,Work Img. 2,imageTwo,imageDescriptionTwo,Work Img. 3,imageThree,imageDescriptionThree,Work Img. 4,imageFour,imageDescriptionFour,Work Img. 5,imageFive,imageDescriptionFive,Work Img. 6,imageSix,imageDescriptionSix,descriptionYourPractices,videoLinkOne,videoDescriptionOne,videoLinkTwo,videoDescriptionTwo,INTERNAL NOTES,I agree to the Terms of Use,Last Updated,Connections,emailConfirmed,Connections/Helpful Details,www.humanhotel.com,Host?
1651,M,Lucy Steggals,,Lucy,,Steggals,Lucy,Steggals,lucysteggals@gmail.com,asdqweM1651,active,Member,United Kingdom (UK),London,"London, United Kingdom (UK)",,39,48,Artist,"<img src=""https://s3.amazonaws.com/assets.knackhq.com/assets/5853e6992e7f151d490cd3f6/58e3aad60e168659733835ae/thumb/12341031_796473513831780_855839601734514244_n.jpg"" />",https://s3.amazonaws.com/assets.knackhq.com/assets/5853e6992e7f151d490cd3f6/58e3aad60e168659733835ae/original/12341031_796473513831780_855839601734514244_n.jpg,,,@lucysteggals (instagram),Guest & Host,Word of mouth,Andrew Ranville,,,www.saturdaymuseum.org,,,,,,,,,,,,,,,,,,,,,,,,,"The inventor of a museum where people from somewhere, nowhere, everywhere, anywhere and elsewhere can collide to play, Lucy offers her two bedroom flat in Clapton, Hackney.",Yes,,,,,https://www.humanhotel.com,
1652,N,Marcela Jardón,,Marcela,,Jardón,Marcela,Jardón,artist.residencies@barcelonaarte.es,asdqweN1652,active,Member,Spain,Barcelona,"Barcelona, Spain",03/07/1964,52,54,Artista,"<img src=""https://s3.amazonaws.com/assets.knackhq.com/assets/5853e6992e7f151d490cd3f6/58e632a435c1e54910e3e43c/thumb/marcelajardon.jpg"" />",https://s3.amazonaws.com/assets.knackhq.com/assets/5853e6992e7f151d490cd3f6/58e632a435c1e54910e3e43c/original/marcelajardon.jpg,34,601347462,https://www.facebook.com/ArtMarcelaJardon,Host only,Email,Alessandra,"I am an artist, born in Buenos Aires, settled more than sixteen years ago in Barcelona. I have created a gallery of emerging artists, a project of artists in residence and now I work in my own work, and in web design.<br />I like my work, my house, quiet and orderly places, vegetarian cuisine, plants, music, fresh air, people, dreams, life.","Artist, vegetarian, quiet",http://www.marcelajardon.net,"Multidisciplinary,experimental,independent","<img src=""https://s3.amazonaws.com/assets.knackhq.com/assets/5853e6992e7f151d490cd3f6/596b246111bf6f56e80b0642/thumb/dsc_0397.jpg"" />",https://s3.amazonaws.com/assets.knackhq.com/assets/5853e6992e7f151d490cd3f6/596b246111bf6f56e80b0642/original/dsc_0397.jpg,Intangibles: fotos y haikus,"<img src=""https://s3.amazonaws.com/assets.knackhq.com/assets/5853e6992e7f151d490cd3f6/596b2485052a045379e92606/thumb/1477912962071.jpg"" />",https://s3.amazonaws.com/assets.knackhq.com/assets/5853e6992e7f151d490cd3f6/596b2485052a045379e92606/original/1477912962071.jpg,The Gaze of the Other,"<img src=""https://s3.amazonaws.com/assets.knackhq.com/assets/5853e6992e7f151d490cd3f6/596b24b02081e858e47044ab/thumb/_dsc_0637.jpg"" />",https://s3.amazonaws.com/assets.knackhq.com/assets/5853e6992e7f151d490cd3f6/596b24b02081e858e47044ab/original/_dsc_0637.jpg,MIX,"<img src=""https://s3.amazonaws.com/assets.knackhq.com/assets/5853e6992e7f151d490cd3f6/596b24e4e6c53e1c760f5959/thumb/dsc_09342.jpg"" />",https://s3.amazonaws.com/assets.knackhq.com/assets/5853e6992e7f151d490cd3f6/596b24e4e6c53e1c760f5959/original/dsc_09342.jpg,Paintings,"<img src=""https://s3.amazonaws.com/assets.knackhq.com/assets/5853e6992e7f151d490cd3f6/596b2508052a045379e9263a/thumb/dsc_0918w.jpg"" />",https://s3.amazonaws.com/assets.knackhq.com/assets/5853e6992e7f151d490cd3f6/596b2508052a045379e9263a/original/dsc_0918w.jpg,Gallery,"<img src=""https://s3.amazonaws.com/assets.knackhq.com/assets/5853e6992e7f151d490cd3f6/596b2520a72db25fd528f746/thumb/flyer_julio.jpg"" />",https://s3.amazonaws.com/assets.knackhq.com/assets/5853e6992e7f151d490cd3f6/596b2520a72db25fd528f746/original/flyer_julio.jpg,Work on paper,"Multidisciplinary, experimental, basically visual. <br />I work as independently as I can, from fashions, trends and the market. This has guaranteed me to experiment freely, both in the techniques and in the subjects.",https://www.youtube.com/watch?v=f-W0onj8Mqg,Drawings 2017,https://youtu.be/_29QWLr5scQ,Intangibles: photography and haiku.<br />Real Circulo Arrtístico de Barcelona.,5% booking fee discount<br />,Yes,04/20/2018 15:40,,,,https://www.humanhotel.com,
1653,O,Roberta Marques,,Roberta,,Marques,Roberta,Marques,roberta.cinema@gmail.com,asdqweO1653,active,Member,,Amsterdam,"Amsterdam, ",,48,48,Filmmaker,"<img src=""https://s3.amazonaws.com/assets.knackhq.com/assets/5853e6992e7f151d490cd3f6/58e3c5ecfd592957c26dd27b/thumb/roberta_marques_director.jpg"" />",https://s3.amazonaws.com/assets.knackhq.com/assets/5853e6992e7f151d490cd3f6/58e3c5ecfd592957c26dd27b/original/roberta_marques_director.jpg,,,https://www.facebook.com/roberta.marques,Guest & Host,Word of mouth,Nienke Eijsink,"I'm a visual artist living and working in Brazil and in Europe. I'm also a traveler who likes to get to know new places, different cultures and nice people.",#filmmaker #nomad #multicultural #visualartist,https://www.linkedin.com/in/roberta-marques-376bb479/?trk=public-profile-join-page,#Cinema #Author #Director #Screenwirter,"<img src=""https://s3.amazonaws.com/assets.knackhq.com/assets/5853e6992e7f151d490cd3f6/592ed37b73bc704b6a23fa3c/thumb/rania_cartaz_web_large3.jpg"" />",https://s3.amazonaws.com/assets.knackhq.com/assets/5853e6992e7f151d490cd3f6/592ed37b73bc704b6a23fa3c/original/rania_cartaz_web_large3.jpg,,,,,,,,,,,,,,,,,"Roberta Marques (1968, Maranguape, Brazil) graduated as a filmmaker from the Gerrit Rietveld Academy, and as performance artist from Das Arts, both in Amsterdam. She won awards for best film for her first feature RÂNIA at the Rio International Film Festival in the Brasil Novos Rumos section, at the FEMINA International Women’s Film Festival and at the Cine Ceará.<br />",,,,,,Yes,05/31/2017 16:32,,,,https://www.humanhotel.com,
1654,P,Alice  Paltrinieri,,Alice,,Paltrinieri,Alice,Paltrinieri,alice.paltrinieri@live.it,asdqweP1654,active,Member,,Roma,"Roma, ",,30,48,Visual Artist,"<img src=""https://s3.amazonaws.com/assets.knackhq.com/assets/5853e6992e7f151d490cd3f6/58e41144b776a44f0d2e732a/thumb/bn.jpg"" />",https://s3.amazonaws.com/assets.knackhq.com/assets/5853e6992e7f151d490cd3f6/58e41144b776a44f0d2e732a/original/bn.jpg,,,@alicepaltrinieri.ap,Guest only,Email,,,,www.alicepaltrinieri.com,,,,,,,,,,,,,,,,,,,,,,,,,50% booking fee discount,Yes,,,,,https://www.humanhotel.com,
1655,Q,Michael Joshua,,Michael,,Joshua,Michael,Joshua,michaeljoshua256@gmail.com,asdqweQ1655,active,Member,,,", ",,,48,,"<img src=""https://s3.amazonaws.com/assets.knackhq.com/assets/5853e6992e7f151d490cd3f6/5a5daa58db68ae655a487afd/thumb/profileimagefiller.jpg"" />",https://s3.amazonaws.com/assets.knackhq.com/assets/5853e6992e7f151d490cd3f6/5a5daa58db68ae655a487afd/original/profileimagefiller.jpg,,,,Guest & Host,,,,,,,,,,,,,,,,,,,,,,,,,,,,,,,Yes,04/04/2018 8:57,,No,"""I'm looking for hosts that are...   ""I'm searching for open calls that are...  ""I'm looking to get connected to someone that...""",https://www.humanhotel.com,No
1656,R,Claudia Difra,,Claudia,,Difra,Claudia,Difra,claudiadifrancescantonio@gmail.com,asdqweR1656,active,Member,Italy,Verona,"Verona, Italy",20/08/1992,,26,Photographer,"<img src=""https://s3.amazonaws.com/assets.knackhq.com/assets/5853e6992e7f151d490cd3f6/5ac4a0e9eb34b71814963e0f/thumb/img_9690.jpg"" />",https://s3.amazonaws.com/assets.knackhq.com/assets/5853e6992e7f151d490cd3f6/5ac4a0e9eb34b71814963e0f/original/img_9690.jpg,,,@claudifra,Guest & Host,Email,Valeria Kadelski,,,http://claudiadifra.com,,,,,,,,,,,,,,,,,,,,,,,,,,Yes,04/04/2018 11:56,,Yes,"""I'm looking for hosts that are...   ""I'm searching for open calls that are...  ""I'm looking to get connected to someone that...""",https://www.humanhotel.com,No
1657,S,Laoshi Genetrix,,Laoshi,,Genetrix,Laoshi,Genetrix,kallinikoss@hotmail.co.uk,asdqweS1657,active,Member,,,", ",,,48,,"<img src=""https://s3.amazonaws.com/assets.knackhq.com/assets/5853e6992e7f151d490cd3f6/5a5daa58db68ae655a487afd/thumb/profileimagefiller.jpg"" />",https://s3.amazonaws.com/assets.knackhq.com/assets/5853e6992e7f151d490cd3f6/5a5daa58db68ae655a487afd/original/profileimagefiller.jpg,,,,Guest & Host,,,,,,,,,,,,,,,,,,,,,,,,,,,,,,,Yes,04/04/2018 14:28,,No,"""I'm looking for hosts that are...   ""I'm searching for open calls that are...  ""I'm looking to get connected to someone that...""",https://www.humanhotel.com,No
1658,T,Joe Sobel,,Joe,,Sobel,Joe,Sobel,applylppa@gmail.com,asdqweT1658,active,Member,France,Paris,"Paris, France",10/11/1986,30,32,Artist,"<img src=""https://s3.amazonaws.com/assets.knackhq.com/assets/5853e6992e7f151d490cd3f6/58e7855015598e48ee9b1790/thumb/screenshot20170331at4.07.29pm.png"" />",https://s3.amazonaws.com/assets.knackhq.com/assets/5853e6992e7f151d490cd3f6/58e7855015598e48ee9b1790/original/screenshot20170331at4.07.29pm.png,33,33783397010,soejobel,Guest & Host,Email,Heard in the past,I'm an American multi-media artist living and working in Paris. I arrived here in February of 2015. I live in the 19th with my wife and a deaf cat who loves showers. At the moment we are preparing a great studio space right underneath us!,art cleaning running,http://joesobel.work/,"Surface, material, document","<img src=""https://s3.amazonaws.com/assets.knackhq.com/assets/5853e6992e7f151d490cd3f6/59d35913e0ac7b32b73ae84e/thumb/641a1007.jpg"" />",https://s3.amazonaws.com/assets.knackhq.com/assets/5853e6992e7f151d490cd3f6/59d35913e0ac7b32b73ae84e/original/641a1007.jpg,,"<img src=""https://s3.amazonaws.com/assets.knackhq.com/assets/5853e6992e7f151d490cd3f6/58e7866c58b4a248e590f194/thumb/641a0037.jpg"" />",https://s3.amazonaws.com/assets.knackhq.com/assets/5853e6992e7f151d490cd3f6/58e7866c58b4a248e590f194/original/641a0037.jpg,,"<img src=""https://s3.amazonaws.com/assets.knackhq.com/assets/5853e6992e7f151d490cd3f6/58e786934e6ae9490dce1667/thumb/l1000468.jpg"" />",https://s3.amazonaws.com/assets.knackhq.com/assets/5853e6992e7f151d490cd3f6/58e786934e6ae9490dce1667/original/l1000468.jpg,,"<img src=""https://s3.amazonaws.com/assets.knackhq.com/assets/5853e6992e7f151d490cd3f6/58e786aaeb3cd34914b1be96/thumb/641a0380.jpg"" />",https://s3.amazonaws.com/assets.knackhq.com/assets/5853e6992e7f151d490cd3f6/58e786aaeb3cd34914b1be96/original/641a0380.jpg,,"<img src=""https://s3.amazonaws.com/assets.knackhq.com/assets/5853e6992e7f151d490cd3f6/58e786b34855ba4be06b9f49/thumb/641a0111.jpg"" />",https://s3.amazonaws.com/assets.knackhq.com/assets/5853e6992e7f151d490cd3f6/58e786b34855ba4be06b9f49/original/641a0111.jpg,,"<img src=""https://s3.amazonaws.com/assets.knackhq.com/assets/5853e6992e7f151d490cd3f6/58e786c354a3584adb13bd2b/thumb/dsc_3331.jpg"" />",https://s3.amazonaws.com/assets.knackhq.com/assets/5853e6992e7f151d490cd3f6/58e786c354a3584adb13bd2b/original/dsc_3331.jpg,,"Currently my practice comprises photography, drawing and painting that is produced tangentially from prior series. I am very interested in exploring the space between fiction and reality.",https://vimeo.com/40835539,In 2011 I met a woman in the magazine aisle of the grocery store she worked for. For 14 months we created a project together.,,,,Yes,10/03/2017 11:33,,,,https://www.humanhotel.com,
1659,U,Arnout Krediet,,Arnout,,Krediet,Arnout,Krediet,info@estudio-nomada.com,asdqweU1659,active,Member,,Torrelles de Foix,"Torrelles de Foix, ",,39,48,Director art school,"<img src=""https://s3.amazonaws.com/assets.knackhq.com/assets/5853e6992e7f151d490cd3f6/58e4c6d13239d748d13487b5/thumb/thumb_img_2163_1024.jpg"" />",https://s3.amazonaws.com/assets.knackhq.com/assets/5853e6992e7f151d490cd3f6/58e4c6d13239d748d13487b5/original/thumb_img_2163_1024.jpg,,,https://www.facebook.com/estudio.nomada,Host only,Email,,,,www.elsigols.com,,,,,,,,,,,,,,,,,,,,,,,,,,Yes,,,,,https://www.humanhotel.com,
1660,V,Werner Thöni,,Werner,,Thöni,Werner,Thöni,wtartspace@gmail.com,asdqweV1660,active,Member,Spain,Barcelona,"Barcelona, Spain",29/12/1958,58,59,Visual artist,"<img src=""https://s3.amazonaws.com/assets.knackhq.com/assets/5853e6992e7f151d490cd3f6/5adf1e55eb52b528701ab480/thumb/img_2687.jpg"" />",https://s3.amazonaws.com/assets.knackhq.com/assets/5853e6992e7f151d490cd3f6/5adf1e55eb52b528701ab480/original/img_2687.jpg,34,676576145,https://www.facebook.com/werner.thoeni.artpage,Guest & Host,Email,,"I'm a Swiss visual artist, curator and graphic designer based in Barcelona. My project-based artwork expands from painting to video art, including drawing, installation, objects and photography. In 2013 I founded Werner Thöni Artspace (WTA), www.wernerthoeni.com","Art, Galleries, Museums",http://www.wernerthoeni.com/wt/html_wt/main_wt.html,"Painting, Video, Installation",,,,,,,,,,,,,,,,,,,"My work is concrete, but subtle; it conveys the intrinsic interplay between an esthetic response to reality and the critical vision surrounding it.  I express my ideas through the use of layers which permit glimpses into what lies beyond while simultaneously shielding it from plain sight. My visual imagery is based upon a reflection free of conventionalisms, going beyond socio-cultural norms. I use all techniques, formats, and materials necessary to excite the viewer’s curiosity.<br />",,,,,,Yes,04/24/2018 14:28,,,,https://www.humanhotel.com,
1661,W,Veronica Losantos,,Veronica,,Losantos,Veronica,Losantos,mail@veronicalosantos.com,asdqweW1661,active,Member,Hungary,Budapest,"Budapest, Hungary",14/03/1984,33,34,Photographer,"<img src=""https://s3.amazonaws.com/assets.knackhq.com/assets/5853e6992e7f151d490cd3f6/58e4d7da67751048ea7521fc/thumb/veronica_losantos_foto2.jpg"" />",https://s3.amazonaws.com/assets.knackhq.com/assets/5853e6992e7f151d490cd3f6/58e4d7da67751048ea7521fc/original/veronica_losantos_foto2.jpg,49,4917699400184,https://www.instagram.com/veronica_losantos/,Host only,Email,,photographer,photographer,www.veronicalosantos.com,www.veronicalosantos.com,,,,,,,,,,,,,,,,,,,photographer,,,,,50% booking fee discount,Yes,04/03/2018 19:00,,,,https://www.humanhotel.com,
1662,X,marco canevacci,,marco,,canevacci,marco,canevacci,m@plastique-fantastique.de,asdqweX1662,active,Member,Germany,berlin,"berlin, Germany",,47,48,artist,"<img src=""https://s3.amazonaws.com/assets.knackhq.com/assets/5853e6992e7f151d490cd3f6/58e4d9a61941d648dea87647/thumb/mc_photo.jpg"" />",https://s3.amazonaws.com/assets.knackhq.com/assets/5853e6992e7f151d490cd3f6/58e4d9a61941d648dea87647/original/mc_photo.jpg,,,https://www.facebook.com/plastique.fantastique.berlin/?ref=settings,Guest & Host,Email,,,,http://www.plastique-fantastique.de/,,,,,,,,,,,,,,,,,,,,,,,,,50% booking fee discount,Yes,,,,,https://www.humanhotel.com,
1663,Y,Noemie Goudal,,Noemie,,Goudal,Noemie,Goudal,goudalnoemie@gmail.com,asdqweY1663,active,Member,France,Paris,"Paris, France",,32,48,artist,"<img src=""https://s3.amazonaws.com/assets.knackhq.com/assets/5853e6992e7f151d490cd3f6/58e5245ec932bd4915657242/thumb/portraitpeakdistrict.jpg"" />",https://s3.amazonaws.com/assets.knackhq.com/assets/5853e6992e7f151d490cd3f6/58e5245ec932bd4915657242/original/portraitpeakdistrict.jpg,,,www.facebook.com/noemiegoudal?ref=bookmarks,Guest only,Email,Federica Bocchetti,,,www.noemiegoudal.com,,,,,,,,,,,,,,,,,,,,,,,,,50% booking fee discount,Yes,,,,,https://www.humanhotel.com,
1664,Z,Antoanetta Marinov,,Antoanetta,,Marinov,Antoanetta,Marinov,antomarinov@gmail.com,asdqweZ1664,active,Member,Germany,Berlin,"Berlin, Germany",20/06/1977,41,41,artist,"<img src=""https://s3.amazonaws.com/assets.knackhq.com/assets/5853e6992e7f151d490cd3f6/58e54e54df5ae24d52c8e6d2/thumb/anto1.jpg"" />",https://s3.amazonaws.com/assets.knackhq.com/assets/5853e6992e7f151d490cd3f6/58e54e54df5ae24d52c8e6d2/original/anto1.jpg,49,491762778210,https://www.instagram.com/antomarinov1599/,Guest & Host,Social Media,,"Gentle and friendly, curious, melancholic at times but mostly smiling, rather silent then loud.","Story Telling, Reading, Garden",www.antomarinov.de,Ideas#changing things#letting be,,,,,,,,,,,,,,,,,,,I work with the mediums and material required to visualise the idea. I like minimal shiftings changing the ordinary rhythm of things.,,,,,,Yes,05/23/2018 10:06,,,,https://www.humanhotel.com,
1665,A,Grigory Mumrikov,,Grigory,,Mumrikov,Grigory,Mumrikov,komnatakm@gmail.com,asdqweA1665,active,Member,,,", ",,,48,,"<img src=""https://s3.amazonaws.com/assets.knackhq.com/assets/5853e6992e7f151d490cd3f6/5a5daa58db68ae655a487afd/thumb/profileimagefiller.jpg"" />",https://s3.amazonaws.com/assets.knackhq.com/assets/5853e6992e7f151d490cd3f6/5a5daa58db68ae655a487afd/original/profileimagefiller.jpg,,,,Guest & Host,,,,,,,,,,,,,,,,,,,,,,,,,,,,,,,Yes,04/05/2018 10:20,,Yes,"""I'm looking for hosts that are...   ""I'm searching for open calls that are...  ""I'm looking to get connected to someone that...""",https://www.humanhotel.com,No
1666,B,Diane Bielik,,Diane,,Bielik,Diane,Bielik,dianebielik@yahoo.co.uk,asdqweB1666,active,Member,United Kingdom (UK),London,"London, United Kingdom (UK)",04/11/1970,,48,Artist and Lecturer,"<img src=""https://s3.amazonaws.com/assets.knackhq.com/assets/5853e6992e7f151d490cd3f6/5ac60689fe14431fb0ef25b3/thumb/lr_iatd_dianebielik13.jpg"" />",https://s3.amazonaws.com/assets.knackhq.com/assets/5853e6992e7f151d490cd3f6/5ac60689fe14431fb0ef25b3/original/lr_iatd_dianebielik13.jpg,,,@dianebielik (instagram),Guest only,Email,Valeria Kadelski,,,www.dianebielik.co.uk,,,,,,,,,,,,,,,,,,,,,,,,,,Yes,04/05/2018 13:22,,Yes,"""I'm looking for hosts that are...   ""I'm searching for open calls that are...  ""I'm looking to get connected to someone that...""",https://www.humanhotel.com,No
1667,C,Cherilyn Yeates,,Cherilyn,,Yeates,Cherilyn,Yeates,art@cherilynyeates.com,asdqweC1667,active,Member,United Kingdom (UK),Croydon,"Croydon, United Kingdom (UK)",25/09/1992,,26,Visual Artist,"<img src=""https://s3.amazonaws.com/assets.knackhq.com/assets/5853e6992e7f151d490cd3f6/5ac61a1e6130b61f6652a07e/thumb/img_9748.jpg"" />",https://s3.amazonaws.com/assets.knackhq.com/assets/5853e6992e7f151d490cd3f6/5ac61a1e6130b61f6652a07e/original/img_9748.jpg,44,7817857018,@chez_studio,Guest only,Email,Francesca Pisani,"I am practicing as a Visual Artist based in Croydon, London. I am also working as a Development Officer for a youth arts organisation, developing new visual arts projects for young people across the borough. ","nature, curiosity, colour",www.cherilynyeates.com,"Painting, mixed media, resin",,,,,,,,,,,,,,,,,,,"I am currently working on 'The Universal Blueprint' which is a body of work inspired by the visual synchronicity within nature on a microscopic level. I am experimenting with resin, mixed media and interdisciplinary methods to create rich micro landscapes of the worlds within worlds we inhabit. <br /><br />The project explores the similarities across the microscopic world, looks at those visual relationships and suggests it's more than a coincidence that these organic forms are the result of universal forces. <br /><br />I have just shown work in a local art gallery group exhibition called 'Synergy' and am working towards a solo exhibition that will be shown at Matthews Yard in Croydon in the summer. ",,,,,,Yes,04/05/2018 16:23,,Yes,"""I'm looking for hosts that are...   ""I'm searching for open calls that are...  ""I'm looking to get connected to someone that...""",https://www.humanhotel.com,No
1668,D,Maïa Régis,,Maïa,,Régis,Maïa,Régis,maiaregis95@gmail.com,asdqweD1668,active,Member,United Kingdom (UK),London,"London, United Kingdom (UK)",01/12/1995,,23,student (MA painting at RCA),"<img src=""https://s3.amazonaws.com/assets.knackhq.com/assets/5853e6992e7f151d490cd3f6/5ac61f60ac0d341f7b30dde5/thumb/img_e2714.jpg"" />",https://s3.amazonaws.com/assets.knackhq.com/assets/5853e6992e7f151d490cd3f6/5ac61f60ac0d341f7b30dde5/original/img_e2714.jpg,44,7576272297,https://www.instagram.com/maia_regis/,Guest & Host,Email,Francesca Pisani,I am a 22 year old Painting student at Royal College of Art.,#painting #london #film,https://www.instagram.com/maia_regis/,"painting, photograph, video","<img src=""https://s3.amazonaws.com/assets.knackhq.com/assets/5853e6992e7f151d490cd3f6/5ac62256b39a391faea75788/thumb/waspintheboxfastmoney.jpg"" />",https://s3.amazonaws.com/assets.knackhq.com/assets/5853e6992e7f151d490cd3f6/5ac62256b39a391faea75788/original/waspintheboxfastmoney.jpg,"Wasp in The Box, Fast Money (acrylic on embroidered tablecloth)","<img src=""https://s3.amazonaws.com/assets.knackhq.com/assets/5853e6992e7f151d490cd3f6/5ac6227516e9ab1f4eac341a/thumb/ramonreyna.jpg"" />",https://s3.amazonaws.com/assets.knackhq.com/assets/5853e6992e7f151d490cd3f6/5ac6227516e9ab1f4eac341a/original/ramonreyna.jpg,Ramon Reyna (acrylic on canvas),"<img src=""https://s3.amazonaws.com/assets.knackhq.com/assets/5853e6992e7f151d490cd3f6/5ac62283e13dc51f9ef36039/thumb/rundevilrun.jpg"" />",https://s3.amazonaws.com/assets.knackhq.com/assets/5853e6992e7f151d490cd3f6/5ac62283e13dc51f9ef36039/original/rundevilrun.jpg,Run Devil Run (acrylic on embroidered tablecloth),"<img src=""https://s3.amazonaws.com/assets.knackhq.com/assets/5853e6992e7f151d490cd3f6/5ac62296ac0d341f7b30e3b5/thumb/mosquitohour.jpg"" />",https://s3.amazonaws.com/assets.knackhq.com/assets/5853e6992e7f151d490cd3f6/5ac62296ac0d341f7b30e3b5/original/mosquitohour.jpg,Mosquito Hour (acrylic on canvas),"<img src=""https://s3.amazonaws.com/assets.knackhq.com/assets/5853e6992e7f151d490cd3f6/5ac622ab35cde41f61cd63fc/thumb/lessthanzero.jpg"" />",https://s3.amazonaws.com/assets.knackhq.com/assets/5853e6992e7f151d490cd3f6/5ac622ab35cde41f61cd63fc/original/lessthanzero.jpg,Less Than Zero (acrylic on embroidered tablecloth and canvas),"<img src=""https://s3.amazonaws.com/assets.knackhq.com/assets/5853e6992e7f151d490cd3f6/5ac622ce3350c01fb5a2c079/thumb/heads.jpg"" />",https://s3.amazonaws.com/assets.knackhq.com/assets/5853e6992e7f151d490cd3f6/5ac622ce3350c01fb5a2c079/original/heads.jpg,Heads (acrylic on canvas),"Birds in cages. Ex-votos, barbershop signs, embroideries. Trap music. <br />Carefully packed dried leaves bouquets. Sliced potatoes, roots covered in mud, decaying fish heads. Shouts of a strawberry seller mixed with the smell of rotten meat. <br /><br />The vital exacerbation of the senses found in the endless open-air markets of the great South inspire me: Ballaro and La Vucciria of Palermo, Sicily; Sao Joaquim in Salvador de Bahia, Electric Avenue in Brixton…<br /><br />I like to navigate in troubled waters, between the real and the fictional; between drama and joy, tension and calm. Rhythm and ambiguity is the key for a work that’s full of life.<br />",https://vimeo.com/147915182,"Still Life. During the four months I spent last year in Vancouver in an inter-school exchange, I worked on a photographic and video project that continued to feed on noisy, coloured and flavourful atmospheres. In a series of photographs, I aimed to reveal the peeled surface of the potatoes, images that I enlarged on a large scale. In a video series, I recorded a performance where I violently crush a mountain of fruits and vegetables with a wooden mallet: potatoes, beetroots, pumpkins, melons, pomegranates ... Pleasure of the exploded material, coloured, transcended by the slow motion. I saw it as an explosion of comets in the cosmos... images of Big Bang ... For me the destruction generated the creation of a new world.",,,,Yes,04/05/2018 15:23,,Yes,"""I'm looking for hosts that are...   ""I'm searching for open calls that are...  ""I'm looking to get connected to someone that...""",https://www.humanhotel.com,No
1669,E,salvatore difranco,,salvatore,,difranco,salvatore,difranco,info@salvatoredifranco.it,asdqweE1669,active,Member,Italy,comiso,"comiso , Italy",17/04/1988,,30,artista,"<img src=""https://s3.amazonaws.com/assets.knackhq.com/assets/5853e6992e7f151d490cd3f6/5ac6467afcfddb1fc269a3ae/thumb/img_7477.jpg"" />",https://s3.amazonaws.com/assets.knackhq.com/assets/5853e6992e7f151d490cd3f6/5ac6467afcfddb1fc269a3ae/original/img_7477.jpg,,,https://www.facebook.com/salvatoredifranco.it/,Guest only,Email,Valeria Kadelski,,,www.salvatoredifranco.it,,,,,,,,,,,,,,,,,,,,,,,,,,Yes,04/05/2018 18:00,,Yes,"""I'm looking for hosts that are...   ""I'm searching for open calls that are...  ""I'm looking to get connected to someone that...""",https://www.humanhotel.com,No
1670,F,Ana Cvorovic,,Ana,,Cvorovic,Ana,Cvorovic,anacvorovic@yahoo.co.uk,asdqweF1670,active,Member,United Kingdom (UK),London,"London, United Kingdom (UK)",15/05/1981,,37,Artist,"<img src=""https://s3.amazonaws.com/assets.knackhq.com/assets/5853e6992e7f151d490cd3f6/5ac64df906abb51fb9ee8431/thumb/anacvorovic4_lowres.jpg"" />",https://s3.amazonaws.com/assets.knackhq.com/assets/5853e6992e7f151d490cd3f6/5ac64df906abb51fb9ee8431/original/anacvorovic4_lowres.jpg,,,@ana_cvorovic,Guest & Host,Email,Francesca Pisani,,,www.anacvorovic.com,,,,,,,,,,,,,,,,,,,,,,,,,,Yes,04/05/2018 18:31,,Yes,"""I'm looking for hosts that are...   ""I'm searching for open calls that are...  ""I'm looking to get connected to someone that...""",https://www.humanhotel.com,No
1671,G,Yao Liao,,Yao,,Liao,Yao,Liao,swimasafish@gmail.com,asdqweG1671,active,Member,,,", ",,,48,,"<img src=""https://s3.amazonaws.com/assets.knackhq.com/assets/5853e6992e7f151d490cd3f6/5a5daa58db68ae655a487afd/thumb/profileimagefiller.jpg"" />",https://s3.amazonaws.com/assets.knackhq.com/assets/5853e6992e7f151d490cd3f6/5a5daa58db68ae655a487afd/original/profileimagefiller.jpg,,,,Guest & Host,,,,,,,,,,,,,,,,,,,,,,,,,,,,,,,Yes,04/05/2018 21:04,,Yes,"""I'm looking for hosts that are...   ""I'm searching for open calls that are...  ""I'm looking to get connected to someone that...""",https://www.humanhotel.com,No
1672,H,Carolina Cruz,,Carolina,,Cruz,Carolina,Cruz,pazcruz@yahoo.com,asdqweH1672,active,Member,,,", ",,,48,,"<img src=""https://s3.amazonaws.com/assets.knackhq.com/assets/5853e6992e7f151d490cd3f6/5a5daa58db68ae655a487afd/thumb/profileimagefiller.jpg"" />",https://s3.amazonaws.com/assets.knackhq.com/assets/5853e6992e7f151d490cd3f6/5a5daa58db68ae655a487afd/original/profileimagefiller.jpg,,,,Guest & Host,,,,,,,,,,,,,,,,,,,,,,,,,,,,,,,Yes,04/05/2018 22:13,,No,"""I'm looking for hosts that are...   ""I'm searching for open calls that are...  ""I'm looking to get connected to someone that...""",https://www.humanhotel.com,No
1673,I,Joe Mangrum,,Joe,,Mangrum,Joe,Mangrum,mangrum.joe@gmail.com,asdqweI1673,active,Member,United States of America (USA),New York,"New York, United States of America (USA)",,48,48,Artist,"<img src=""https://s3.amazonaws.com/assets.knackhq.com/assets/5853e6992e7f151d490cd3f6/58e5c3b88c00ca540e3a24d0/thumb/543737_10151525046459551_2038664428_n.jpg"" />",https://s3.amazonaws.com/assets.knackhq.com/assets/5853e6992e7f151d490cd3f6/58e5c3b88c00ca540e3a24d0/original/543737_10151525046459551_2038664428_n.jpg,,,https://www.facebook.com/joe.mangrum.art/,Guest & Host,Email,,,,http://www.joemangrum.com,,,,,,,,,,,,,,,,,,,,,,,,,,Yes,,,,,https://www.humanhotel.com,
1674,J,Nicky Broekhuysen,,Nicky,,Broekhuysen,Nicky,Broekhuysen,nicky.broekhuysen@gmail.com,asdqweJ1674,active,Member,Germany,Berlin,"Berlin, Germany",,35,48,Artist,"<img src=""https://s3.amazonaws.com/assets.knackhq.com/assets/5853e6992e7f151d490cd3f6/58e5ef4a48256d54893e81e3/thumb/nickybroekhuysencopy.jpg"" />",https://s3.amazonaws.com/assets.knackhq.com/assets/5853e6992e7f151d490cd3f6/58e5ef4a48256d54893e81e3/original/nickybroekhuysencopy.jpg,,,https://www.facebook.com/nicky.broekhuysen,Guest only,Email,Martin Roosengaard,,,http://nickybroekhuysen.com/,,,,,,,,,,,,,,,,,,,,,,,,,50% booking fee discount,Yes,,,,,https://www.humanhotel.com,
1675,K,Glen Sheppard,,Glen,,Sheppard,Glen,Sheppard,gtsheppard@gmail.com,asdqweK1675,active,Member,United Kingdom (UK),London,"London, United Kingdom (UK)",,37,48,Opera Director,"<img src=""https://s3.amazonaws.com/assets.knackhq.com/assets/5853e6992e7f151d490cd3f6/58e62aceccaa805343b3d3d0/thumb/glen3.jpg"" />",https://s3.amazonaws.com/assets.knackhq.com/assets/5853e6992e7f151d490cd3f6/58e62aceccaa805343b3d3d0/original/glen3.jpg,,,https://www.facebook.com/gtsheppard,Guest & Host,Email,Federica,,,www.glensheppard.com,,,,,,,,,,,,,,,,,,,,,,,,,,Yes,,,,,https://www.humanhotel.com,
1676,L,Chloe Plumb,,Chloe,,Plumb,Chloe,Plumb,chloeleandra@hotmail.co.uk,asdqweL1676,active,Member,United Kingdom (UK),London,"London, United Kingdom (UK)",,28,48,Filmmaker,"<img src=""https://s3.amazonaws.com/assets.knackhq.com/assets/5853e6992e7f151d490cd3f6/58e62d2fccaa805343b3d5a7/thumb/chloe_photo_colour.jpg"" />",https://s3.amazonaws.com/assets.knackhq.com/assets/5853e6992e7f151d490cd3f6/58e62d2fccaa805343b3d5a7/original/chloe_photo_colour.jpg,,,https://www.facebook.com/chloe.plumb,Guest & Host,Email,,,,www.chloeplumb.co.uk,,,,,,,,,,,,,,,,,,,,,,,,,50% booking fee discount,Yes,,,,,https://www.humanhotel.com,
1677,M,WOLFY,,WOLFY,,,WOLFY,,info@dalstonarchitects.co.uk,asdqweM1677,active,Member,United Kingdom (UK),London,"London, United Kingdom (UK)",,42,48,architect,"<img src=""https://s3.amazonaws.com/assets.knackhq.com/assets/5853e6992e7f151d490cd3f6/58e62c628d474448e8282e82/thumb/img_20170406_104700.jpg"" />",https://s3.amazonaws.com/assets.knackhq.com/assets/5853e6992e7f151d490cd3f6/58e62c628d474448e8282e82/original/img_20170406_104700.jpg,,,wolfram borger,Guest & Host,Email,,,,dalstonarchitects.co.uk,,,,,,,,,,,,,,,,,,,,,,,,,50% booking fee discount,Yes,,,,,https://www.humanhotel.com,
1678,N,Jess Chan,,Jess,,Chan,Jess,Chan,jkmchan@hotmail.co.uk,asdqweN1678,active,Member,United Kingdom (UK),London,"London, United Kingdom (UK)",,28,48,Textile Designer and Dye Technician,"<img src=""https://s3.amazonaws.com/assets.knackhq.com/assets/5853e6992e7f151d490cd3f6/58e62d2f988ac45b795c03bc/thumb/p1010501.jpg"" />",https://s3.amazonaws.com/assets.knackhq.com/assets/5853e6992e7f151d490cd3f6/58e62d2f988ac45b795c03bc/original/p1010501.jpg,,,@jesschantextiles,Guest & Host,Email,Federica Bocchetti,,,www.jesschantextiles.co.uk,,,,,,,,,,,,,,,,,,,,,,,,,50% booking fee discount,Yes,,,,,https://www.humanhotel.com,
1679,O,Nicole Markhoff,,Nicole,,Markhoff,Nicole,Markhoff,hello@nicolemarkhoff.com,asdqweO1679,active,Member,United Kingdom (UK),London,"London, United Kingdom (UK)",,28,48,Fashion Filmmaker,"<img src=""https://s3.amazonaws.com/assets.knackhq.com/assets/5853e6992e7f151d490cd3f6/58e63013f0c34552d3e2a12d/thumb/11037307_10155452246655083_5306100548196220742_n.jpg"" />",https://s3.amazonaws.com/assets.knackhq.com/assets/5853e6992e7f151d490cd3f6/58e63013f0c34552d3e2a12d/original/11037307_10155452246655083_5306100548196220742_n.jpg,,,nicolemarkhoff,Guest only,Email,,,,www.nicolemarkhoff.com,,,,,,,,,,,,,,,,,,,,,,,,,50% booking fee discount,Yes,,,,,https://www.humanhotel.com,
1680,P,Egidija Ciricaite,,Egidija,,Ciricaite,Egidija,Ciricaite,mail@egidija.com,asdqweP1680,active,Member,United Kingdom (UK),London,"London, United Kingdom (UK)",,42,48,experimental publishing,"<img src=""https://s3.amazonaws.com/assets.knackhq.com/assets/5853e6992e7f151d490cd3f6/58e6309409b3ee48dd34b134/thumb/img_5462.jpg"" />",https://s3.amazonaws.com/assets.knackhq.com/assets/5853e6992e7f151d490cd3f6/58e6309409b3ee48dd34b134/original/img_5462.jpg,,,@egidijacw,Guest only,Email,Federica,,,www.egidija.com,,,,,,,,,,,,,,,,,,,,,,,,,50% booking fee discount,Yes,,,,,https://www.humanhotel.com,
1681,Q,Karolina Pa,,Karolina,,Pa,Karolina,Pa,kkaarroollaa@gmail.com,asdqweQ1681,active,Member,United Kingdom (UK),London,"London, United Kingdom (UK)",,34,48,video/photography,"<img src=""https://s3.amazonaws.com/assets.knackhq.com/assets/5853e6992e7f151d490cd3f6/58e632aa513f5353413f398d/thumb/screenshot20170406at13.20.26.png"" />",https://s3.amazonaws.com/assets.knackhq.com/assets/5853e6992e7f151d490cd3f6/58e632aa513f5353413f398d/original/screenshot20170406at13.20.26.png,,,@kpaczkowska,Guest & Host,Email,,,,http://www.karolinapaczkowska.com/,,,,,,,,,,,,,,,,,,,,,,,,,50% booking fee discount,Yes,,,,,https://www.humanhotel.com,
1682,R,Michal Martychowiec,,Michal,,Martychowiec,Michal,Martychowiec,info@michalmartychowiec.com,asdqweR1682,active,Member,Germany,Berlin,"Berlin, Germany",,29,48,Artist,"<img src=""https://s3.amazonaws.com/assets.knackhq.com/assets/5853e6992e7f151d490cd3f6/58e6338bccaa805343b3db30/thumb/a22009.jpg"" />",https://s3.amazonaws.com/assets.knackhq.com/assets/5853e6992e7f151d490cd3f6/58e6338bccaa805343b3db30/original/a22009.jpg,49,491626999090,https://www.facebook.com/mmartychowiec,Guest only,Email,Federica Bocchetti,,"thoughtful, practical, logical",michalmartychowiec.com,"conceptual, historic, mix media","<img src=""https://s3.amazonaws.com/assets.knackhq.com/assets/5853e6992e7f151d490cd3f6/58f3cc8df702ab0c35db692a/thumb/_i2w9105b.jpg"" />",https://s3.amazonaws.com/assets.knackhq.com/assets/5853e6992e7f151d490cd3f6/58f3cc8df702ab0c35db692a/original/_i2w9105b.jpg,,"<img src=""https://s3.amazonaws.com/assets.knackhq.com/assets/5853e6992e7f151d490cd3f6/58f3cc9e4ba7a20c513c8511/thumb/allishistoryweb.jpg"" />",https://s3.amazonaws.com/assets.knackhq.com/assets/5853e6992e7f151d490cd3f6/58f3cc9e4ba7a20c513c8511/original/allishistoryweb.jpg,,"<img src=""https://s3.amazonaws.com/assets.knackhq.com/assets/5853e6992e7f151d490cd3f6/58f3cccb6cf32b0bda6a1049/thumb/_akk4395.jpg"" />",https://s3.amazonaws.com/assets.knackhq.com/assets/5853e6992e7f151d490cd3f6/58f3cccb6cf32b0bda6a1049/original/_akk4395.jpg,,"<img src=""https://s3.amazonaws.com/assets.knackhq.com/assets/5853e6992e7f151d490cd3f6/58f3cd262b92f00c39d29ba5/thumb/_akk8605workingfile.jpg"" />",https://s3.amazonaws.com/assets.knackhq.com/assets/5853e6992e7f151d490cd3f6/58f3cd262b92f00c39d29ba5/original/_akk8605workingfile.jpg,,"<img src=""https://s3.amazonaws.com/assets.knackhq.com/assets/5853e6992e7f151d490cd3f6/58f3ccdf98430a0b90e41451/thumb/_akk8168.jpg"" />",https://s3.amazonaws.com/assets.knackhq.com/assets/5853e6992e7f151d490cd3f6/58f3ccdf98430a0b90e41451/original/_akk8168.jpg,,"<img src=""https://s3.amazonaws.com/assets.knackhq.com/assets/5853e6992e7f151d490cd3f6/58f3ccf2d563190cc5fdd6ba/thumb/a181c.jpg"" />",https://s3.amazonaws.com/assets.knackhq.com/assets/5853e6992e7f151d490cd3f6/58f3ccf2d563190cc5fdd6ba/original/a181c.jpg,,,https://vimeo.com/124694774,,https://vimeo.com/206235274,,50% booking fee discount,Yes,,,,,https://www.humanhotel.com,
1683,S,Matt Deely,,Matt Deely,,,Matt Deely,,mattdeely@me.com,asdqweS1683,active,Member,United Kingdom (UK),london,"london, United Kingdom (UK)",,53,48,stage set designer,"<img src=""https://s3.amazonaws.com/assets.knackhq.com/assets/5853e6992e7f151d490cd3f6/58e631caeb3cd34914b0317f/thumb/img_1162.jpg"" />",https://s3.amazonaws.com/assets.knackhq.com/assets/5853e6992e7f151d490cd3f6/58e631caeb3cd34914b0317f/original/img_1162.jpg,,,facebook.com/MattDeely,Guest only,Email,,,,mattdeely.org,,,,,,,,,,,,,,,,,,,,,,,,,50% booking fee discount,Yes,,,,,https://www.humanhotel.com,
1684,T,Alessandro Di Gregorio,,Alessandro,,Di Gregorio,Alessandro,Di Gregorio,alessandro.digregorio@gmail.com,asdqweT1684,active,Member,Italy,Roma,"Roma, Italy",,43,48,videomaker,"<img src=""https://s3.amazonaws.com/assets.knackhq.com/assets/5853e6992e7f151d490cd3f6/58e63c7892f0f5561bcdbf5a/thumb/avatar.jpg"" />",https://s3.amazonaws.com/assets.knackhq.com/assets/5853e6992e7f151d490cd3f6/58e63c7892f0f5561bcdbf5a/original/avatar.jpg,,,https://www.facebook.com/alessandro.gregorio.56,Guest only,Email,,,,alessandrodigregorio.it,,,,,,,,,,,,,,,,,,,,,,,,,50% booking fee discount,Yes,,,,,https://www.humanhotel.com,
1685,U,Roberta Coni,,Roberta,,Coni,Roberta,Coni,robertaconi@gmail.com,asdqweU1685,active,Member,,Frascati,"Frascati, ",,40,48,"Artist, painter","<img src=""https://s3.amazonaws.com/assets.knackhq.com/assets/5853e6992e7f151d490cd3f6/58e6433409b3ee48dd34c3f8/thumb/img_20161105_204821.jpg"" />",https://s3.amazonaws.com/assets.knackhq.com/assets/5853e6992e7f151d490cd3f6/58e6433409b3ee48dd34c3f8/original/img_20161105_204821.jpg,,,Facebook.com/robertaconiartist,Guest only,Email,Federica bocchetti,,,https://www.instagram.com/p/BMir94vAiPf/,,,,,,,,,,,,,,,,,,,,,,,,,50% booking fee discount,Yes,,,,,https://www.humanhotel.com,
1686,V,camilo,,camilo,,,camilo,,camilofoto@gmail.com,asdqweV1686,active,Member,,medellin,"medellin, ",,40,48,photographer,"<img src=""https://s3.amazonaws.com/assets.knackhq.com/assets/5853e6992e7f151d490cd3f6/58e6492d1653f748eb884f96/thumb/fotocamiloecheverri.jpg"" />",https://s3.amazonaws.com/assets.knackhq.com/assets/5853e6992e7f151d490cd3f6/58e6492d1653f748eb884f96/original/fotocamiloecheverri.jpg,,,@camilo_echeverri,Guest & Host,Email,,,,http://camiloecheverri.net/2017/02/08/maaji-summer-2017/,,,,,,,,,,,,,,,,,,,,,,,,,50% booking fee discount,Yes,,,,,https://www.humanhotel.com,
1687,W,Peihang Huang,,Peihang,,Huang,Peihang,Huang,peihang1@gmail.com,asdqweW1687,active,Member,United Kingdom (UK),London,"London, United Kingdom (UK)",,33,48,Artist,"<img src=""https://s3.amazonaws.com/assets.knackhq.com/assets/5853e6992e7f151d490cd3f6/58e664c7eb3cd34914b06f79/thumb/850.jpg"" />",https://s3.amazonaws.com/assets.knackhq.com/assets/5853e6992e7f151d490cd3f6/58e664c7eb3cd34914b06f79/original/850.jpg,,,@peihanghuang (instagram),Guest only,Email,,,,www.peihanghuang.com,,,,,,,,,,,,,,,,,,,,,,,,,50% booking fee discount,Yes,,,,,https://www.humanhotel.com,
1688,X,Valentina Verc,,Valentina,,Verc,Valentina,Verc,valentinaverc@gmail.com,asdqweX1688,active,Member,United Kingdom (UK),London,"London, United Kingdom (UK)",,37,48,Graphic designer,"<img src=""https://s3.amazonaws.com/assets.knackhq.com/assets/5853e6992e7f151d490cd3f6/58e67f6fc9ff67531db89d13/thumb/3733df7.jpg"" />",https://s3.amazonaws.com/assets.knackhq.com/assets/5853e6992e7f151d490cd3f6/58e67f6fc9ff67531db89d13/original/3733df7.jpg,,,@valentina.verc,Guest only,Email,Federica Bocchetti,,,http://www.valentinaverc.com,,,,,,,,,,,,,,,,,,,,,,,,,50% booking fee discount,Yes,,,,,https://www.humanhotel.com,
1689,Y,Renata Babic,,Renata,,Babic,Renata,Babic,renata.babic2@gmail.com,asdqweY1689,active,Member,,,", ",,,48,,"<img src=""https://s3.amazonaws.com/assets.knackhq.com/assets/5853e6992e7f151d490cd3f6/5a5daa58db68ae655a487afd/thumb/profileimagefiller.jpg"" />",https://s3.amazonaws.com/assets.knackhq.com/assets/5853e6992e7f151d490cd3f6/5a5daa58db68ae655a487afd/original/profileimagefiller.jpg,,,,Guest & Host,,,,,,,,,,,,,,,,,,,,,,,,,,,,,,,Yes,04/06/2018 9:13,,Yes,"""I'm looking for hosts that are...   ""I'm searching for open calls that are...  ""I'm looking to get connected to someone that...""",https://www.humanhotel.com,No
1690,Z,karl bielik,,karl,,bielik,karl,bielik,karlbielik@gmail.com,asdqweZ1690,active,Member,United Kingdom (UK),London,"London, United Kingdom (UK)",31/01/1967,,51,Artist,"<img src=""https://s3.amazonaws.com/assets.knackhq.com/assets/5853e6992e7f151d490cd3f6/5ac752bf92c8a81fac1a5a19/thumb/img_5027.jpg"" />",https://s3.amazonaws.com/assets.knackhq.com/assets/5853e6992e7f151d490cd3f6/5ac752bf92c8a81fac1a5a19/original/img_5027.jpg,,,karl_bielik  (Instagram),Guest only,Email,Francesca Pisani,,,Www.karlbielik.com,,,,,,,,,,,,,,,,,,,,,,,,,,Yes,04/06/2018 12:58,,Yes,"""I'm looking for hosts that are...   ""I'm searching for open calls that are...  ""I'm looking to get connected to someone that...""",https://www.humanhotel.com,No
1691,A,Gunther Herbst,,Gunther,,Herbst,Gunther,Herbst,guntherdh63@hotmail.com,asdqweA1691,active,Member,United Kingdom (UK),London,"London, United Kingdom (UK)",25/04/1963,,55,Artist,"<img src=""https://s3.amazonaws.com/assets.knackhq.com/assets/5853e6992e7f151d490cd3f6/5ac762469f4b491fac8072b4/thumb/profilepic.jpg"" />",https://s3.amazonaws.com/assets.knackhq.com/assets/5853e6992e7f151d490cd3f6/5ac762469f4b491fac8072b4/original/profilepic.jpg,44,7720394893,www.instagram.com/guntherdh63,Guest only,Email,Francesca Pisani,I was born in South Africa where I obtained my first degree at the Johannesburg University in 1991. I moved to Germany in 1992 and studied under Professor Karl Horst Hödicke at the Hochschule der Künste in Berlin. In 1995 I came to London to continue my practice and study at Goldsmiths University of London for my Masters Degree in 2002.  I live and work in London.,"Architecture, Post-colonial, Modernism",www.guntherherbst.com,"Painting, Photography, Sculpture","<img src=""https://s3.amazonaws.com/assets.knackhq.com/assets/5853e6992e7f151d490cd3f6/5ac886255b50ea1fbac20434/thumb/monumentproposal1.jpg"" />",https://s3.amazonaws.com/assets.knackhq.com/assets/5853e6992e7f151d490cd3f6/5ac886255b50ea1fbac20434/original/monumentproposal1.jpg,"Monument Proposal 1 2017, Paper, Card, Sponge Cloth, Mirror, Stones and Acrylic paint, 34 x 20 cm","<img src=""https://s3.amazonaws.com/assets.knackhq.com/assets/5853e6992e7f151d490cd3f6/5ac88642f6e0971fb36d7fb5/thumb/monumentproposal2.jpg"" />",https://s3.amazonaws.com/assets.knackhq.com/assets/5853e6992e7f151d490cd3f6/5ac88642f6e0971fb36d7fb5/original/monumentproposal2.jpg,"Monument Proposal 2 2017, Paper, Card, Sponge Cloth, Sponge Foam, Acrylic Paint, 26.5 x 22 cm","<img src=""https://s3.amazonaws.com/assets.knackhq.com/assets/5853e6992e7f151d490cd3f6/5ac88675b328dd5184aba1d4/thumb/monument_proposal3.jpg"" />",https://s3.amazonaws.com/assets.knackhq.com/assets/5853e6992e7f151d490cd3f6/5ac88675b328dd5184aba1d4/original/monument_proposal3.jpg,"Monument Proposal #3Y 2017, Acrylic on paper 48 x 32 cm, (Unframed)","<img src=""https://s3.amazonaws.com/assets.knackhq.com/assets/5853e6992e7f151d490cd3f6/5ac886d6a2efd61fa32e6a13/thumb/highholborn5.jpg"" />",https://s3.amazonaws.com/assets.knackhq.com/assets/5853e6992e7f151d490cd3f6/5ac886d6a2efd61fa32e6a13/original/highholborn5.jpg,"High Holborn 5 2014, Acrylic on paper, 19.3 x 29.4 cm","<img src=""https://s3.amazonaws.com/assets.knackhq.com/assets/5853e6992e7f151d490cd3f6/5ac886e94c47201fb619b74c/thumb/highholborn1.jpg"" />",https://s3.amazonaws.com/assets.knackhq.com/assets/5853e6992e7f151d490cd3f6/5ac886e94c47201fb619b74c/original/highholborn1.jpg,"High Holborn 2006, Oil on canvas, 44.5 x 66.5 cm","<img src=""https://s3.amazonaws.com/assets.knackhq.com/assets/5853e6992e7f151d490cd3f6/5ac886f58b93721fa04b772c/thumb/gloversisland3.jpg"" />",https://s3.amazonaws.com/assets.knackhq.com/assets/5853e6992e7f151d490cd3f6/5ac886f58b93721fa04b772c/original/gloversisland3.jpg,"Glovers Island 3 2007, Acrylic on paper, 35 x 42 cm","My painting practice involves a continued engagement with histories, be it fictional or non-fictional and an exploration of the complex relationship to the environment and the human presence in it. Modernist symbols are used as the signifiers for our current times, fragmented and rearranged to suggest a continuous re-examining of Modernisms legacy and the functioning and the status of the constructed idea of landscape in contemporary painting. ",,,,,,Yes,04/07/2018 11:01,,Yes,"""I'm looking for hosts that are...   ""I'm searching for open calls that are...  ""I'm looking to get connected to someone that...""",https://www.humanhotel.com,No
1692,B,Jing Su,,Jing,,Su,Jing,Su,sue-jing@hotmail.com,asdqweB1692,active,Member,United Kingdom (UK),London,"London, United Kingdom (UK)",07/04/1989,,29,Student,"<img src=""https://s3.amazonaws.com/assets.knackhq.com/assets/5853e6992e7f151d490cd3f6/5ac76b940890031fae5a4c85/thumb/a4dedcf864ad4332bf7dff2591fc823d.jpeg"" />",https://s3.amazonaws.com/assets.knackhq.com/assets/5853e6992e7f151d490cd3f6/5ac76b940890031fae5a4c85/original/a4dedcf864ad4332bf7dff2591fc823d.jpeg,,,sujings.com,Guest & Host,Email,Francesca Pisani,,,sujings.com,,,,,,,,,,,,,,,,,,,,,,,,,,Yes,04/06/2018 14:46,,Yes,"""I'm looking for hosts that are...   ""I'm searching for open calls that are...  ""I'm looking to get connected to someone that...""",https://www.humanhotel.com,No
1693,C,Sijong Kim,,Sijong,,Kim,Sijong,Kim,sijong.kim@network.rca.ac.uk,asdqweC1693,active,Member,"Korea, Republic of (South Korea)",London,"London, Korea, Republic of (South Korea)",20/11/1983,,35,Student,"<img src=""https://s3.amazonaws.com/assets.knackhq.com/assets/5853e6992e7f151d490cd3f6/5ac7a262d66c4e1fb03e3f9b/thumb/11.jpg"" />",https://s3.amazonaws.com/assets.knackhq.com/assets/5853e6992e7f151d490cd3f6/5ac7a262d66c4e1fb03e3f9b/original/11.jpg,,+44) 7460 016595,@king_sijong (instagram),Guest & Host,Email,Francesca Pisani,"My works derive from his interest in ways of seeing the world. I continue to question the ways of seeing and investigate how our world can have different meanings depending on which media it is expressed in and possibilities to give new experiences to people.<br /><br />Born in South Korea, I studied mass conmmunication for my BA. Later I worked as campaign planner and art designer in advertising companies that made me to have doubts about the way people see the world. Through my works, I try to reveal the subjectiveness of people and my own sights and minds. As an admirer of Paul Cézanne, René Magritte, and William Kentridge, I would continue new attempts to depict the world in different perspectives by combining various media.<br /><br />I am currently studying at the Royal College of Art for my MA, graduating at June 2018.","Basketball, London, Art",www.sijongkim.net,"Photograph, Video, Sculpture, Drawing","<img src=""https://s3.amazonaws.com/assets.knackhq.com/assets/5853e6992e7f151d490cd3f6/5acb39251580321fb2c388e2/thumb/20180202dsc01666.jpg"" />",https://s3.amazonaws.com/assets.knackhq.com/assets/5853e6992e7f151d490cd3f6/5acb39251580321fb2c388e2/original/20180202dsc01666.jpg,Invasion,"<img src=""https://s3.amazonaws.com/assets.knackhq.com/assets/5853e6992e7f151d490cd3f6/5acb39cec63aec1f97f95a78/thumb/sijongkim_invasion_detail1.jpg"" />",https://s3.amazonaws.com/assets.knackhq.com/assets/5853e6992e7f151d490cd3f6/5acb39cec63aec1f97f95a78/original/sijongkim_invasion_detail1.jpg,Invasion no.4,"<img src=""https://s3.amazonaws.com/assets.knackhq.com/assets/5853e6992e7f151d490cd3f6/5acb39dd7fb1861fbabc1154/thumb/sijongkimhigh_r4.jpg"" />",https://s3.amazonaws.com/assets.knackhq.com/assets/5853e6992e7f151d490cd3f6/5acb39dd7fb1861fbabc1154/original/sijongkimhigh_r4.jpg,Invasion no.26,"<img src=""https://s3.amazonaws.com/assets.knackhq.com/assets/5853e6992e7f151d490cd3f6/5acb3a2e7a69b81fa6dbb06c/thumb/sijongkimuntitled1.jpg"" />",https://s3.amazonaws.com/assets.knackhq.com/assets/5853e6992e7f151d490cd3f6/5acb3a2e7a69b81fa6dbb06c/original/sijongkimuntitled1.jpg,"6,220 Miles Away","<img src=""https://s3.amazonaws.com/assets.knackhq.com/assets/5853e6992e7f151d490cd3f6/5acb3b379a69641fb857ed01/thumb/woman.jpg"" />",https://s3.amazonaws.com/assets.knackhq.com/assets/5853e6992e7f151d490cd3f6/5acb3b379a69641fb857ed01/original/woman.jpg,Untitled,,,A Woman on the Grass,"<Invasion> is my current practice that exposes conflicts between external environment and internal self. I am a person who does not have such a place that I can call ‘hometown’ due to moving around often. I am a South Korean living in UK. I would love to stay longer than two years-my MA course period, but there is little possibility. Because of the intercontinental and national boundaries, my identity continues to float. I seek my blurred identity by imagining myself in the UK and western history. Each manipulated photograph expresses hope and embracement of distorted self identity, away from its ascribed condition.",https://vimeo.com/151504295,"Self-portrait: Life’s Passage - Running<br />Nov. 2015, 00:41 min., Digital color video<br /><br />My life goes to somewhere. Though it is moving hard into my subjective will, the scenery seems to be the same. Moving forward until exhausted, without knowing the goal, might be the appearance of ourselves. Finally in the end, I return to the starting point as I fall down.",https://vimeo.com/151059785,"Self-portrait: Life’s Passage – Dove and Baguette<br />Nov. 2015, 01:32 min., Digital color video<br /><br />One day in a park, two doves that were eating foods zealously looked as my appearance. Eating to survive, doing productive activities to eat. Heartily eating, I cannot figure out my true appearance of myself. On the back side of eating baguette leisurely in a park, there lies a weak and inhuman figure of myself who disremembers the purpose of eating and the personality of myself.",,Yes,04/09/2018 12:10,,Yes,"""I'm looking for hosts that are...   ""I'm searching for open calls that are...  ""I'm looking to get connected to someone that...""",https://www.humanhotel.com,No
1694,D,Emma Fineman,,Emma,,Fineman,Emma,Fineman,emmafineman@yahoo.com,asdqweD1694,active,Member,United Kingdom (UK),London,"London, United Kingdom (UK)",12/07/1991,,27,Artist,"<img src=""https://s3.amazonaws.com/assets.knackhq.com/assets/5853e6992e7f151d490cd3f6/5ac7a8a40f8d691fb2c7f59e/thumb/5e138144cbc34d77a21e35e8dc4299e8.jpeg"" />",https://s3.amazonaws.com/assets.knackhq.com/assets/5853e6992e7f151d490cd3f6/5ac7a8a40f8d691fb2c7f59e/original/5e138144cbc34d77a21e35e8dc4299e8.jpeg,,,@emmafineman,Guest only,Email,Francesca Pisani,,,www.emmafineman.com,,,,,,,,,,,,,,,,,,,,,,,,,,Yes,04/06/2018 19:06,,Yes,"""I'm looking for hosts that are...   ""I'm searching for open calls that are...  ""I'm looking to get connected to someone that...""",https://www.humanhotel.com,No
1695,E,Toni Kohn,,Toni,,Kohn,Toni,Kohn,tonikohnmsrd@gmail.com,asdqweE1695,active,Member,United States of America (USA),El Cerrito,"El Cerrito, United States of America (USA)",18/10/1966,,52,Dietitian/ Writer,"<img src=""https://s3.amazonaws.com/assets.knackhq.com/assets/5853e6992e7f151d490cd3f6/5ac7aa38de0a5d391b8a8f0a/thumb/26cfab9f8c7a4d74985198da344048e8.png"" />",https://s3.amazonaws.com/assets.knackhq.com/assets/5853e6992e7f151d490cd3f6/5ac7aa38de0a5d391b8a8f0a/original/26cfab9f8c7a4d74985198da344048e8.png,1,310-341-9610,Facebook.com/tonibella,Guest & Host,Social Media,,51. Creative. Lover of words. Playful. Wise. Curious. Searcher. Seeker.,"Poetry, Burning Man, Parenting",Guiltfreeeating.com,"Nutrition, counseling, writer",,,,,,,,,,,,,,,,,,,On my third book. Creativity flourishes.,,,,,,Yes,04/06/2018 19:18,,Yes,"""I'm looking for hosts that are...   ""I'm searching for open calls that are...  ""I'm looking to get connected to someone that...""",https://www.humanhotel.com,No
1696,F,Anissa Lewis,,Anissa,,Lewis,Anissa,Lewis,anissa.lewis@gmail.com,asdqweF1696,active,Member,United States of America (USA),Cincinnati,"Cincinnati, United States of America (USA)",11/12/1974,,44,artist /  adjunct,"<img src=""https://s3.amazonaws.com/assets.knackhq.com/assets/5853e6992e7f151d490cd3f6/5ac7b93cd66c4e1fb03e6713/thumb/anissa.jpg"" />",https://s3.amazonaws.com/assets.knackhq.com/assets/5853e6992e7f151d490cd3f6/5ac7b93cd66c4e1fb03e6713/original/anissa.jpg,1,5139811793,https://www.facebook.com/anissa.r.lewis,Guest only,Word of mouth,,"Greetings.  My name is Anissa Lewis; I teach college level courses in print and Foundations in Cincinnati, OH.  To me, a life well lived is one of amazing food, travel, kindness and humility, and an obscene amount of laughter with love ones!  ","great food, great conversation and great music",www.anissalewis.com,community / love / stories,"<img src=""https://s3.amazonaws.com/assets.knackhq.com/assets/5853e6992e7f151d490cd3f6/5ac7bf1ab328dd5184aaa751/thumb/cautionj.jpg"" />",https://s3.amazonaws.com/assets.knackhq.com/assets/5853e6992e7f151d490cd3f6/5ac7bf1ab328dd5184aaa751/original/cautionj.jpg,Screen print on corrugated plastic yard sign; installed in open lot of residential neighborhood,"<img src=""https://s3.amazonaws.com/assets.knackhq.com/assets/5853e6992e7f151d490cd3f6/5ac7bf5d83d74a1fc46a9f24/thumb/privatej.jpg"" />",https://s3.amazonaws.com/assets.knackhq.com/assets/5853e6992e7f151d490cd3f6/5ac7bf5d83d74a1fc46a9f24/original/privatej.jpg,Screen print on corrugated plastic yard sign; installed in open lot of residential neighborhood,"<img src=""https://s3.amazonaws.com/assets.knackhq.com/assets/5853e6992e7f151d490cd3f6/5ac7c08692c8a81fac1b2b17/thumb/pleasantst.series309pleasant.jpg"" />",https://s3.amazonaws.com/assets.knackhq.com/assets/5853e6992e7f151d490cd3f6/5ac7c08692c8a81fac1b2b17/original/pleasantst.series309pleasant.jpg,Photo-based print,"<img src=""https://s3.amazonaws.com/assets.knackhq.com/assets/5853e6992e7f151d490cd3f6/5ac7c0c0468d4e4e65245053/thumb/pleasantst.series328pleasant.jpg"" />",https://s3.amazonaws.com/assets.knackhq.com/assets/5853e6992e7f151d490cd3f6/5ac7c0c0468d4e4e65245053/original/pleasantst.series328pleasant.jpg,Photo-based print,"<img src=""https://s3.amazonaws.com/assets.knackhq.com/assets/5853e6992e7f151d490cd3f6/5ac7c0cb6d9e1a1fbbb46ff4/thumb/pleasantst.series338pleasant.jpg"" />",https://s3.amazonaws.com/assets.knackhq.com/assets/5853e6992e7f151d490cd3f6/5ac7c0cb6d9e1a1fbbb46ff4/original/pleasantst.series338pleasant.jpg,Photo-based print,"<img src=""https://s3.amazonaws.com/assets.knackhq.com/assets/5853e6992e7f151d490cd3f6/5ac7c1e495856a6f142642fd/thumb/lewisfamilyaltar.jpg"" />",https://s3.amazonaws.com/assets.knackhq.com/assets/5853e6992e7f151d490cd3f6/5ac7c1e495856a6f142642fd/original/lewisfamilyaltar.jpg,Installation,"Anissa R. Lewis was born and raised in Covington, KY by way of Philadelphia, PA.  Her current work of photo-based prints, love letter yard signs and maps is a conversation between her hometown and herself.  It also is an attempt to reconcile her memories of childhood with the current neighborhood's changing social fabric, identity and the architecture of homes still present and those lost.",,,,,,Yes,04/06/2018 20:19,,Yes,"""I'm looking for hosts that are...   ""I'm searching for open calls that are...  ""I'm looking to get connected to someone that...""",https://www.humanhotel.com,No
1697,G,Martin John Callanan,,Martin John,,Callanan,Martin John,Callanan,m@greyisgood.eu,asdqweG1697,active,Member,,,", ",,,48,,"<img src=""https://s3.amazonaws.com/assets.knackhq.com/assets/5853e6992e7f151d490cd3f6/5a5daa58db68ae655a487afd/thumb/profileimagefiller.jpg"" />",https://s3.amazonaws.com/assets.knackhq.com/assets/5853e6992e7f151d490cd3f6/5a5daa58db68ae655a487afd/original/profileimagefiller.jpg,,,,Guest & Host,,,,,,,,,,,,,,,,,,,,,,,,,,,,,,,Yes,04/06/2018 22:19,,Yes,"""I'm looking for hosts that are...   ""I'm searching for open calls that are...  ""I'm looking to get connected to someone that...""",https://www.humanhotel.com,No
1698,H,Carmen Leilani,,Carmen,,Leilani,Carmen,Leilani,carmenleilani@gmail.com,asdqweH1698,active,Member,United States of America (USA),San Francisco,"San Francisco, United States of America (USA)",13/02/1975,,43,Writer,"<img src=""https://s3.amazonaws.com/assets.knackhq.com/assets/5853e6992e7f151d490cd3f6/5ac7e5bfb328dd5184aae0b8/thumb/28337587_10160237069765372_7853152282748789894_o.jpg"" />",https://s3.amazonaws.com/assets.knackhq.com/assets/5853e6992e7f151d490cd3f6/5ac7e5bfb328dd5184aae0b8/original/28337587_10160237069765372_7853152282748789894_o.jpg,1,8187317289,https://www.facebook.com/carmensongpoemincantation,Guest only,,Claire Rumore,"Playwright, screenwriter, professional muse.","theatre, music, webseries",www.linkedin.com/in/carmenleilanidejesus,"Screenwriting, Copywriting, Inspiring",,,,,,,,,,,,,,,,,,,Currently working on an annotated photo book of my journey through breast cancer.,https://www.youtube.com/user/prisondancer,,,,,Yes,04/06/2018 23:30,,No,"""I'm looking for hosts that are...   ""I'm searching for open calls that are...  ""I'm looking to get connected to someone that...""",https://www.humanhotel.com,No
1699,I,Bronya Arciszewska,,Bronya,,Arciszewska,Bronya,Arciszewska,bronya.costume@gmail.com,asdqweI1699,active,Member,United Kingdom (UK),Bedford,"Bedford, United Kingdom (UK)",,26,48,Costume Designer,"<img src=""https://s3.amazonaws.com/assets.knackhq.com/assets/5853e6992e7f151d490cd3f6/58e72a3954a3584adb134587/thumb/img_9014.jpg"" />",https://s3.amazonaws.com/assets.knackhq.com/assets/5853e6992e7f151d490cd3f6/58e72a3954a3584adb134587/original/img_9014.jpg,,,facebook.com/bronyaarciszewska,Guest & Host,Email,,,,bronyaarciszewska.wixsite.com,,,,,,,,,,,,,,,,,,,,,,,,,50% booking fee discount,Yes,,,,,https://www.humanhotel.com,
1700,J,kimie nakano,,kimie,,nakano,kimie,nakano,kimienakano@me.com,asdqweJ1700,active,Member,United Kingdom (UK),london,"london , United Kingdom (UK)",,52,48,stage designer,"<img src=""https://s3.amazonaws.com/assets.knackhq.com/assets/5853e6992e7f151d490cd3f6/58e75d0f80c98159675c1009/thumb/img_1395.jpg"" />",https://s3.amazonaws.com/assets.knackhq.com/assets/5853e6992e7f151d490cd3f6/58e75d0f80c98159675c1009/original/img_1395.jpg,,,kimienakano@me.com,Guest only,Email,,,...,kimienakano.net,...,,,,,,,,,,,,,,,,,,,,,,,,50% booking fee discount,Yes,,,,,https://www.humanhotel.com,