Created on,Number,Letter,displayName,Name: Title,Name: First,Name: Middle,Name: Last,firstName,lastName,email,password,User Status,User Roles,country,city,location,dateOfBirth,Age,Age - 2,occupation,Profile photo,picture,phoneCountryCode,phoneNumber,socialProfileLink,memberType,memberDetail,recommandedBy,info,interestsTags,workRelatedLink,practiceTags,Work Img. 1,imageOne,imageDescriptionOne,Work Img. 2,imageTwo,imageDescriptionTwo,Work Img. 3,imageThree,imageDescriptionThree,Work Img. 4,imageFour,imageDescriptionFour,Work Img. 5,imageFive,imageDescriptionFive,Work Img. 6,imageSix,imageDescriptionSix,descriptionYourPractices,videoLinkOne,videoDescriptionOne,videoLinkTwo,videoDescriptionTwo,INTERNAL NOTES,I agree to the Terms of Use,Last Updated,Connections,emailConfirmed,Connections/Helpful Details,www.humanhotel.com,Host?
05/30/2017 19:29,2201,Q,Ricardo,,Ricardo,,,Ricardo,,ricardo.ha77@gmail.com,asdqweQ2201,active,Member,,Nijmegen,"Nijmegen, ",,40,48,photographer (part time),"<img src=""https://s3.amazonaws.com/assets.knackhq.com/assets/5853e6992e7f151d490cd3f6/592daba10c031249f3114686/thumb/avatar.jpg"" />",https://s3.amazonaws.com/assets.knackhq.com/assets/5853e6992e7f151d490cd3f6/592daba10c031249f3114686/original/avatar.jpg,,,https://www.facebook.com/ricardo.ha77,Guest only,Word of mouth,Romy Arroyo Fernandez,Spanish photographer based in Nijmegen (Netherlands).,"responsible, friendly, easy going",http://www.ricardoclick.com/,"awareness, creative, social ",,,,,,,,,,,,,,,,,,,I'm particularly interested in photographing people. My preferences are divided between portrait and street photography.,,,,,,Yes,05/30/2017 20:30,,,,https://www.humanhotel.com,
05/30/2017 19:52,2202,R,martin durazo,,martin,,durazo,martin,durazo,chavabros@hotmail.com,asdqweR2202,active,Member,United States of America (USA),Inglewood,"Inglewood, United States of America (USA)",,49,48,martin durazo,"<img src=""https://s3.amazonaws.com/assets.knackhq.com/assets/5853e6992e7f151d490cd3f6/592db0debc4dd34d141e0c89/thumb/dsc_2597.jpg"" />",https://s3.amazonaws.com/assets.knackhq.com/assets/5853e6992e7f151d490cd3f6/592db0debc4dd34d141e0c89/original/dsc_2597.jpg,1,3107660778,https://www.facebook.com/mdluxx,Guest & Host,Email,,,,http://martindurazo.com/,,,,,,,,,,,,,,,,,,,,,,,,,,Yes,05/30/2017 19:52,,,,https://www.humanhotel.com,
05/30/2017 21:00,2203,S,Scott Lind,,Scott,,Lind,Scott,Lind,scottlind@gmail.com,asdqweS2203,active,Member,United States of America (USA),Alpine,"Alpine, United States of America (USA)",,38,48,Secondary school English teacher,"<img src=""https://s3.amazonaws.com/assets.knackhq.com/assets/5853e6992e7f151d490cd3f6/592dbffc8361cc49d132aab9/thumb/img_9294.jpg"" />",https://s3.amazonaws.com/assets.knackhq.com/assets/5853e6992e7f151d490cd3f6/592dbffc8361cc49d132aab9/original/img_9294.jpg,1,18018510388,https://m.facebook.com/scottkarllind,Guest only,Word of mouth,Martin,,,http://linkedin.com/in/scott-lind-5a5aa729,,,,,,,,,,,,,,,,,,,,,,,,,,Yes,05/30/2017 21:00,,,,https://www.humanhotel.com,
05/30/2017 22:12,2204,T,Lente Van Campenhout,,Lente,,Van Campenhout,Lente,Van Campenhout,annevancampenhout@gmail.com,asdqweT2204,active,Member,Netherlands,AMSTERDAM,"AMSTERDAM, Netherlands",14/09/2017,28,1,Filmmaker,"<img src=""https://s3.amazonaws.com/assets.knackhq.com/assets/5853e6992e7f151d490cd3f6/5992db6a6764342cc6dbdbb4/thumb/rio.jpeg"" />",https://s3.amazonaws.com/assets.knackhq.com/assets/5853e6992e7f151d490cd3f6/5992db6a6764342cc6dbdbb4/original/rio.jpeg,31,31640308400,https://www.facebook.com/anne.vancampenhout.7,Guest & Host,Email,,"We are Lente and Bobbie. We met in Art School and have been living together since 2011. We did a lot of Couchsurfing in the past, both as hosts and as surfers, and we understand the joy of hospitality and meeting mind liked people.","joyful, enthusiastic, easygoing",www.annevancampenhout.com,"film, photos, installations",,,,,,,,,,,,,,,,,,,Lente is a docu filmmaker and Bobbie is a frond-end developer.,,,,,,Yes,08/15/2017 13:32,,,,https://www.humanhotel.com,
05/30/2017 22:42,2205,U,GORDON FEAREY,,GORDON,,FEAREY,GORDON,FEAREY,gordonfearey@gmail.com,asdqweU2205,active,Member,United States of America (USA),IRVINGTON,"IRVINGTON, United States of America (USA)",,67,48,GORDON FEAREY,"<img src=""https://s3.amazonaws.com/assets.knackhq.com/assets/5853e6992e7f151d490cd3f6/592dd7c906c0a74b2da9a8be/thumb/donphoto5copycopy.jpg"" />",https://s3.amazonaws.com/assets.knackhq.com/assets/5853e6992e7f151d490cd3f6/592dd7c906c0a74b2da9a8be/original/donphoto5copycopy.jpg,1,917-242-8882,https://www.instagram.com/gordonfearey/?hl=en,Guest & Host,Word of mouth,Lucy Golub,,,https://www.gordonfearey.com,,,,,,,,,,,,,,,,,,,,,,,,,,Yes,05/30/2017 22:42,,,,https://www.humanhotel.com,
05/30/2018 10:13,2206,V,Branden Fels,,Branden,,Fels,Branden,Fels,benautik@megatronkollektiv.com,asdqweV2206,active,Member,,,", ",,,48,,,,,,,Guest & Host,,,,,,,,,,,,,,,,,,,,,,,,,,,,,,,No,05/30/2018 10:13,,No,"""I'm looking for hosts that are...   ""I'm searching for open calls that are...  ""I'm looking to get connected to someone that...""",https://www.humanhotel.com,No
05/30/2018 10:52,2207,W,Milana  Bjelobaba,,Milana,,Bjelobaba,Milana,Bjelobaba,milana.bjelobaba@gmail.com,asdqweW2207,active,Member,Serbia,Belgrade,"Belgrade , Serbia",26/04/1986,,32,Musician / violinist,"<img src=""https://s3.amazonaws.com/assets.knackhq.com/assets/5853e6992e7f151d490cd3f6/5b0e65e291d75c6622647473/thumb/profilna.jpg"" />",https://s3.amazonaws.com/assets.knackhq.com/assets/5853e6992e7f151d490cd3f6/5b0e65e291d75c6622647473/original/profilna.jpg,381,604264342,https://www.facebook.com/milana.bjelobaba,Guest only,Word of mouth,,"My name is Milana and i am a violinist from Serbia, currently living in Montenegro. I'am an orchestral player and also a member of Vollmond string quartet. Things I like > traveling, see side, vine, books, movies,nice people, big smiles, dogs and walks :)",music movies books,http://www.muzickicentar.com/cso/,violin violin violin,"<img src=""https://s3.amazonaws.com/assets.knackhq.com/assets/5853e6992e7f151d490cd3f6/5b0e6be1e89e9265b3ef267a/thumb/dsc_0021.jpg"" />",https://s3.amazonaws.com/assets.knackhq.com/assets/5853e6992e7f151d490cd3f6/5b0e6be1e89e9265b3ef267a/original/dsc_0021.jpg,,,,,,,,,,,,,,,,,.,https://www.youtube.com/watch?v=xCzvICG3aec,,https://www.youtube.com/watch?v=hw3AJm6wx_Y,,,Yes,05/30/2018 11:19,,No,"""I'm looking for hosts that are...   ""I'm searching for open calls that are...  ""I'm looking to get connected to someone that...""",https://www.humanhotel.com,No
05/30/2018 14:44,2208,X,Pernille Rasmussen,,Pernille,,Rasmussen,Pernille,Rasmussen,pgr_dk@hotmail.com,asdqweX2208,active,Member,,,", ",,,48,,,,,,,Guest & Host,,,,,,,,,,,,,,,,,,,,,,,,,,,,,,,No,05/30/2018 14:44,,No,"""I'm looking for hosts that are...   ""I'm searching for open calls that are...  ""I'm looking to get connected to someone that...""",https://www.humanhotel.com,No
05/30/2018 16:59,2209,Y,Francoise vercruyssen,,Francoise,,vercruyssen,Francoise,vercruyssen,vercruyssen@gmx.net,asdqweY2209,active,Member,Germany,berlin,"berlin, Germany",20/02/1946,,72,retired actress and dubbing,"<img src=""https://s3.amazonaws.com/assets.knackhq.com/assets/5853e6992e7f151d490cd3f6/5b0ebc0bdca17d2a5e65eddb/thumb/img_2415.jpg"" />",https://s3.amazonaws.com/assets.knackhq.com/assets/5853e6992e7f151d490cd3f6/5b0ebc0bdca17d2a5e65eddb/original/img_2415.jpg,49,1784355092,facebook,Host only,Word of mouth,Marie Jacobi,"I used to be an actress...I am now ""retired"" and still working as a voice for dubbing etc<br />I like travelling, but I do not need anymore to travel far away! I am happy visiting my brother in NY each two years otherwise it is great to go to Crete one time a year for some weeks just looking at the sea.. I like too to listen to your people and sometimes I learn a lot from them!","hiking, cinema, books, travels",speaker search agency berlin,actress,,,,,,,,,,,,,,,,,,,"""Retired"" actress still working as  french voice for some productions, ans still acting if somebody needs me!<br />i used to work with some good filmmakers and theatre directors..",,,,,,Yes,05/31/2018 16:54,,No,"""I'm looking for hosts that are...   ""I'm searching for open calls that are...  ""I'm looking to get connected to someone that...""",https://www.humanhotel.com,No
05/30/2018 19:07,2210,Z,Marie Cummings,,Marie,,Cummings,Marie,Cummings,marieh2oart@yahoo.com,asdqweZ2210,active,Member,,,", ",,,48,,,,,,,Guest & Host,,,,,,,,,,,,,,,,,,,,,,,,,,,,,,,No,05/30/2018 19:07,,No,"""I'm looking for hosts that are...   ""I'm searching for open calls that are...  ""I'm looking to get connected to someone that...""",https://www.humanhotel.com,No
05/31/2017 0:12,2211,A,Richelle Gribble,,Richelle,,Gribble,Richelle,Gribble,richellegribble@gmail.com,asdqweA2211,active,Member,United States of America (USA),Idyllwild,"Idyllwild, United States of America (USA)",,26,48,Richelle Gribble,"<img src=""https://s3.amazonaws.com/assets.knackhq.com/assets/5853e6992e7f151d490cd3f6/592dee0f7a13df4b8ba6f849/thumb/dscf8879.jpg"" />",https://s3.amazonaws.com/assets.knackhq.com/assets/5853e6992e7f151d490cd3f6/592dee0f7a13df4b8ba6f849/original/dscf8879.jpg,1,9517868685,@richellegribble,Guest & Host,Wooloo.org Newsletter,,,,www.richellegribble.com,,,,,,,,,,,,,,,,,,,,,,,,,,Yes,05/31/2017 0:12,,,,https://www.humanhotel.com,
05/31/2017 2:53,2212,B,Barton Lewis,,Barton,,Lewis,Barton,Lewis,bartonlewis@optonline.net,asdqweB2212,active,Member,United States of America (USA),Brooklyn,"Brooklyn, United States of America (USA)",,44,48,filmmaker,"<img src=""https://s3.amazonaws.com/assets.knackhq.com/assets/5853e6992e7f151d490cd3f6/592e12e993695a4b6830eeae/thumb/index_barton.jpg"" />",https://s3.amazonaws.com/assets.knackhq.com/assets/5853e6992e7f151d490cd3f6/592e12e993695a4b6830eeae/original/index_barton.jpg,1,3473254415,https://findmyfbid.com/success/1410465690,Host only,Email,,"I live and work in Brooklyn, New York, in a brownstone I bought with my mother and sister in 2003.  I work as an assistant for a federal judge, while making films and working towards making my art self-sustaining.  I've had showings of my work in Paris, New York, Portland, Oregon, and Szczecin, Poland.  I also like restoring my 1870's home, spending time with my niece and nephew, learning web design and traveling.","curious, kind, searching",www.bartonlewisfilm.com,"sensory, experiential, urban","<img src=""https://s3.amazonaws.com/assets.knackhq.com/assets/5853e6992e7f151d490cd3f6/592f7a009edb9152ec5ad654/thumb/wall_cuts_train_stations_new_york_city_1.66_1.0_20170210.00_03_46_13.still002.jpg"" />",https://s3.amazonaws.com/assets.knackhq.com/assets/5853e6992e7f151d490cd3f6/592f7a009edb9152ec5ad654/original/wall_cuts_train_stations_new_york_city_1.66_1.0_20170210.00_03_46_13.still002.jpg,"film still from ""wall cuts, train stations, New York City""","<img src=""https://s3.amazonaws.com/assets.knackhq.com/assets/5853e6992e7f151d490cd3f6/592f7a27b0fbb45387d6afd8/thumb/wall_cuts_train_stations_new_york_city_1.66_1.0_20170210.00_07_40_21.still005.jpg"" />",https://s3.amazonaws.com/assets.knackhq.com/assets/5853e6992e7f151d490cd3f6/592f7a27b0fbb45387d6afd8/original/wall_cuts_train_stations_new_york_city_1.66_1.0_20170210.00_07_40_21.still005.jpg,"film still from ""wall cuts, train stations, New York City""","<img src=""https://s3.amazonaws.com/assets.knackhq.com/assets/5853e6992e7f151d490cd3f6/592f7a381f2a4f54ee19f376/thumb/wall_cuts_train_stations_new_york_city_1.66_1.0_20170210.00_08_32_08.still004.jpg"" />",https://s3.amazonaws.com/assets.knackhq.com/assets/5853e6992e7f151d490cd3f6/592f7a381f2a4f54ee19f376/original/wall_cuts_train_stations_new_york_city_1.66_1.0_20170210.00_08_32_08.still004.jpg,"film still from ""wall cuts, train stations, New York City""","<img src=""https://s3.amazonaws.com/assets.knackhq.com/assets/5853e6992e7f151d490cd3f6/592f7a50e66c2b544dafba8d/thumb/wall_cuts_train_stations_new_york_city_1.66_1.0_20170210.00_07_40_21.still005.jpg"" />",https://s3.amazonaws.com/assets.knackhq.com/assets/5853e6992e7f151d490cd3f6/592f7a50e66c2b544dafba8d/original/wall_cuts_train_stations_new_york_city_1.66_1.0_20170210.00_07_40_21.still005.jpg,"film still from ""wall cuts, train stations, New York City""","<img src=""https://s3.amazonaws.com/assets.knackhq.com/assets/5853e6992e7f151d490cd3f6/592f7a6db3bedb524d7573a7/thumb/lightrail5.jpg"" />",https://s3.amazonaws.com/assets.knackhq.com/assets/5853e6992e7f151d490cd3f6/592f7a6db3bedb524d7573a7/original/lightrail5.jpg,"film still from ""light, rail""","<img src=""https://s3.amazonaws.com/assets.knackhq.com/assets/5853e6992e7f151d490cd3f6/59347c165a42dc4f50ed8f35/thumb/erp3.jpg"" />",https://s3.amazonaws.com/assets.knackhq.com/assets/5853e6992e7f151d490cd3f6/59347c165a42dc4f50ed8f35/original/erp3.jpg,"film still from ""East River Pavilion, Upper East Side, New York City""","I make films about natural light and its interaction with various materials, and about the urban landscape in states of opulent decay. ",http://bartonlewisfilm.com/artwork/1547181_East_River_Pavilion_Upper_East_Side_New.html,"""East River Pavilion, Upper East Side, New York City"" is a study of a rusting steel truss in a Manhattan urban park.",http://bartonlewisfilm.com/artwork/1540703_fire_doors_Pacific_Street_Atlantic_Yards.html,"excerpt from ""fire doors, Pacific Street, Atlantic Yards"" ",,Yes,06/11/2017 0:47,,,,https://www.humanhotel.com,
05/31/2017 8:09,2213,C,Sonja Wyss,,Sonja,,Wyss,Sonja,Wyss,swyss@xs4all.nl,asdqweC2213,active,Member,Netherlands,Amsterdam,"Amsterdam, Netherlands",,49,48,Filmdirector,"<img src=""https://s3.amazonaws.com/assets.knackhq.com/assets/5853e6992e7f151d490cd3f6/592e5db416866b4cba71d8f9/thumb/sonja2017.jpeg"" />",https://s3.amazonaws.com/assets.knackhq.com/assets/5853e6992e7f151d490cd3f6/592e5db416866b4cba71d8f9/original/sonja2017.jpeg,31,31614366909,https://www.facebook.com/sonja.wyss.31,Guest & Host,Email,,,,sonjawyss.com,,,,,,,,,,,,,,,,,,,,,,,,,,Yes,05/31/2017 8:09,,,,https://www.humanhotel.com,
05/31/2017 8:23,2214,D,Nathalie Lambert,,Nathalie,,Lambert,Nathalie,Lambert,thalie1234@gmail.com,asdqweD2214,active,Member,Denmark,Copenhagen,"Copenhagen, Denmark",,52,48,Meeting designer,"<img src=""https://s3.amazonaws.com/assets.knackhq.com/assets/5853e6992e7f151d490cd3f6/592e611ec5c611497b2a3673/thumb/img_4160.jpg"" />",https://s3.amazonaws.com/assets.knackhq.com/assets/5853e6992e7f151d490cd3f6/592e611ec5c611497b2a3673/original/img_4160.jpg,45,27837412,https://www.facebook.com/nathalie.lambert.798,Guest & Host,Social Media,,"I am from Montreal, Canada, but soon will I have lived half of my life in Copenhagen.  I work as a meeting designer and love to talk about my adoptive country: I actually chose to live her!  My daughter Caroline is 13 years old and pretty shy, while our 2 cats, Luna and Lucky, are definitely NOT.","#catlover, #biker #substainable ",http://bdp.dk/,#letsbecreative #danish #havingfundoingmyjob,"<img src=""https://s3.amazonaws.com/assets.knackhq.com/assets/5853e6992e7f151d490cd3f6/5933c10c75050447c7b663e0/thumb/xyxx9061.png"" />",https://s3.amazonaws.com/assets.knackhq.com/assets/5853e6992e7f151d490cd3f6/5933c10c75050447c7b663e0/original/xyxx9061.png,,"<img src=""https://s3.amazonaws.com/assets.knackhq.com/assets/5853e6992e7f151d490cd3f6/5933c154c888a049887b10ee/thumb/img_5473.jpg"" />",https://s3.amazonaws.com/assets.knackhq.com/assets/5853e6992e7f151d490cd3f6/5933c154c888a049887b10ee/original/img_5473.jpg,,"<img src=""https://s3.amazonaws.com/assets.knackhq.com/assets/5853e6992e7f151d490cd3f6/5933c17df36f2e49ff1ba67e/thumb/tqdu5258.png"" />",https://s3.amazonaws.com/assets.knackhq.com/assets/5853e6992e7f151d490cd3f6/5933c17df36f2e49ff1ba67e/original/tqdu5258.png,,"<img src=""https://s3.amazonaws.com/assets.knackhq.com/assets/5853e6992e7f151d490cd3f6/5933c1a7c888a049887b113b/thumb/img_6339.jpg"" />",https://s3.amazonaws.com/assets.knackhq.com/assets/5853e6992e7f151d490cd3f6/5933c1a7c888a049887b113b/original/img_6339.jpg,,,,,,,,Whats a meeting designer?  It someone that helps entreprise making events that represent there values...fun job!,,,,,,Yes,06/04/2017 10:17,,,,https://www.humanhotel.com,
05/31/2017 11:37,2215,E,Sonja van Kerkhoff,,Sonja,,van Kerkhoff,Sonja,van Kerkhoff,sonjavank@hotmail.com,asdqweE2215,active,Member,Netherlands,The Hague,"The Hague, Netherlands",,56,48,Sonja van Kerkhoff,"<img src=""https://s3.amazonaws.com/assets.knackhq.com/assets/5853e6992e7f151d490cd3f6/592e93486415a24aafdb02ca/thumb/0924_1201svk_by_annew.jpg"" />",https://s3.amazonaws.com/assets.knackhq.com/assets/5853e6992e7f151d490cd3f6/592e93486415a24aafdb02ca/original/0924_1201svk_by_annew.jpg,31,+31 6 13478175,https://www.facebook.com/sonja.vankerkhoff,Host only,Email,you sent me an email. so i guess you found me somewhere online.,Am a visual artist of Dutch/Celtic/New Zealand heritage who also curates shows. More is here: www.sonjavank.com,#visual artist #native english speaker #social,www.sonjavank.com,#conceptual #new media #installation,,,,,,,,,,,,,,,,,,,I work in diverse media from video to performance to interactive to sculpture or installation. The ideas or sensibility are what determine the media I choose.,,,,,,Yes,05/31/2017 12:00,,,,https://www.humanhotel.com,
05/31/2017 14:48,2216,F,Farah Bien-Aimé,,Farah,,Bien-Aimé,Farah,Bien-Aimé,fbienaime@nyc.rr.com,asdqweF2216,active,Member,United States of America (USA),New York,"New York, United States of America (USA)",,55,48,footwear designer,"<img src=""https://s3.amazonaws.com/assets.knackhq.com/assets/5853e6992e7f151d490cd3f6/592ebb815ae00c4bfe80648b/thumb/fba.jpeg"" />",https://s3.amazonaws.com/assets.knackhq.com/assets/5853e6992e7f151d490cd3f6/592ebb815ae00c4bfe80648b/original/fba.jpeg,1,646-338-7647,facebook Farah Michele Bien-Aime,Host only,Word of mouth,Timothy Collins,,,Linkedin Farah Bien-Aime,,,,,,,,,,,,,,,,,,,,,,,,,,Yes,05/31/2017 14:48,,,,https://www.humanhotel.com,
05/31/2017 15:07,2217,G,Audrey Wang,,Audrey,,Wang,Audrey,Wang,audreywang617@gmail.com,asdqweG2217,active,Member,Netherlands,Maastricht,"Maastricht, Netherlands",,28,48,shopkeeper/ photographer,"<img src=""https://s3.amazonaws.com/assets.knackhq.com/assets/5853e6992e7f151d490cd3f6/592ebffa93c7c7497f283f09/thumb/screenshot20170531at15.06.41.png"" />",https://s3.amazonaws.com/assets.knackhq.com/assets/5853e6992e7f151d490cd3f6/592ebffa93c7c7497f283f09/original/screenshot20170531at15.06.41.png,31,31619940750,https://www.facebook.com/auwang,Host only,Email,,,,www.haewinkel.com,,,,,,,,,,,,,,,,,,,,,,,,,,Yes,05/31/2017 15:07,,,,https://www.humanhotel.com,
05/31/2017 15:11,2218,H,LESLEY  YOON,,LESLEY,,YOON,LESLEY,YOON,lesley.darae@gmail.com,asdqweH2218,active,Member,Netherlands,Maastricht,"Maastricht, Netherlands",,23,48,Student,"<img src=""https://s3.amazonaws.com/assets.knackhq.com/assets/5853e6992e7f151d490cd3f6/592ec00ec599424974c5d404/thumb/img_0973.png"" />",https://s3.amazonaws.com/assets.knackhq.com/assets/5853e6992e7f151d490cd3f6/592ec00ec599424974c5d404/original/img_0973.png,31,310627229423,@lesleydaraex (instagram,Guest & Host,Email,,,,https://www.instagram.com/lesleydaraex/,,,,,,,,,,,,,,,,,,,,,,,,,,Yes,05/31/2017 15:11,,,,https://www.humanhotel.com,
05/31/2017 15:45,2219,I,Haider  Raja,,Haider,,Raja,Haider,Raja,haideraides@gmail.com,asdqweI2219,active,Member,Germany,Berlin,"Berlin , Germany",,31,48,Fashion,"<img src=""https://s3.amazonaws.com/assets.knackhq.com/assets/5853e6992e7f151d490cd3f6/592ec8cecdef244d0af61a45/thumb/img_0236.jpg"" />",https://s3.amazonaws.com/assets.knackhq.com/assets/5853e6992e7f151d490cd3f6/592ec8cecdef244d0af61a45/original/img_0236.jpg,49,4917676109375,@haideraides,Guest & Host,Word of mouth,Tobias,,,www.hotoveli.com,,,,,,,,,,,,,,,,,,,,,,,,,,Yes,05/31/2017 15:45,,,,https://www.humanhotel.com,
05/31/2018 10:35,2220,J,Minna Ritoluoma,,Minna,,Ritoluoma,Minna,Ritoluoma,minna.ritoluoma@gmail.com,asdqweJ2220,active,Member,Finland,HELSINKI,"HELSINKI, Finland",09/08/2018,,0,Writer. Designer.,"<img src=""https://s3.amazonaws.com/assets.knackhq.com/assets/5853e6992e7f151d490cd3f6/5b0fb3108357b60f692ca2c0/thumb/mina.jpeg"" />",https://s3.amazonaws.com/assets.knackhq.com/assets/5853e6992e7f151d490cd3f6/5b0fb3108357b60f692ca2c0/original/mina.jpeg,,,https://www.facebook.com/pumputihumputi,Guest & Host,Through an event,Arto Sivonen,,,https://www.linkedin.com/in/minnaritoluoma/,,,,,,,,,,,,,,,,,,,,,,,,,,Yes,05/31/2018 10:35,,Yes,"""I'm looking for hosts that are...   ""I'm searching for open calls that are...  ""I'm looking to get connected to someone that...""",https://www.humanhotel.com,No
05/31/2018 17:02,2221,K,Igor Chekachkov,,Igor,,Chekachkov,Igor,Chekachkov,igor@mediaport.info,asdqweK2221,active,Member,Ukraine,Kharkiv,"Kharkiv, Ukraine",03/03/1989,,29,Photographer,"<img src=""https://s3.amazonaws.com/assets.knackhq.com/assets/5853e6992e7f151d490cd3f6/5b138a9af910b223a251893f/thumb/995058_1174308815928759_4455505196215568707_n.jpg"" />",https://s3.amazonaws.com/assets.knackhq.com/assets/5853e6992e7f151d490cd3f6/5b138a9af910b223a251893f/original/995058_1174308815928759_4455505196215568707_n.jpg,380,664648939,https://www.facebook.com/igor.chekachkov,Guest only,,,"I live in Ukraine, exploring photography and zen philosophy. ","photography, zen, art",chekachkov.com,"photography, art, street","<img src=""https://s3.amazonaws.com/assets.knackhq.com/assets/5853e6992e7f151d490cd3f6/5b222f7652528931c9ec62a2/thumb/daily_lives_01.jpg"" />",https://s3.amazonaws.com/assets.knackhq.com/assets/5853e6992e7f151d490cd3f6/5b222f7652528931c9ec62a2/original/daily_lives_01.jpg,,"<img src=""https://s3.amazonaws.com/assets.knackhq.com/assets/5853e6992e7f151d490cd3f6/5b222f7cd6f6c83bce89a3e0/thumb/daily_lives_03.jpg"" />",https://s3.amazonaws.com/assets.knackhq.com/assets/5853e6992e7f151d490cd3f6/5b222f7cd6f6c83bce89a3e0/original/daily_lives_03.jpg,,"<img src=""https://s3.amazonaws.com/assets.knackhq.com/assets/5853e6992e7f151d490cd3f6/5b222fa25f2a18182c531e23/thumb/daily_lives_19.jpg"" />",https://s3.amazonaws.com/assets.knackhq.com/assets/5853e6992e7f151d490cd3f6/5b222fa25f2a18182c531e23/original/daily_lives_19.jpg,,"<img src=""https://s3.amazonaws.com/assets.knackhq.com/assets/5853e6992e7f151d490cd3f6/5b222fae588bd731d0221a9e/thumb/daily_lives_21.jpg"" />",https://s3.amazonaws.com/assets.knackhq.com/assets/5853e6992e7f151d490cd3f6/5b222fae588bd731d0221a9e/original/daily_lives_21.jpg,,,,,,,,"I am an art photographer, currently focusing on the body as a target for a political subjection, exploring the boundaries between public and intimate spaces.  Where does private space end and the common begin? is there a marked edge between these two elements? and finally, how to expand the usual field of photography? <br />Street photography is also my field of interest and something I always do while traveling. ",,,,,,No,06/14/2018 11:05,,No,"""I'm looking for hosts that are...   ""I'm searching for open calls that are...  ""I'm looking to get connected to someone that...""",https://www.humanhotel.com,No
05/31/2018 18:01,2222,L,Yannis Kokkinos,,Yannis,,Kokkinos,Yannis,Kokkinos,kokkinosy@gmail.com,asdqweL2222,active,Member,Greece,Thessaloniki,"Thessaloniki, Greece",26/09/1974,,44,Project Manager,"<img src=""https://s3.amazonaws.com/assets.knackhq.com/assets/5853e6992e7f151d490cd3f6/5b101be4cdccaf2a650443c6/thumb/me.jpg"" />",https://s3.amazonaws.com/assets.knackhq.com/assets/5853e6992e7f151d490cd3f6/5b101be4cdccaf2a650443c6/original/me.jpg,30,6944207280,https://www.facebook.com/ykokkinos,Host only,Social Media,,I am a divorced father of 3 children that don't live with me. I am a project manager at a swimming pools construction company. I also own a house by the sea at Halkidiki where I usually go for swimming with my boat. I love to travel and also I am a painter. I'll be glad to host you and show you around our city.,"painting, travel, fishing",www.oxygon.gr,Swimming pool constructions,,,,,,,,,,,,,,,,,,,I am a project manager at a swimming pools construction company,,,,,,Yes,05/31/2018 18:16,,Yes,"""I'm looking for hosts that are...   ""I'm searching for open calls that are...  ""I'm looking to get connected to someone that...""",https://www.humanhotel.com,No
05/31/2018 20:24,2223,M,Luca Bosani,,Luca,,Bosani,Luca,Bosani,luca.bosani.com@gmail.com,asdqweM2223,active,Member,United Kingdom (UK),London,"London, United Kingdom (UK)",20/08/1990,,28,Artist,"<img src=""https://s3.amazonaws.com/assets.knackhq.com/assets/5853e6992e7f151d490cd3f6/5b103c77edf6b3695092dc54/thumb/21271317_640x640.jpg"" />",https://s3.amazonaws.com/assets.knackhq.com/assets/5853e6992e7f151d490cd3f6/5b103c77edf6b3695092dc54/original/21271317_640x640.jpg,,,@luca_bosani,Guest only,Email,Valeria Kadelski,,,http://www.luca-bosani.com/,,,,,,,,,,,,,,,,,,,,,,,,,,Yes,05/31/2018 20:24,,Yes,"""I'm looking for hosts that are...   ""I'm searching for open calls that are...  ""I'm looking to get connected to someone that...""",https://www.humanhotel.com,No
06/01/2017 10:33,2224,N,Laurence O'Toole,,Laurence,,O'Toole,Laurence,O'Toole,lartoole@gmail.com,asdqweN2224,active,Member,United Kingdom (UK),"Kilkenny, Ireland","Kilkenny, Ireland, United Kingdom (UK)",20/10/2017,49,1,Artist,"<img src=""https://s3.amazonaws.com/assets.knackhq.com/assets/5853e6992e7f151d490cd3f6/592fd0e18fb87d54cf1c88f0/thumb/img_4621.jpg"" />",https://s3.amazonaws.com/assets.knackhq.com/assets/5853e6992e7f151d490cd3f6/592fd0e18fb87d54cf1c88f0/original/img_4621.jpg,353,599720587,Laurence O Toole artist Facebook,Guest & Host,Word of mouth,,"I am a professional artist, living and working in Ireland. My practice is based in oil on canvas   and deals with human nature, why we do what we do and why we are who we are. It is realism with a surrealist vein, or magical realism.<br />",#wine #no-nonsense #painting,Www.laurenceotoole.com,#oil on canvas #fine art #taking time,"<img src=""https://s3.amazonaws.com/assets.knackhq.com/assets/5853e6992e7f151d490cd3f6/59d4c3873806fa37ccc37a9e/thumb/humanityanditsreoccurringdream.jpg"" />",https://s3.amazonaws.com/assets.knackhq.com/assets/5853e6992e7f151d490cd3f6/59d4c3873806fa37ccc37a9e/original/humanityanditsreoccurringdream.jpg,"“Humanity and its reoccurring  dream”      Oil on canvas   140cm x 140cm  This is probably the last piece I will finish here in Japan. I had been thinking a lot and talking about the world and all that is happening, South Korea is a ferry ride away form where `i am in southern Japan and there are some rather large issues going on in the world right now. But when I first got here I had taken a ferry to a tiny Island called Himejima, hiked to the top and saw he shine. While waiting for the ferry to return I beach combed some of the rocks and found these shells, mostly broken, abandoned,hiding under rocks and then I found this beautiful, large, intact piece. It seemed to me that this would be the ideal that all shells would aspire to , it feels like humanity aspires to it …..but we are all a little broken, and so we just dream of being more than we are.","<img src=""https://s3.amazonaws.com/assets.knackhq.com/assets/5853e6992e7f151d490cd3f6/59d4c3f18904d534464951e8/thumb/dscf4074.jpg"" />",https://s3.amazonaws.com/assets.knackhq.com/assets/5853e6992e7f151d490cd3f6/59d4c3f18904d534464951e8/original/dscf4074.jpg,"Modernism and The Principle of Pattern Oil on canvas 90cm x 90cm  An old wall of tiles in Seville, i am constantly drawn in any time I see them, the pattern, the rhythm, the colour and their timelessness.  I feel there is a connection with my own life, my art, my rhythm,  my heartbeat….da-dum….da-dum….da-dum…. the eyes moving on to the next similar pattern, following the beat. Then there are the tiny inconsistencies, consistent within us.  As a model, Jade brings an illusion of apathy to this scene, her body language and self possessed stare. Unaffected by the great wall of patterned art and changing light, she instead, seems to own it, suggesting her presence is more important.  Catherine is Jade’s cat and she is unaffected by both attitude and art ……….and this is how it seems to be with the world.","<img src=""https://s3.amazonaws.com/assets.knackhq.com/assets/5853e6992e7f151d490cd3f6/59d4c46f223c55391b44a0f0/thumb/img_08931.jpg"" />",https://s3.amazonaws.com/assets.knackhq.com/assets/5853e6992e7f151d490cd3f6/59d4c46f223c55391b44a0f0/original/img_08931.jpg,"""Youth"". Oil on canvas.  60cm x 60cm This is Jade, I felt she had the right look for this piece about time and youth. How time has no real relevance when you are young, how there is always tomorrow, always next time. I have now, surrounded my self with clocks, in the studio and at my home, they are a reminder to me, not to be wasting time.","<img src=""https://s3.amazonaws.com/assets.knackhq.com/assets/5853e6992e7f151d490cd3f6/59d4c585fcd6391e55a0c9f2/thumb/everythingisneverasitseems.jpg"" />",https://s3.amazonaws.com/assets.knackhq.com/assets/5853e6992e7f151d490cd3f6/59d4c585fcd6391e55a0c9f2/original/everythingisneverasitseems.jpg,"“Everything is never as it seems”  (Angela and the cherry blossoms)  Oil on canvas     90cm x 50cm  I was doing a residency in Southern Japan when the Cherry Blossoms bloomed, it was quite the spectacle to see them everywhere. The Japanese take it as a holiday and a celebration, picnic under the trees and socialise in the parks and woods.  Normally they are blooming in March but it was late April before I had witnessed any   Angela is an artist from China who was at the residency and for her end of Res show she wore a Kimono and I was intrigued by it and her desire to wear our host countries  costume to it. She struck quite a pose.  I cycled everywhere in Japan, it was my chosen mode of transport and the only way to try and see things as they really are. I past this wall by the residency, nearly everyday and in the rural beauty of the setting, this was the truth, the rust, the industrial stamp and the tin sheets that slowly bled down the wall  Japan is full of contradictions, as is this piece……… and I find my self believing more and more……..that everything is never as it seems","<img src=""https://s3.amazonaws.com/assets.knackhq.com/assets/5853e6992e7f151d490cd3f6/59d4c5f84f58a6341259fa4c/thumb/flowersfortheunresolved.jpeg"" />",https://s3.amazonaws.com/assets.knackhq.com/assets/5853e6992e7f151d490cd3f6/59d4c5f84f58a6341259fa4c/original/flowersfortheunresolved.jpeg,"“ Flowers for the unresolved ” Oil on canvas     100cm x 100cm  I started this piece in France, this year, while trying to escape the winter sadness that seems to take a little more of me every year. It was of a distemper painted wall, that i had marvelled at one time in Spain, it was sumptuous and rich and a feast for the eyes. The model here is Jade, with her blue jacket and casual disinterest, she brought to this piece all it needed. But studying it for few months i found there was some thing missing, something unresolved. Last month I found myself in the Bluebell woods in Jenkinstown, Kilkenny. I gathered up some for the house and it was that evening I saw that this piece needed ……..                 Flowers to be resolved.","<img src=""https://s3.amazonaws.com/assets.knackhq.com/assets/5853e6992e7f151d490cd3f6/59d4c6402d47e839e3256361/thumb/1mbanotetomyself.jpeg"" />",https://s3.amazonaws.com/assets.knackhq.com/assets/5853e6992e7f151d490cd3f6/59d4c6402d47e839e3256361/original/1mbanotetomyself.jpeg,"“ Note to self ” Oil on canvas    90cm x 120cm  This painting is a confirmation of where I am with my work and how I got here. It has been borne out of the last few years restructuring my self which was borne out of following what I want from my work. Not what I ‘can’ do, or what I am accomplished at and can repeat and tweak and repeat again but what I want to say. The narrative here is myself, tethered to what’s important in my life, the way forward, no matter how delicate the thread, the choice is made. The snares of outside influence, rejection and control will always be blowing in the wind, dangling closer than we want to admit….. but for now, I have tied my self to the handle of my creative well. For this is what I need, maybe its all I need",I work to my own drum and paint what I feel is important.Large format canvas would be my comfort zone and everything that the natural world can show me.,,,,,,Yes,10/04/2017 13:31,,,,https://www.humanhotel.com,
06/01/2017 10:55,2225,O,Eva Van de Water,,Eva,,Van de Water,Eva,Van de Water,evavandewater24@hotmail.com,asdqweO2225,active,Member,Netherlands,Amsterdam,"Amsterdam , Netherlands",,36,48,jobsearching,"<img src=""https://s3.amazonaws.com/assets.knackhq.com/assets/5853e6992e7f151d490cd3f6/592fd3d16bf4f5532030cb85/thumb/img_7022.jpg"" />",https://s3.amazonaws.com/assets.knackhq.com/assets/5853e6992e7f151d490cd3f6/592fd3d16bf4f5532030cb85/original/img_7022.jpg,31,31643435065,https://www.facebook.com/EvavdWater,Guest & Host,Word of mouth,,,,https://www.etsy.com/nl/people/evavandewater?ref=hdr_user_menu,,,,,,,,,,,,,,,,,,,,,,,,,,Yes,06/01/2017 10:55,,,,https://www.humanhotel.com,
06/01/2017 12:02,2226,P,Diane Bouquet,,Diane,,Bouquet,Diane,Bouquet,dianelebouquet@gmail.com,asdqweP2226,active,Member,,Marseille,"Marseille, ",,23,48,etudiante,"<img src=""https://s3.amazonaws.com/assets.knackhq.com/assets/5853e6992e7f151d490cd3f6/592fe5812cdc7d47b97dd89f/thumb/229644_2279746111537_6088858_n.jpg"" />",https://s3.amazonaws.com/assets.knackhq.com/assets/5853e6992e7f151d490cd3f6/592fe5812cdc7d47b97dd89f/original/229644_2279746111537_6088858_n.jpg,,,@dianoulabessahah,Guest only,Partner event,,,,Linkedln,,,,,,,,,,,,,,,,,,,,,,,,,,Yes,06/01/2017 12:02,,,,https://www.humanhotel.com,
06/01/2017 12:23,2227,Q,Tuomas A. Laitinen,,Tuomas A.,,Laitinen,Tuomas A.,Laitinen,tuomasaleksander@gmail.com,asdqweQ2227,active,Member,Finland,Helsinki,"Helsinki, Finland",,40,48,Artist,"<img src=""https://s3.amazonaws.com/assets.knackhq.com/assets/5853e6992e7f151d490cd3f6/592fea99dc01a5491912738a/thumb/1339603313.jpg"" />",https://s3.amazonaws.com/assets.knackhq.com/assets/5853e6992e7f151d490cd3f6/592fea99dc01a5491912738a/original/1339603313.jpg,358,358440772347,https://www.instagram.com/tuomasalaitinen/,Guest only,Word of mouth,Martin Venice,,,www.tuomasalaitinen.com,,,,,,,,,,,,,,,,,,,,,,,,,,Yes,06/01/2017 12:23,,,,https://www.humanhotel.com,
06/01/2017 20:57,2228,R,Jamillah Hinson,,Jamillah,,Hinson,Jamillah,Hinson,jhinson09@gmail.com,asdqweR2228,active,Member,United States of America (USA),Chicago,"Chicago, United States of America (USA)",,25,48,Art Administrator/ Curator,"<img src=""https://s3.amazonaws.com/assets.knackhq.com/assets/5853e6992e7f151d490cd3f6/5930634a4f7206492670985d/thumb/20170601_135133.jpg"" />",https://s3.amazonaws.com/assets.knackhq.com/assets/5853e6992e7f151d490cd3f6/5930634a4f7206492670985d/original/20170601_135133.jpg,1,402-415-6963,@j.amillah,Guest & Host,Word of mouth,,"I am by profession an arts administrator, but by passion and artist and curator. I spend my days in a small museum in West Town. I love to travel, and with opportunities that have come my way will be doing much more of that this coming summer and fall.","#creative, #passionate, #laidback",art.org,"#beautybreaks, #intuitive, #outsider",,,,,,,,,,,,,,,,,,,"I work at Intuit, a small museum here in Chicago that caters to 'outsider' or 'self taught' artists. Outside of my day job, I work with a small collective here in Chicago that creates workshop based programming for Black femme identified folks!",,,,,"Currently, she works at Intuit, a small museum in Chicago that caters to ""outsider"" or self-taught"" artists. On top of that, Jamillah works with a small collective here in Chicago that creates workshop based programming for Black femme identified folks.",Yes,06/02/2017 19:28,,,,https://www.humanhotel.com,
06/01/2017 23:58,2229,S,sonia khurana,,sonia,,khurana,sonia,khurana,sonia_khurana@yahoo.com,asdqweS2229,active,Member,India,new delhi,"new delhi, India",,48,48,visual artist,"<img src=""https://s3.amazonaws.com/assets.knackhq.com/assets/5853e6992e7f151d490cd3f6/59308b7ae57eed53e1204c6b/thumb/soniaobscuredportrait1.jpg"" />",https://s3.amazonaws.com/assets.knackhq.com/assets/5853e6992e7f151d490cd3f6/59308b7ae57eed53e1204c6b/original/soniaobscuredportrait1.jpg,91,917292052590,https://www.academia.edu/15160123/oneiric_house,Guest only,Word of mouth,,,,en.wikipedia.org/wiki/Sonia_Khurana,,,,,,,,,,,,,,,,,,,,,,,,,,Yes,06/01/2017 23:58,,,,https://www.humanhotel.com,
06/01/2018 8:04,2230,T,Fedaa Sultan,,Fedaa,,Sultan,Fedaa,Sultan,fedaaonline@gmail.com,asdqweT2230,active,Member,Denmark,Copenhagen,"Copenhagen, Denmark",10/06/2018,,0,Artist & Curator,"<img src=""https://s3.amazonaws.com/assets.knackhq.com/assets/5853e6992e7f151d490cd3f6/5b10e1f22442f4267038899f/thumb/11878_10152790365880508_802881657_n.jpg"" />",https://s3.amazonaws.com/assets.knackhq.com/assets/5853e6992e7f151d490cd3f6/5b10e1f22442f4267038899f/original/11878_10152790365880508_802881657_n.jpg,,,https://www.facebook.com/fedaaonline,Guest & Host,Word of mouth,,,,http://www.underbanen.dk/,,,,,,,,,,,,,,,,,,,,,,,,,,Yes,06/01/2018 8:04,,No,"""I'm looking for hosts that are...   ""I'm searching for open calls that are...  ""I'm looking to get connected to someone that...""",https://www.humanhotel.com,No
06/01/2018 17:06,2231,U,Elizabeth Davis,,Elizabeth,,Davis,Elizabeth,Davis,edavis123.ed@gmail.com,asdqweU2231,active,Member,United States of America (USA),Bethesda,"Bethesda, United States of America (USA)",29/01/1994,,24,Marketing and Operations Intern,"<img src=""https://s3.amazonaws.com/assets.knackhq.com/assets/5853e6992e7f151d490cd3f6/5b1156b47d718a72f4479c46/thumb/linkedin.jpg"" />",https://s3.amazonaws.com/assets.knackhq.com/assets/5853e6992e7f151d490cd3f6/5b1156b47d718a72f4479c46/original/linkedin.jpg,1,3013188192,https://www.facebook.com/ellie.davis.908,Guest only,Word of mouth,Winston Chmielinski,"Originally from Washington D.C., I have spent the past few years studying in Scotland and working around the world in places like Mexico, Haiti, and France. I love meeting new people and learning and discussing the ins and outs of our dynamic world. Moving to Berlin. I speak English, French, Spanish, and learning German!","Politics, Food, Music",https://www.linkedin.com/in/elizabeth-davis-a0ba43126/,"Social Media, Food Security, Humanitarianism",,,,,,,,,,,,,,,,,,,"ShareTheMeal is an initiative of the United Nations World Food Programme (WFP), and the world's first app fighting against global hunger. As Marketing and Operations Intern for ShareTheMeal, I assist with further developing market strategies, responding to user community, helping to identify trends, and creating original designs and content for our social media channels.",,,,,,Yes,06/01/2018 19:25,,Yes,"""I'm looking for hosts that are...   ""I'm searching for open calls that are...  ""I'm looking to get connected to someone that...""",https://www.humanhotel.com,No
06/01/2018 18:29,2232,V,nick fracaro,,nick,,fracaro,nick,fracaro,nick@intlculturelab.org,asdqweV2232,active,Member,United States of America (USA),"Brooklyn, NY","Brooklyn, NY, United States of America (USA)",26/03/1952,,66,Artistic Director,"<img src=""https://s3.amazonaws.com/assets.knackhq.com/assets/5853e6992e7f151d490cd3f6/5b1aca9458901b6181ee5671/thumb/nickheadshot.jpg"" />",https://s3.amazonaws.com/assets.knackhq.com/assets/5853e6992e7f151d490cd3f6/5b1aca9458901b6181ee5671/original/nickheadshot.jpg,1,7188344542,https://www.facebook.com/nickfracaro,Guest & Host,,," I love to travel, experience different cultures and meet new people working in the arts,",#performance #travel #tennis,http://intlculturelab.org/index.php?g=team,#theatre #ritualcabaret #performance,"<img src=""https://s3.amazonaws.com/assets.knackhq.com/assets/5853e6992e7f151d490cd3f6/5b1abdbfc5f6211ababf4ac9/thumb/coneybutohbeach.jpg"" />",https://s3.amazonaws.com/assets.knackhq.com/assets/5853e6992e7f151d490cd3f6/5b1abdbfc5f6211ababf4ac9/original/coneybutohbeach.jpg,Coney Island Ritual Cabaret,"<img src=""https://s3.amazonaws.com/assets.knackhq.com/assets/5853e6992e7f151d490cd3f6/5b1abe58825ae11c946c89c6/thumb/mermaidparade17.jpg"" />",https://s3.amazonaws.com/assets.knackhq.com/assets/5853e6992e7f151d490cd3f6/5b1abe58825ae11c946c89c6/original/mermaidparade17.jpg,Coney Island Mermaid Parade,"<img src=""https://s3.amazonaws.com/assets.knackhq.com/assets/5853e6992e7f151d490cd3f6/5b1abff3102c522d481696e6/thumb/norman5.jpg"" />",https://s3.amazonaws.com/assets.knackhq.com/assets/5853e6992e7f151d490cd3f6/5b1abff3102c522d481696e6/original/norman5.jpg,Coney Island Ritual Cabaret,"<img src=""https://s3.amazonaws.com/assets.knackhq.com/assets/5853e6992e7f151d490cd3f6/5b1ac13257fe4e5a4477095b/thumb/broellin3.jpg"" />",https://s3.amazonaws.com/assets.knackhq.com/assets/5853e6992e7f151d490cd3f6/5b1ac13257fe4e5a4477095b/original/broellin3.jpg,2003 eX...it! the international butoh dance-eXchange and performance,"<img src=""https://s3.amazonaws.com/assets.knackhq.com/assets/5853e6992e7f151d490cd3f6/5b1ac35e6aa1bb1a4981dfae/thumb/mermaiduncle.jpg"" />",https://s3.amazonaws.com/assets.knackhq.com/assets/5853e6992e7f151d490cd3f6/5b1ac35e6aa1bb1a4981dfae/original/mermaiduncle.jpg,Uncle Sam on stilts with migrant farm worker puppet and Lady Liberty. RESIST!,"<img src=""https://s3.amazonaws.com/assets.knackhq.com/assets/5853e6992e7f151d490cd3f6/5b1ac7d66aa1bb1a4981ec23/thumb/georgiabutoh.jpg"" />",https://s3.amazonaws.com/assets.knackhq.com/assets/5853e6992e7f151d490cd3f6/5b1ac7d66aa1bb1a4981ec23/original/georgiabutoh.jpg,Butoh in Republic of Georgia,"I am a writer, director, actor, performance artist, and producer.  Artistic Director of International Culture Lab. Our ensemble's home base is at Coney Island USA but we collaborate with artists around the world producing unique performance events.",https://youtu.be/6A5qyPn2KHo,Documentary of 2018 Coney Island Ritual Cabaret Festival,https://youtu.be/N1GLSPsmLZo,"Sick Nick, the Bellevue Boy. Performance at 2018 Coney Island Ritual Cabaret Festival.",,No,06/08/2018 20:27,,No,"""I'm looking for hosts that are...   ""I'm searching for open calls that are...  ""I'm looking to get connected to someone that...""",https://www.humanhotel.com,No
06/02/2017 10:30,2233,W,Barbara Cuglietta,,Barbara,,Cuglietta,Barbara,Cuglietta,barbara.cuglietta@gmail.com,asdqweW2233,active,Member,Belgium,Bruxelles,"Bruxelles , Belgium",,41,48,Director in a gallery,"<img src=""https://s3.amazonaws.com/assets.knackhq.com/assets/5853e6992e7f151d490cd3f6/593121e886cade4b754efe67/thumb/img_6349.jpg"" />",https://s3.amazonaws.com/assets.knackhq.com/assets/5853e6992e7f151d490cd3f6/593121e886cade4b754efe67/original/img_6349.jpg,32,32488822373,@thalieartdoundation,Guest only,Word of mouth,,,,Gladstonegallery.com,,,,,,,,,,,,,,,,,,,,,,,,,,Yes,06/02/2017 10:30,,,,https://www.humanhotel.com,
06/02/2017 15:17,2234,X,Su Tomesen,,Su,,Tomesen,Su,Tomesen,su@sutomesen.nl,asdqweX2234,active,Member,Netherlands,Amsterdam,"Amsterdam, Netherlands",,47,48,artist,"<img src=""https://s3.amazonaws.com/assets.knackhq.com/assets/5853e6992e7f151d490cd3f6/593165104ef5c34929fa0853/thumb/sutomesenpasfoto.jpg"" />",https://s3.amazonaws.com/assets.knackhq.com/assets/5853e6992e7f151d490cd3f6/593165104ef5c34929fa0853/original/sutomesenpasfoto.jpg,31,31616556038,https://www.facebook.com/su.tomesen,Guest & Host,HH Newsletter,,,,http://sutomesen.nl/,,,,,,,,,,,,,,,,,,,,,,,,,,Yes,06/02/2017 15:17,,,,https://www.humanhotel.com,
06/02/2017 22:48,2235,Y,Peter Holm Andersen,,Peter Holm,,Andersen,Peter Holm,Andersen,peterholmandersen@gmail.com,asdqweY2235,active,Member,Denmark,København,"København, Denmark",,41,48,Peter Holm Andersen,"<img src=""https://s3.amazonaws.com/assets.knackhq.com/assets/5853e6992e7f151d490cd3f6/5931ce66ed0eb84cc7cd2fba/thumb/img_20161122_155514.jpg"" />",https://s3.amazonaws.com/assets.knackhq.com/assets/5853e6992e7f151d490cd3f6/5931ce66ed0eb84cc7cd2fba/original/img_20161122_155514.jpg,45,61279861,https://www.facebook.com/peterholmandersen,Host only,Social Media,,,,https://www.linkedin.com/in/peterholmandersen/,,,,,,,,,,,,,,,,,,,,,,,,,,Yes,06/02/2017 22:48,,,,https://www.humanhotel.com,
06/02/2017 23:45,2236,Z,Bridget Crone,,Bridget,,Crone,Bridget,Crone,bridget@plentyprojects.org,asdqweZ2236,active,Member,United Kingdom (UK),London,"London, United Kingdom (UK)",,43,48,Curator,"<img src=""https://s3.amazonaws.com/assets.knackhq.com/assets/5853e6992e7f151d490cd3f6/5931dc6d8d25304d8304e3d4/thumb/bridgetcrone.jpg"" />",https://s3.amazonaws.com/assets.knackhq.com/assets/5853e6992e7f151d490cd3f6/5931dc6d8d25304d8304e3d4/original/bridgetcrone.jpg,,,@BrrridgetCrone,Guest & Host,Word of mouth,,,,https://goldsmiths.academia.edu/BridgetCrone,,,,,,,,,,,,,,,,,,,,,,,,,,Yes,06/02/2017 23:45,,,,https://www.humanhotel.com,
06/02/2018 8:00,2237,A,Alexander  lozano,,Alexander,,lozano,Alexander,lozano,alexander.lozano2@mavs.uta.edu,asdqweA2237,active,Member,United States of America (USA),"dallas,tx","dallas,tx, United States of America (USA)",02/01/1994,,24,artist/student,"<img src=""https://s3.amazonaws.com/assets.knackhq.com/assets/5853e6992e7f151d490cd3f6/5b123244f6a75905b2f01dbf/thumb/img_0053.jpg"" />",https://s3.amazonaws.com/assets.knackhq.com/assets/5853e6992e7f151d490cd3f6/5b123244f6a75905b2f01dbf/original/img_0053.jpg,1,8179965787,@alexloz12,Guest & Host,Wooloo.org Newsletter,,I am currently a student in the last semester to acquire a Bachelors in Fine Art with a focus in glass.,"glass, glassblowing, kiln fused",www.alex-lozano.com,"free, somewhat methodical, fun",,,,,,,,,,,,,,,,,,,I work will experimental methods in the glass spectrum to get new outcomes of what glass can be or become.,,,,,,Yes,06/02/2018 8:00,,No,"""I'm looking for hosts that are...   ""I'm searching for open calls that are...  ""I'm looking to get connected to someone that...""",https://www.humanhotel.com,No
06/02/2018 13:20,2238,B,Senem Celikorslu,,Senem,,Celikorslu,Senem,Celikorslu,senemcelikorslu@yahoo.com,asdqweB2238,active,Member,,,", ",,,48,,,,,,,Guest & Host,,,,,,,,,,,,,,,,,,,,,,,,,,,,,,,No,06/02/2018 13:20,,No,"""I'm looking for hosts that are...   ""I'm searching for open calls that are...  ""I'm looking to get connected to someone that...""",https://www.humanhotel.com,No
06/03/2017 1:52,2239,C,Stephanie  Borgovan,,Stephanie,,Borgovan,Stephanie,Borgovan,stephanieborgs@gmail.com,asdqweC2239,active,Member,United States of America (USA),New York,"New York, United States of America (USA)",,29,48,"Graphic Designer, Artist, E-Commerce Business Owner","<img src=""https://s3.amazonaws.com/assets.knackhq.com/assets/5853e6992e7f151d490cd3f6/5931f9ebe6a41f5526fbb368/thumb/img_2550.jpg"" />",https://s3.amazonaws.com/assets.knackhq.com/assets/5853e6992e7f151d490cd3f6/5931f9ebe6a41f5526fbb368/original/img_2550.jpg,1,9175739085,www.instagram.com/borgogo,Guest only,Word of mouth,,"I'm a 29 year old from New York City. I'm a graphic designer and artist, getting ready to attend the Maryland Institute College of Art in Baltimore for an MFA. I've been running a vintage clothing business online for the last five years as well. I'm a Sagittarius and my favorite colors can only be represented RGB :) <br /><br />Of late my interests outside of work revolve around spending a lot of time on the internet finding new music (Scandinavian pop and South African dance music are some of my faves), reading/thinking about how the internet is changing our brains (for the better? for the worse?) , and trying to be responsible member of planet Earth.","friendly, talkative, late",www.stephanieborgovan.com,"experimental, hybridized, (hopefully) fun",,,,,,,,,,,,,,,,,,,"I'm interested in graphic design that reflects and expands upon the state of contemporary culture, integrating our evolving experience of technology and the internet. ",,,,,,Yes,06/03/2017 10:28,,,,https://www.humanhotel.com,
06/03/2017 19:23,2240,D,Kata Karáth,,Kata,,Karáth,Kata,Karáth,katakarath@gmail.com,asdqweD2240,active,Member,Hungary,Budapest,"Budapest, Hungary",,25,48,Freelance science journalist,"<img src=""https://s3.amazonaws.com/assets.knackhq.com/assets/5853e6992e7f151d490cd3f6/5932f05d535eb34925b2f098/thumb/profile_kata_karath.jpg"" />",https://s3.amazonaws.com/assets.knackhq.com/assets/5853e6992e7f151d490cd3f6/5932f05d535eb34925b2f098/original/profile_kata_karath.jpg,36,447572846380,@KataKarath,Guest only,Through an event,,"I just left London to turn into a full time travelling freelance journalist. I lived there since September 2015 studying and eventually working as a science journalist. Originally, I started as a zoologist/zookeeper, but quickly realised I am not a ""scientist"" material as I am too interested in everything and can't get committed only to one area. Right now it seems being a science journalist is what I was always meant to be - a fusion of my passion for science, animals, storytelling, people, languages and travelling.","#dedicated, #adventurer, #alwaysthrowingherselfintodeepwaters",www.katakarath.wordpress.com,"#journalism, #environment, #multimedia","<img src=""https://s3.amazonaws.com/assets.knackhq.com/assets/5853e6992e7f151d490cd3f6/5932f1b37b2f264c310bf2c5/thumb/filming.jpg"" />",https://s3.amazonaws.com/assets.knackhq.com/assets/5853e6992e7f151d490cd3f6/5932f1b37b2f264c310bf2c5/original/filming.jpg,Filming my first short doc about conservation drones,,,,,,,,,,,,,,,,"I’m a science journalist with multimedia skills. I’m obsessed with science, environment and technology, especially with the complex connection between conservation, economics and politics. I occasionally cover Eastern European current affairs, language and history.",,,,,,Yes,06/03/2017 19:30,,,,https://www.humanhotel.com,
06/03/2018 13:39,2241,E,Namia Leigh,,Namia,,Leigh,Namia,Leigh,namia.leigh@gmail.com,asdqweE2241,active,Member,Germany,Berlin,"Berlin, Germany",16/04/1982,,36,Artist,"<img src=""https://s3.amazonaws.com/assets.knackhq.com/assets/5853e6992e7f151d490cd3f6/5b13d03048a039138b600886/thumb/img_0944.jpg"" />",https://s3.amazonaws.com/assets.knackhq.com/assets/5853e6992e7f151d490cd3f6/5b13d03048a039138b600886/original/img_0944.jpg,,,https://www.facebook.com/namia.leigh,Guest & Host,Email,,,,https://www.linkedin.com/namia.leigh,,,,,,,,,,,,,,,,,,,,,,,,,,Yes,06/03/2018 13:39,,Yes,"""I'm looking for hosts that are...   ""I'm searching for open calls that are...  ""I'm looking to get connected to someone that...""",https://www.humanhotel.com,No
06/04/2018 0:00,2242,F,Elsa Figueiredo,,Elsa,,Figueiredo,Elsa,Figueiredo,elsafigueiredo19@gmail.com,asdqweF2242,active,Member,Portugal,Seixal,"Seixal, Portugal",19/08/1962,,56,Veterinarian,"<img src=""https://s3.amazonaws.com/assets.knackhq.com/assets/5853e6992e7f151d490cd3f6/5b1c654850d7ef4ca92dd62f/thumb/dsc03566bw.jpg"" />",https://s3.amazonaws.com/assets.knackhq.com/assets/5853e6992e7f151d490cd3f6/5b1c654850d7ef4ca92dd62f/original/dsc03566bw.jpg,351,916191179,facebook • Elsa-Figueiredo-Fotografia,Guest & Host,,,"Family and friends are very important to me.<br />I really like animals, and outdoor living.<br />I love to photograph simple things.<br />I love traveling with the wind, and without a big program.<br />I dream every day with the day that I will begin my return to the World.<br />Book that inspires me ""Alma de Viajante"" by Filipe Morato Gomes<br />Music I like, jazz, rock, portuguese music of intervention","Photography, Music, Books",http://fstop.primeiraluz.pt/fragmentos-elsa-figueiredo,"Photograph, ",,,,,,,,,,,,,,,,,,,"Photography is to me as a Food for Life.<br />The guiding thread of this photographic work is the Inspiration that leads me to find the Beauty of Life, Silence, Inner Peace and the discovery of my Self.<br />In all these images there is something of me and in each of them there is a story to tell.",,,,,,No,06/10/2018 2:52,,No,"""I'm looking for hosts that are...   ""I'm searching for open calls that are...  ""I'm looking to get connected to someone that...""",https://www.humanhotel.com,No
06/04/2018 12:28,2243,G,Laerke Kjaergaard,,Laerke,,Kjaergaard,Laerke,Kjaergaard,laerkeok@hotmail.com,asdqweG2243,active,Member,Spain,Barcelona,"Barcelona, Spain",13/04/1982,,36,Teacher,"<img src=""https://s3.amazonaws.com/assets.knackhq.com/assets/5853e6992e7f151d490cd3f6/5b1518dc49ef6e2a99449a04/thumb/nataraj2.jpg"" />",https://s3.amazonaws.com/assets.knackhq.com/assets/5853e6992e7f151d490cd3f6/5b1518dc49ef6e2a99449a04/original/nataraj2.jpg,45,20775527,https://www.facebook.com/laerke.o.kjaergaard,Guest & Host,,,"I am a Yogi and Naturopath. Into music, dance, surf, snowboarding and wholistic health in general. Dare to care and share. You are welcome ))",yoga music dance,http://www.yoga-naturopathy.com/,#body #mind #soul,,,,,,,,,,,,,,,,,,,My work is all about holistic balance on various aspects,,,,,,No,06/04/2018 12:48,,No,"""I'm looking for hosts that are...   ""I'm searching for open calls that are...  ""I'm looking to get connected to someone that...""",https://www.humanhotel.com,No
06/04/2018 18:54,2244,H,Francesca Alessandro,,Francesca,,Alessandro,Francesca,Alessandro,francesca.alessandro.0@gmail.com,asdqweH2244,active,Member,Italy,Madrid,"Madrid, Italy",15/05/1990,,28,architecture + participatory design + fun,"<img src=""https://s3.amazonaws.com/assets.knackhq.com/assets/5853e6992e7f151d490cd3f6/5b156e4c49ef6e2a994560fc/thumb/whatsappimage20180604at18.50.08.jpeg"" />",https://s3.amazonaws.com/assets.knackhq.com/assets/5853e6992e7f151d490cd3f6/5b156e4c49ef6e2a994560fc/original/whatsappimage20180604at18.50.08.jpeg,,,https://www.instagram.com/francesca.less/,Guest & Host,Wooloo.org Newsletter,,,,https://www.nadacolectivo.com/,,,,,,,,,,,,,,,,,,,,,,,,,,Yes,06/04/2018 18:54,,Yes,"""I'm looking for hosts that are...   ""I'm searching for open calls that are...  ""I'm looking to get connected to someone that...""",https://www.humanhotel.com,No
06/04/2018 21:34,2245,I,Clyde Schwab,,Clyde,,Schwab,Clyde,Schwab,clydeschwab@gmail.com,asdqweI2245,active,Member,United States of America (USA),Chicago,"Chicago, United States of America (USA)",27/08/1998,,20,"Student, Journalist","<img src=""https://s3.amazonaws.com/assets.knackhq.com/assets/5853e6992e7f151d490cd3f6/5b15940080d84e3d1869961f/thumb/20597039_10212345987158746_5151346789337220658_n.jpg"" />",https://s3.amazonaws.com/assets.knackhq.com/assets/5853e6992e7f151d490cd3f6/5b15940080d84e3d1869961f/original/20597039_10212345987158746_5151346789337220658_n.jpg,1,3123617868,https://www.facebook.com/clyde.schwab,Guest & Host,Word of mouth,Laura Letinsky,"Born and raised in Chicago. I love reading and writing, particularly modern and contemporary fiction and journalism. I love listening to music, especially hiphop — Cam'ron, GZA, Frank Ocean, Injury Reserve, Cudi — and rock — The Talking Heads, Pixies, Belle and Sebastian, Flaming Lips. I love learning and exploring cities and their cultures, especially on two wheels or while eating or cooking delicious food. Love talking and learning. ",#reading #exploring #cycling #running #food,https://clydeschwab.wordpress.com/,#journalism #socialjustice #criminaljustice #urbanism #writing,,,,,,,,,,,,,,,,,,,"I'm currently studying the social sciences and urbanism at the University of Chicago. I've spent the past several years working as a journalist in Chicago for school and local publications and continue to pursue freelance writing, especially in issues related to criminal justice, social justice and housing, as well as local music, art, and food. I'm interested in studying geography and the way the individual is shaped by different social and cultural structures. ",,,,,,Yes,06/07/2018 1:16,,Yes,"""I'm looking for hosts that are...   ""I'm searching for open calls that are...  ""I'm looking to get connected to someone that...""",https://www.humanhotel.com,No
06/05/2017 11:22,2246,J,Andrea Sala,,Andrea,,Sala,Andrea,Sala,lacortedibrenta@gmail.com,asdqweJ2246,active,Member,Italy,Brenta,"Brenta, Italy",,31,48,artist,"<img src=""https://s3.amazonaws.com/assets.knackhq.com/assets/5853e6992e7f151d490cd3f6/593522b5feb2df47d21d78a4/thumb/18763415_10211328273336363_1189280533_n.jpg"" />",https://s3.amazonaws.com/assets.knackhq.com/assets/5853e6992e7f151d490cd3f6/593522b5feb2df47d21d78a4/original/18763415_10211328273336363_1189280533_n.jpg,39,3291046225,facebook.com/lacorte.dibrenta,Guest & Host,Email,,"Arend was born in 1986 in the north of Italy.<br />He graduated from the New Academy of Fine Arts in Milan with a focus on Graphic Design and Art Direction, then completed his Master’s studies in <br />Experimental Mosaic within the Academy of Fine Arts in Ravenna. <br />The study of graphic design, communications, and advertising allowed him to explore the world of mosaic art with a new and innovative approach. <br />In the summer of 2010, he spent one month in Damascus with a group <br />specialized in the restoration of Roman pavement mosaics, an experience whose cultural and emotional impact has strongly influenced the artist. <br /><br />Sala has long been fascinated by the ineffable nature of the world around us,  describe a nature without definition. His work explores silence and intimacy with nature and our century. <br /><br />His mosaics have been exhibited in Naples in several groups exhibition entitled “Venite, venite ...” , in the festival of “Ravenna Mosaico”, and in a exhibition “Frammentamenti” in Ravenna. <br />","mosaic, artist, music",www.cortedibrenta.tk,mosaic,"<img src=""https://s3.amazonaws.com/assets.knackhq.com/assets/5853e6992e7f151d490cd3f6/59353b646aee20495d2b2b46/thumb/andreasalamandala.jpg"" />",https://s3.amazonaws.com/assets.knackhq.com/assets/5853e6992e7f151d490cd3f6/59353b646aee20495d2b2b46/original/andreasalamandala.jpg,,"<img src=""https://s3.amazonaws.com/assets.knackhq.com/assets/5853e6992e7f151d490cd3f6/59353b96d5638047cceca259/thumb/andreasalalunapiena.jpg"" />",https://s3.amazonaws.com/assets.knackhq.com/assets/5853e6992e7f151d490cd3f6/59353b96d5638047cceca259/original/andreasalalunapiena.jpg,,"<img src=""https://s3.amazonaws.com/assets.knackhq.com/assets/5853e6992e7f151d490cd3f6/59353ba6763ebb47d0077649/thumb/massimosalalavitafuoriaprilafinestra.jpg"" />",https://s3.amazonaws.com/assets.knackhq.com/assets/5853e6992e7f151d490cd3f6/59353ba6763ebb47d0077649/original/massimosalalavitafuoriaprilafinestra.jpg,,"<img src=""https://s3.amazonaws.com/assets.knackhq.com/assets/5853e6992e7f151d490cd3f6/5935390a793f624925895e42/thumb/andreasalanostalgicaavanguardia.jpg"" />",https://s3.amazonaws.com/assets.knackhq.com/assets/5853e6992e7f151d490cd3f6/5935390a793f624925895e42/original/andreasalanostalgicaavanguardia.jpg,,"<img src=""https://s3.amazonaws.com/assets.knackhq.com/assets/5853e6992e7f151d490cd3f6/59353b808c87f6492777220d/thumb/andreasalametabolismocellulare.jpg"" />",https://s3.amazonaws.com/assets.knackhq.com/assets/5853e6992e7f151d490cd3f6/59353b808c87f6492777220d/original/andreasalametabolismocellulare.jpg,,"<img src=""https://s3.amazonaws.com/assets.knackhq.com/assets/5853e6992e7f151d490cd3f6/59353b7e9fbb3f47caf1de50/thumb/andreasalamemoriediluoghi.jpg"" />",https://s3.amazonaws.com/assets.knackhq.com/assets/5853e6992e7f151d490cd3f6/59353b7e9fbb3f47caf1de50/original/andreasalamemoriediluoghi.jpg,,"“The mysterious relationship between the infinitesimally small and the infinitely large, between unity and multiplicity: it is this, above all, which fascinates me in mosaic. Experimentation with mosaic gives me the possibility to reflect upon my way of experiencing the contemporary world while maintaining a constant rapport with the past. <br /><br />The discontinuity of the image, composed of stone and glass, creates a relationship between the visible and the invisible. The poetic and the creative coexist alongside the cold and the rational, different aspects of my continued research in mosaic. “<br /><br />A.<br />",,,,,,Yes,06/05/2017 13:09,,,,https://www.humanhotel.com,
06/05/2017 17:06,2247,K,Ronald Hietbrink,,Ronald,,Hietbrink,Ronald,Hietbrink,rohi@xs4all.nl,asdqweK2247,active,Member,Netherlands,Amsterdam,"Amsterdam, Netherlands",01/10/1965,51,53,Producer,"<img src=""https://s3.amazonaws.com/assets.knackhq.com/assets/5853e6992e7f151d490cd3f6/5ae0a8c590a78f285f9c8b16/thumb/311766_2322220650348_2135410470_n.jpg"" />",https://s3.amazonaws.com/assets.knackhq.com/assets/5853e6992e7f151d490cd3f6/5ae0a8c590a78f285f9c8b16/original/311766_2322220650348_2135410470_n.jpg,31,31655718995,www.facebook.com/ronald.hietbrink,Guest & Host,Word of mouth,Claire van der Poel,"My name is Ronald Hietbrink, 52 years old. I am a freelance producer for commercials. <br /><br />Love to travel, love playing golf",#travel #golf #film,www.linkedin.com/in/ronaldhietbrink,#commercials #film #production,,,,,,,,,,,,,,,,,,,Freelance Producer for Commercials,,,,,,Yes,04/25/2018 18:52,,,,https://www.humanhotel.com,
06/05/2017 23:40,2248,L,Sidse Carstens,,Sidse,,Carstens,Sidse,Carstens,sidsecarstens@gmail.com,asdqweL2248,active,Member,Denmark,Copenhagen,"Copenhagen, Denmark",,45,48,Visual artist and filmmaker,"<img src=""https://s3.amazonaws.com/assets.knackhq.com/assets/5853e6992e7f151d490cd3f6/5935cf63b676594c67ebabe2/thumb/sidse_foto.jpg"" />",https://s3.amazonaws.com/assets.knackhq.com/assets/5853e6992e7f151d490cd3f6/5935cf63b676594c67ebabe2/original/sidse_foto.jpg,45,26142100,https://www.facebook.com/sidse.carstens,Guest & Host,Social Media,Cecilia Westerberg,"I'm interested in hosting artists, creatives and interesting people. I have two teenage kids, they live alternately at their fathers house and with me. I like to make things happen and people who make me laugh.","curious, outgoing, ",http://www.sidsecarstens.dk,"collective, digital, analog","<img src=""https://s3.amazonaws.com/assets.knackhq.com/assets/5853e6992e7f151d490cd3f6/59386a92f7ea8e54e6a463cb/thumb/17522025_10154586287513137_1991690907_o.jpg"" />",https://s3.amazonaws.com/assets.knackhq.com/assets/5853e6992e7f151d490cd3f6/59386a92f7ea8e54e6a463cb/original/17522025_10154586287513137_1991690907_o.jpg,Poster for your artist run exhibition space,"<img src=""https://s3.amazonaws.com/assets.knackhq.com/assets/5853e6992e7f151d490cd3f6/59386b17cdee405622aa5d11/thumb/07_gltch16_lille.jpg"" />",https://s3.amazonaws.com/assets.knackhq.com/assets/5853e6992e7f151d490cd3f6/59386b17cdee405622aa5d11/original/07_gltch16_lille.jpg,,"<img src=""https://s3.amazonaws.com/assets.knackhq.com/assets/5853e6992e7f151d490cd3f6/59386b2075dc2f5665025f6b/thumb/08_gltch16_lille.jpg"" />",https://s3.amazonaws.com/assets.knackhq.com/assets/5853e6992e7f151d490cd3f6/59386b2075dc2f5665025f6b/original/08_gltch16_lille.jpg,,"<img src=""https://s3.amazonaws.com/assets.knackhq.com/assets/5853e6992e7f151d490cd3f6/59386b283a05b249a98b3444/thumb/13_gltch16_lille.jpg"" />",https://s3.amazonaws.com/assets.knackhq.com/assets/5853e6992e7f151d490cd3f6/59386b283a05b249a98b3444/original/13_gltch16_lille.jpg,,"<img src=""https://s3.amazonaws.com/assets.knackhq.com/assets/5853e6992e7f151d490cd3f6/59386b9233c34c5585a7be58/thumb/marocco.jpg"" />",https://s3.amazonaws.com/assets.knackhq.com/assets/5853e6992e7f151d490cd3f6/59386b9233c34c5585a7be58/original/marocco.jpg,Collage at billboard in Marocco,"<img src=""https://s3.amazonaws.com/assets.knackhq.com/assets/5853e6992e7f151d490cd3f6/59386bcd55089a4a42bd0d39/thumb/01_mrket_frame.jpg"" />",https://s3.amazonaws.com/assets.knackhq.com/assets/5853e6992e7f151d490cd3f6/59386bcd55089a4a42bd0d39/original/01_mrket_frame.jpg,still frame from video for Danish Broadcasting Corporation,"I work as an visual artist with video, print and collage and I´m one of three directors at Hawaii, an artist-run platform that presents exhibitions, art salons, talks, performances and hosts private dinners.",,,,,,Yes,06/19/2017 22:51,,,,https://www.humanhotel.com,
06/05/2018 0:00,2249,M,Gary Charles,,Gary,,Charles,Gary,Charles,gazchimanga@gmail.com,asdqweM2249,active,Member,United Kingdom (UK),Abingdon,"Abingdon, United Kingdom (UK)",11/06/1977,,41,Artist / Curator,"<img src=""https://s3.amazonaws.com/assets.knackhq.com/assets/5853e6992e7f151d490cd3f6/5b15bf4363e03810a49a32af/thumb/fullsizerender.jpg"" />",https://s3.amazonaws.com/assets.knackhq.com/assets/5853e6992e7f151d490cd3f6/5b15bf4363e03810a49a32af/original/fullsizerender.jpg,44,7447025161,https://twitter.com/thestatichand,Guest only,Word of mouth,,Artist / Curator based in the UK,Music,www.garyjcgaryjc.com,"Sound Art, Moving Image, Curator","<img src=""https://s3.amazonaws.com/assets.knackhq.com/assets/5853e6992e7f151d490cd3f6/5b15c3bac6c44b0b610c4305/thumb/stillspaceage.jpg"" />",https://s3.amazonaws.com/assets.knackhq.com/assets/5853e6992e7f151d490cd3f6/5b15c3bac6c44b0b610c4305/original/stillspaceage.jpg,,"<img src=""https://s3.amazonaws.com/assets.knackhq.com/assets/5853e6992e7f151d490cd3f6/5b15c3d986a6050e9a1a13ee/thumb/contentprovisionincellophanestill.jpg"" />",https://s3.amazonaws.com/assets.knackhq.com/assets/5853e6992e7f151d490cd3f6/5b15c3d986a6050e9a1a13ee/original/contentprovisionincellophanestill.jpg,,"<img src=""https://s3.amazonaws.com/assets.knackhq.com/assets/5853e6992e7f151d490cd3f6/5b15c3fa7c8e6f186321cd38/thumb/webgarycharlesmedallionnaire.jpg"" />",https://s3.amazonaws.com/assets.knackhq.com/assets/5853e6992e7f151d490cd3f6/5b15c3fa7c8e6f186321cd38/original/webgarycharlesmedallionnaire.jpg,,,,,,,,,,,Artist / Curator based in the UK,,,,,,Yes,06/05/2018 0:58,,Yes,"""I'm looking for hosts that are...   ""I'm searching for open calls that are...  ""I'm looking to get connected to someone that...""",https://www.humanhotel.com,No
06/05/2018 11:18,2250,N,Marcela Giesche,,Marcela,,Giesche,Marcela,Giesche,marcelagiesche@yahoo.com,asdqweN2250,active,Member,,,", ",,,48,,,,,,,Guest & Host,,,,,,,,,,,,,,,,,,,,,,,,,,,,,,,No,06/05/2018 11:18,,No,"""I'm looking for hosts that are...   ""I'm searching for open calls that are...  ""I'm looking to get connected to someone that...""",https://www.humanhotel.com,No