Created on,Number,Letter,displayName,Name: Title,Name: First,Name: Middle,Name: Last,firstName,lastName,email,password,User Status,User Roles,country,city,location,dateOfBirth,Age,Age - 2,occupation,Profile photo,picture,phoneCountryCode,phoneNumber,socialProfileLink,memberType,memberDetail,recommandedBy,info,interestsTags,workRelatedLink,practiceTags,Work Img. 1,imageOne,imageDescriptionOne,Work Img. 2,imageTwo,imageDescriptionTwo,Work Img. 3,imageThree,imageDescriptionThree,Work Img. 4,imageFour,imageDescriptionFour,Work Img. 5,imageFive,imageDescriptionFive,Work Img. 6,imageSix,imageDescriptionSix,descriptionYourPractices,videoLinkOne,videoDescriptionOne,videoLinkTwo,videoDescriptionTwo,INTERNAL NOTES,I agree to the Terms of Use,Last Updated,Connections,emailConfirmed,Connections/Helpful Details,www.humanhotel.com,Host?
02/27/2017 1:28,1151,G,lorenzo puglisi,,lorenzo,,puglisi,lorenzo,puglisi,lorenzopuglisi27@yahoo.it,asdqweG1151,active,Member,,bologna,"bologna, ",,45,48,artist,"<img src=""https://s3.amazonaws.com/assets.knackhq.com/assets/5853e6992e7f151d490cd3f6/58b40d2c95eb4de031c78df8/thumb/foto_x_cat_in_b_n.jpg"" />",https://s3.amazonaws.com/assets.knackhq.com/assets/5853e6992e7f151d490cd3f6/58b40d2c95eb4de031c78df8/original/foto_x_cat_in_b_n.jpg,,,https://www.facebook.com/lorenzopuglisi,Guest only,Email,Martin Rosengaard,,,www.lorenzopuglisi.com,,,,,,,,,,,,,,,,,,,,,,,,,50% booking off from first trip,,,,,,https://www.humanhotel.com,
02/27/2017 3:37,1152,H,Liesbeth Vlerick,,Liesbeth,,Vlerick,Liesbeth,Vlerick,liesbeth@dokgent.be,asdqweH1152,active,Member,,GENT,"GENT, ",,37,48,coordinator DOK vzw,"<img src=""https://s3.amazonaws.com/assets.knackhq.com/assets/5853e6992e7f151d490cd3f6/58b42b6211339378255f0f9c/thumb/schermafbeelding20170227om14.36.14.png"" />",https://s3.amazonaws.com/assets.knackhq.com/assets/5853e6992e7f151d490cd3f6/58b42b6211339378255f0f9c/original/schermafbeelding20170227om14.36.14.png,,,https://www.facebook.com/liesbeth.vlerick.3,Guest & Host,Word of mouth,,,,http://dokgent.be/,,,,,,,,,,,,,,,,,,,,,,,,,,,,,,,https://www.humanhotel.com,
02/27/2017 3:39,1153,I,TOMAS LOOTENS,,TOMAS,,LOOTENS,TOMAS,LOOTENS,tomaslootens@gmail.com,asdqweI1153,active,Member,,Ghent,"Ghent, ",,28,48,Graphic Designer / Artist,"<img src=""https://s3.amazonaws.com/assets.knackhq.com/assets/5853e6992e7f151d490cd3f6/58b42bd7ef73cd5125be63ec/thumb/fotoop270217om14.37.jpg"" />",https://s3.amazonaws.com/assets.knackhq.com/assets/5853e6992e7f151d490cd3f6/58b42bd7ef73cd5125be63ec/original/fotoop270217om14.37.jpg,,,https://www.facebook.com/tomas.lootens,Guest only,Word of mouth,Lucia Maria,,,http://www.019-ghent.org,,,,,,,,,,,,,,,,,,,,,,,,,,,,,,,https://www.humanhotel.com,
02/27/2017 4:19,1154,J,Luca Negro,,Luca,,Negro,Luca,Negro,noia99@hotmail.com,asdqweJ1154,active,Member,,Albisola Superiore,"Albisola Superiore, ",,39,48,worker&artist,"<img src=""https://s3.amazonaws.com/assets.knackhq.com/assets/5853e6992e7f151d490cd3f6/58b434f425fc84542535fc64/thumb/yo3.jpg"" />",https://s3.amazonaws.com/assets.knackhq.com/assets/5853e6992e7f151d490cd3f6/58b434f425fc84542535fc64/original/yo3.jpg,,,www.facebook.com/negrolibero,Guest & Host,Wooloo.org Newsletter,,,,www.thehominis.blogspot.com,,,,,,,,,,,,,,,,,,,,,,,,,50% booking off from first trip,,,,,,https://www.humanhotel.com,
02/27/2017 4:26,1155,K,Lise Ross,,Lise,,Ross,Lise,Ross,lise@baggesen.org,asdqweK1155,active,Member,United States of America (USA),Chicago,"Chicago, United States of America (USA)",,47,48,artist,"<img src=""https://s3.amazonaws.com/assets.knackhq.com/assets/5853e6992e7f151d490cd3f6/58b4367aef73cd5125be7351/thumb/lhbheadshot.jpeg"" />",https://s3.amazonaws.com/assets.knackhq.com/assets/5853e6992e7f151d490cd3f6/58b4367aef73cd5125be7351/original/lhbheadshot.jpeg,,,https://www.facebook.com/events/201338547014240/?notif_t=plan_user_invited&notif_id=1488176974014908,Guest only,Email,Anni Holm?,,,https://lisehallerbaggesen.wordpress.com/,,,,,,,,,,,,,,,,,,,,,,,,,50% booking off from first trip,,,,,,https://www.humanhotel.com,
02/27/2017 5:09,1156,L,leopoldo minicucci,,leopoldo,,minicucci,leopoldo,minicucci,b.w.zone@logosnet.it,asdqweL1156,active,Member,Italy,florence,"florence, Italy",,59,48,chartered accountant,"<img src=""https://s3.amazonaws.com/assets.knackhq.com/assets/5853e6992e7f151d490cd3f6/58b441109d25475425cff016/thumb/img_4047.jpg"" />",https://s3.amazonaws.com/assets.knackhq.com/assets/5853e6992e7f151d490cd3f6/58b441109d25475425cff016/original/img_4047.jpg,39,,https://twitter.com/lm261101,Guest only,Email,,,..,http://linkedin.com/in/leopoldo-minicucci-ba67341a,..,,,,,,,,,,,,,,,,,,,,,,,,50% booking off from first trip,,,,,,https://www.humanhotel.com,
02/27/2017 7:30,1157,M,Phil Irish,,Phil,,Irish,Phil,Irish,philirish@wightman.ca,asdqweM1157,active,Member,Canada,"Elora, Ontario, Canada","Elora, Ontario, Canada, Canada",02/08/1971,45,47,Artist,"<img src=""https://s3.amazonaws.com/assets.knackhq.com/assets/5853e6992e7f151d490cd3f6/5a22926c36d268703f2d2d1f/thumb/img_8183.jpg"" />",https://s3.amazonaws.com/assets.knackhq.com/assets/5853e6992e7f151d490cd3f6/5a22926c36d268703f2d2d1f/original/img_8183.jpg,1,15199987061,https://www.facebook.com/phil.irish,Guest only,Email,,"Artist and art educator. Married, with 2 daughters. I play piano and guitar.","Exploring Nature, Museums, Spirituality",www.philirish.com,"Painting, collage, installation","<img src=""https://s3.amazonaws.com/assets.knackhq.com/assets/5853e6992e7f151d490cd3f6/5a22941fd0dce86a15c54920/thumb/peakvelocity2000.jpg"" />",https://s3.amazonaws.com/assets.knackhq.com/assets/5853e6992e7f151d490cd3f6/5a22941fd0dce86a15c54920/original/peakvelocity2000.jpg,"""Peak Velocity,"" oil on aluminum.",,,,,,,,,,,,,,,,Landscape oriented; mix of abstraction and representation; paint images then attack them - and finally reassemble them.  I love making things!,,,,,50% booking off from first trip,,12/02/2017 12:53,,,,https://www.humanhotel.com,
02/27/2017 7:51,1158,N,Daniel Everett,,Daniel,,Everett,Daniel,Everett,danieleverett@gmail.com,asdqweN1158,active,Member,,Provo,"Provo, ",,36,48,Artist/Professor,"<img src=""https://s3.amazonaws.com/assets.knackhq.com/assets/5853e6992e7f151d490cd3f6/58b4670995a0e57b259d07ff/thumb/11665492_10102094365396929_2305028471274221586_n.jpg"" />",https://s3.amazonaws.com/assets.knackhq.com/assets/5853e6992e7f151d490cd3f6/58b4670995a0e57b259d07ff/original/11665492_10102094365396929_2305028471274221586_n.jpg,,,@dbeverett,Guest only,Email,,,,daniel-everett.com,,,,,,,,,,,,,,,,,,,,,,,,,50% booking off from first trip,,,,,,https://www.humanhotel.com,
02/27/2017 9:05,1159,O,Maria Efstathiou,,Maria,,Efstathiou,Maria,Efstathiou,efstathioumaria@gmail.com,asdqweO1159,active,Member,Greece,Athens,"Athens, Greece",,39,48,Visual Artist,"<img src=""https://s3.amazonaws.com/assets.knackhq.com/assets/5853e6992e7f151d490cd3f6/58b476817ee17e522531fb86/thumb/1copy.jpg"" />",https://s3.amazonaws.com/assets.knackhq.com/assets/5853e6992e7f151d490cd3f6/58b476817ee17e522531fb86/original/1copy.jpg,,,https://www.facebook.com/maria.efstathiou.180,Guest only,Email,,,,www.tseliougallery.com,,,,,,,,,,,,,,,,,,,,,,,,,50% booking off from first trip,,,,,,https://www.humanhotel.com,
02/27/2017 9:34,1160,P,DIMITRA ATSALI,,DIMITRA,,ATSALI,DIMITRA,ATSALI,dimiatsali@yahoo.com,asdqweP1160,active,Member,Greece,ATHENS,"ATHENS, Greece",,37,48,PHOTOGRAPHER,"<img src=""https://s3.amazonaws.com/assets.knackhq.com/assets/5853e6992e7f151d490cd3f6/58b47f4b7e9fc42432214196/thumb/img_20170226_152416_150.jpg"" />",https://s3.amazonaws.com/assets.knackhq.com/assets/5853e6992e7f151d490cd3f6/58b47f4b7e9fc42432214196/original/img_20170226_152416_150.jpg,,,linkedin.com/dimitraatsali,Guest & Host,Social Media,WOOLOO,,,linkedin.com/dimitra atsali,,,,,,,,,,,,,,,,,,,,,,,,,50% booking off from first trip,,,,,,https://www.humanhotel.com,
02/27/2017 12:17,1161,Q,Francesca Ausenda,,Francesca,,Ausenda,Francesca,Ausenda,francesca@blue-earth.co.uk,asdqweQ1161,active,Member,,calvi dell'umbria,"calvi dell'umbria, ",,51,48,artist,"<img src=""https://s3.amazonaws.com/assets.knackhq.com/assets/5853e6992e7f151d490cd3f6/58b4a51aef73cd5125bf7227/thumb/img_1266.jpg"" />",https://s3.amazonaws.com/assets.knackhq.com/assets/5853e6992e7f151d490cd3f6/58b4a51aef73cd5125bf7227/original/img_1266.jpg,,,facetime,Guest & Host,Wooloo.org Newsletter,wooloo,,,linkedin,,,,,,,,,,,,,,,,,,,,,,,,,50% booking off from first trip,,,,,,https://www.humanhotel.com,
02/27/2017 14:12,1162,R,Shirley Ramirez,,Shirley,,Ramirez,Shirley,Ramirez,shirleyramirez94@gmail.com,asdqweR1162,active,Member,United States of America (USA),Los Angeles,"Los Angeles, United States of America (USA)",,22,48,Urban Futures Lab Fellow,"<img src=""https://s3.amazonaws.com/assets.knackhq.com/assets/5853e6992e7f151d490cd3f6/58b4c03b9e8e505825871834/thumb/img_7974.jpg"" />",https://s3.amazonaws.com/assets.knackhq.com/assets/5853e6992e7f151d490cd3f6/58b4c03b9e8e505825871834/original/img_7974.jpg,,,https://www.facebook.com/shirley.ramirez.12,Guest only,Word of mouth,,,,http://publicmattersgroup.com/initiatives/sramirezportfolio/,,,,,,,,,,,,,,,,,,,,,,,,,,,,,,,https://www.humanhotel.com,
02/27/2017 15:18,1163,S,Todd Lane,,Todd,,Lane,Todd,Lane,toddlane4@yahoo.com,asdqweS1163,active,Member,United States of America (USA),St. Paul,"St. Paul, United States of America (USA)",,46,48,Drawings Supervisor,"<img src=""https://s3.amazonaws.com/assets.knackhq.com/assets/5853e6992e7f151d490cd3f6/58b4cf5b95a0e57b259d9cf7/thumb/dscn0006.jpg"" />",https://s3.amazonaws.com/assets.knackhq.com/assets/5853e6992e7f151d490cd3f6/58b4cf5b95a0e57b259d9cf7/original/dscn0006.jpg,1,651-335-5391,@tlane04 (Twitter),Guest only,Through an event,,,adaptable passionate empathetic,linkedin.com/in/todd-lane-4a0b4634,organized creative reliable,,,,,,,,,,,,,,,,,,,,,,,,,,,,,,https://www.humanhotel.com,
02/27/2018 8:43,1164,T,Katja Renner,,Katja,,Renner,Katja,Renner,katja.r@genion.de,asdqweT1164,active,Member,Germany,Berlin,"Berlin, Germany",03/01/1980,,38,photographer/ filmmaker,"<img src=""https://s3.amazonaws.com/assets.knackhq.com/assets/5853e6992e7f151d490cd3f6/5a9506454edc214203cc7b06/thumb/000036.jpg"" />",https://s3.amazonaws.com/assets.knackhq.com/assets/5853e6992e7f151d490cd3f6/5a9506454edc214203cc7b06/original/000036.jpg,,,@kodakcarnet,Guest & Host,Email,Valeria Kadelski,,,www.studiorenner.com,,,,,,,,,,,,,,,,,,,,,,,,,,Yes,02/27/2018 8:43,,Yes,"""I'm looking for hosts that are...   ""I'm searching for open calls that are...  ""I'm looking to get connected to someone that...""",https://www.humanhotel.com,No
02/27/2018 9:41,1165,U,Christof Zwiener,,Christof,,Zwiener,Christof,Zwiener,info@christofzwiener.de,asdqweU1165,active,Member,Germany,Berlin,"Berlin, Germany",28/05/1972,,46,Artist / Curator,"<img src=""https://s3.amazonaws.com/assets.knackhq.com/assets/5853e6992e7f151d490cd3f6/5a9517fc23a6900e83fd28ec/thumb/sandbackfingerfig.14.jpg"" />",https://s3.amazonaws.com/assets.knackhq.com/assets/5853e6992e7f151d490cd3f6/5a9517fc23a6900e83fd28ec/original/sandbackfingerfig.14.jpg,,,10001118752506,Guest & Host,Email,Valeria Kadelski,,,http://www.christofzwiener.de/+++25+years+of+solitude,,,,,,,,,,,,,,,,,,,,,,,,,,Yes,02/27/2018 9:41,,Yes,"""I'm looking for hosts that are...   ""I'm searching for open calls that are...  ""I'm looking to get connected to someone that...""",https://www.humanhotel.com,No
02/27/2018 10:32,1166,V,Veronika Janatkova,,Veronika,,Janatkova,Veronika,Janatkova,beruveru@gmail.com,asdqweV1166,active,Member,Czech Republic,Prague,"Prague, Czech Republic",23/09/1981,,37,"filmmaker, documentary producer, curator","<img src=""https://s3.amazonaws.com/assets.knackhq.com/assets/5853e6992e7f151d490cd3f6/5a95242623a6900e83fd31ba/thumb/330201_normal.jpg"" />",https://s3.amazonaws.com/assets.knackhq.com/assets/5853e6992e7f151d490cd3f6/5a95242623a6900e83fd31ba/original/330201_normal.jpg,420,604434990,https://www.linkedin.com/in/veronika-janatkova-45b71538/,Guest only,Word of mouth,filmmaker colleague Erika Tasini,"Coming from Prague, Czech Republic. Actually I was born in Czechoslovakia. Since 2004 I have been on the road a lot, first living between Paris and Prague, now since 2010 I am oscillating between Prague and Berlin. <br />Films are my passion and what I do. I am peopleminded, love to listen to stories. <br />I have been living mainly in flatshares with lot of housemates, social projects and collocations. Keen on meeting new people.","film, storytelling, documentary",http://godisnotworkingonsunday.org/,"film, documentary, social-political","<img src=""https://s3.amazonaws.com/assets.knackhq.com/assets/5853e6992e7f151d490cd3f6/5a952de676183c14aba7d7ba/thumb/dadabarrandov.png"" />",https://s3.amazonaws.com/assets.knackhq.com/assets/5853e6992e7f151d490cd3f6/5a952de676183c14aba7d7ba/original/dadabarrandov.png,still from a film i am working on right now,"<img src=""https://s3.amazonaws.com/assets.knackhq.com/assets/5853e6992e7f151d490cd3f6/5a9530a1d6cd0b42c48afb74/thumb/ginwos_poster_net_1.jpg"" />",https://s3.amazonaws.com/assets.knackhq.com/assets/5853e6992e7f151d490cd3f6/5a9530a1d6cd0b42c48afb74/original/ginwos_poster_net_1.jpg,"poster of our film on Rwanda of today, 20 years after the genocide","<img src=""https://s3.amazonaws.com/assets.knackhq.com/assets/5853e6992e7f151d490cd3f6/5a95304523a6900e83fd3a69/thumb/dokubakuposter_250917.jpg"" />",https://s3.amazonaws.com/assets.knackhq.com/assets/5853e6992e7f151d490cd3f6/5a95304523a6900e83fd3a69/original/dokubakuposter_250917.jpg,poster of the doc FF in Baku,,,,,,,,,,"I have been doing film projects since early 2000. It is my passion and now, luckily, my job too. I have worked as set designer, costume designer, producer, animator. i directed few shorts and now i am working on a feature about my grandpa and his ticket to the moon. <br />my daily bread is documentary producing, i am mainly focusing on socio-political topics. <br />last year we have started a new independent doc film festival in Azerbaijan Doku Baku, i have curated the international section.",https://vimeo.com/110895099,trailer of the documentary God is not working on Sunday by Leona Goldstein<br />i have produced the film.,https://vimeo.com/144750223,trailer of the documentary Holy Cow by Imam Hasanov. <br />I was one of the producers. based on this experience we have started the initiative of Doku Baku IDFF - dokubaku.org,,Yes,02/27/2018 11:20,,Yes,"""I'm looking for hosts that are...   ""I'm searching for open calls that are...  ""I'm looking to get connected to someone that...""",https://www.humanhotel.com,No
02/27/2018 12:18,1167,W,Philipp Schwarzbauer,,Philipp,,Schwarzbauer,Philipp,Schwarzbauer,philschwarzbauer@gmail.com,asdqweW1167,active,"Member
Accounts
Accounts",,,", ",,,48,,"<img src=""https://s3.amazonaws.com/assets.knackhq.com/assets/5853e6992e7f151d490cd3f6/5a5daa58db68ae655a487afd/thumb/profileimagefiller.jpg"" />",https://s3.amazonaws.com/assets.knackhq.com/assets/5853e6992e7f151d490cd3f6/5a5daa58db68ae655a487afd/original/profileimagefiller.jpg,,,,Guest & Host,,,,,,,,,,,,,,,,,,,,,,,,,,,,,,,Yes,02/27/2018 12:18,,Yes,"""I'm looking for hosts that are...   ""I'm searching for open calls that are...  ""I'm looking to get connected to someone that...""",https://www.humanhotel.com,No
02/27/2018 12:36,1168,X,Florian Buettner,,Florian,,Buettner,Florian,Buettner,mail@florianbuettner.com,asdqweX1168,active,Member,Germany,Berlin,"Berlin, Germany",08/09/1980,,38,photographer,"<img src=""https://s3.amazonaws.com/assets.knackhq.com/assets/5853e6992e7f151d490cd3f6/5a95422fe57a700ee396501c/thumb/20141kopie.jpg"" />",https://s3.amazonaws.com/assets.knackhq.com/assets/5853e6992e7f151d490cd3f6/5a95422fe57a700ee396501c/original/20141kopie.jpg,,,https://www.instagram.com/florian__buettner/,Guest & Host,Email,Valeria Kadelski,,,www.florianbuettner.com,,,,,,,,,,,,,,,,,,,,,,,,,,Yes,02/27/2018 12:36,,Yes,"""I'm looking for hosts that are...   ""I'm searching for open calls that are...  ""I'm looking to get connected to someone that...""",https://www.humanhotel.com,No
02/27/2018 16:25,1169,Y,Claudia Corona,,Claudia,,Corona,Claudia,Corona,maisondeco11@gmail.com,asdqweY1169,active,Member,Italy,Catania,"Catania, Italy",26/12/1972,,45,Artist painter and owner of the B&B MaisonDecò,"<img src=""https://s3.amazonaws.com/assets.knackhq.com/assets/5853e6992e7f151d490cd3f6/5a95752a35cc8f0ed30aa874/thumb/fa38d4326301475ca381231e4a6fb44e.jpeg"" />",https://s3.amazonaws.com/assets.knackhq.com/assets/5853e6992e7f151d490cd3f6/5a95752a35cc8f0ed30aa874/original/fa38d4326301475ca381231e4a6fb44e.jpeg,39,3382566584,Facebook.com/claudia.corona2,Guest & Host,Social Media,,"I'm a multi-skilled painter who has been working on commission for 20 years, specializing in: <br />copies of famous artists, portraits, murals, trompe l'oeil, decorative work on furniture and restoration of ceilings. I live in Catania in the B&B that I created with my own hands, furnished with vintage pieces and of which every room is dedicated to a different illustrator. I'm a mother of two beautiful children and I love traveling and everything that has to do with the arts.","all art, traveling, socializing","https://www.flickr.com/photos/claudia_corona/ , www.bbmaisondecocatania.com","paint, photogaph, create","<img src=""https://s3.amazonaws.com/assets.knackhq.com/assets/5853e6992e7f151d490cd3f6/5a958e5566b9eb434ff86989/thumb/c.corona16.jpg"" />",https://s3.amazonaws.com/assets.knackhq.com/assets/5853e6992e7f151d490cd3f6/5a958e5566b9eb434ff86989/original/c.corona16.jpg,,"<img src=""https://s3.amazonaws.com/assets.knackhq.com/assets/5853e6992e7f151d490cd3f6/5a958e678666107f8b60b6af/thumb/c.corona18.jpg"" />",https://s3.amazonaws.com/assets.knackhq.com/assets/5853e6992e7f151d490cd3f6/5a958e678666107f8b60b6af/original/c.corona18.jpg,,"<img src=""https://s3.amazonaws.com/assets.knackhq.com/assets/5853e6992e7f151d490cd3f6/5a958e7267422214b656c858/thumb/c.corona21.jpg"" />",https://s3.amazonaws.com/assets.knackhq.com/assets/5853e6992e7f151d490cd3f6/5a958e7267422214b656c858/original/c.corona21.jpg,,"<img src=""https://s3.amazonaws.com/assets.knackhq.com/assets/5853e6992e7f151d490cd3f6/5a958e82cbbe49428a293fe5/thumb/c.corona37workinprogress.jpg"" />",https://s3.amazonaws.com/assets.knackhq.com/assets/5853e6992e7f151d490cd3f6/5a958e82cbbe49428a293fe5/original/c.corona37workinprogress.jpg,,"<img src=""https://s3.amazonaws.com/assets.knackhq.com/assets/5853e6992e7f151d490cd3f6/5a958ed828115e3e82beb273/thumb/c.coronaautoritratto.jpg"" />",https://s3.amazonaws.com/assets.knackhq.com/assets/5853e6992e7f151d490cd3f6/5a958ed828115e3e82beb273/original/c.coronaautoritratto.jpg,,"<img src=""https://s3.amazonaws.com/assets.knackhq.com/assets/5853e6992e7f151d490cd3f6/5a958eeed887804764b3074b/thumb/c.corona2.jpg"" />",https://s3.amazonaws.com/assets.knackhq.com/assets/5853e6992e7f151d490cd3f6/5a958eeed887804764b3074b/original/c.corona2.jpg,,"In my creations, I love to paint large spaces in small dimensions. The settings are real with surreal characters. I define my genre ""Fantastic Surrealism"". Small characters that wander inside the museums and remain enchanted in front of works whose subjects are not human but animal or insect. These come out of the paintings or are simply enormous sculptures. Another point of view.",,,,,,Yes,03/01/2018 22:51,,Yes,"""I'm looking for hosts that are...   ""I'm searching for open calls that are...  ""I'm looking to get connected to someone that...""",https://www.humanhotel.com,No
02/27/2018 16:27,1170,Z,Silke Werzinger,,Silke,,Werzinger,Silke,Werzinger,silke@silkewerzinger.de,asdqweZ1170,active,Member,Germany,Berlin,"Berlin, Germany",19/03/1983,,35,Illustrator,"<img src=""https://s3.amazonaws.com/assets.knackhq.com/assets/5853e6992e7f151d490cd3f6/5a9578bc86de65014c244b68/thumb/silke.jpg"" />",https://s3.amazonaws.com/assets.knackhq.com/assets/5853e6992e7f151d490cd3f6/5a9578bc86de65014c244b68/original/silke.jpg,,,www.instagram.com/silkewerzinger/,Guest only,Email,Valeria Kadelski,,,www.silkewerzinger.de,,,,,,,,,,,,,,,,,,,,,,,,,,Yes,02/27/2018 16:27,,Yes,"""I'm looking for hosts that are...   ""I'm searching for open calls that are...  ""I'm looking to get connected to someone that...""",https://www.humanhotel.com,No
02/27/2018 21:15,1171,A,ULTRACULTURAL OTHERS,,ULTRACULTURAL,,OTHERS,ULTRACULTURAL,OTHERS,ultraculturalothers@gmail.com,asdqweA1171,active,Member,United States of America (USA),New York,"New York, United States of America (USA)",23/02/2018,,0,Urban Mystery Skool,"<img src=""https://s3.amazonaws.com/assets.knackhq.com/assets/5853e6992e7f151d490cd3f6/5a95bdc377bb6614a5cb087f/thumb/logothumb.jpg"" />",https://s3.amazonaws.com/assets.knackhq.com/assets/5853e6992e7f151d490cd3f6/5a95bdc377bb6614a5cb087f/original/logothumb.jpg,,7072180753,https://www.facebook.com/pg/ultraculturalothers,Host only,,,"ULTRACULTURAL OTHERS<br />URBAN MYSTERY SKOOL<br /><br />A mystical self-study and wellness immersive for interdisciplinary creatives, post-studio artists, yung shamans, urban monks, queers, buddha babes, punk/eco/hip hop feminists, rap ninjas and radical Others.<br /><br />Hosted by High Prieztezz Or Nah & Undakova in Manhattan’s Lower East Side with Go! Push Pops and rotating guest faculty",#art #mysticism #shamanism,ultraculturalothers.ontrapages.com,#wellness #hiphopyoga #art,"<img src=""https://s3.amazonaws.com/assets.knackhq.com/assets/5853e6992e7f151d490cd3f6/5a95be5e6087ab625bab87c0/thumb/ultraculturalothers.jpg"" />",https://s3.amazonaws.com/assets.knackhq.com/assets/5853e6992e7f151d490cd3f6/5a95be5e6087ab625bab87c0/original/ultraculturalothers.jpg,,,,,,,,,,,,,,,,,"As a collaborative model at the frontlines of an urban spiritual renaissance, ULTRACULTURAL OTHERS is an intentional community and wellness immersive program combining the best of the artist residency, spiritual retreat, shamanic initiation, alternative education platform and alternative community. <br />",https://www.youtube.com/watch?v=pY4USPlHZ8A,"The official UNDAKOVA ""Earth Dawgs"" (Lunar New Year) freestyle remixed to Drake instrumentals ""God's Plan"" (by Boi-1da) and ""Too Much"" (Unlikely Futures rework)<br /><br />Produced (2018) by ULTRACULTURAL OTHERS: Urban Mystery Skool in collaboration with Kelly Shaw Willman<br /><br />Shot in Chinatown, Manhhattan during Lunar New Year festivities - Year of the Earth Dog<br /><br />",https://youtu.be/0mURJW_dLJs,"SHIVA'S LINGA भगवान शिव <br />A Performative Lecture & freestyle by Or Nah & UNDAKOVA of ULTRACULTURAL OTHERS <br /><br />November 5, 2017 during TRANS-ville, a feminist performance art salon curated by Milk and Night at Catinca Tabacaru, New York, NY",,Yes,02/27/2018 21:29,,Yes,"""I'm looking for hosts that are...   ""I'm searching for open calls that are...  ""I'm looking to get connected to someone that...""",https://www.humanhotel.com,No
02/27/2018 22:36,1172,B,lilo on paper,,lilo,,on paper,lilo,on paper,studio@dollies.dk,asdqweB1172,active,Member,United States of America (USA),North Hollywood,"North Hollywood, United States of America (USA)",30/09/1976,,42,artist,"<img src=""https://s3.amazonaws.com/assets.knackhq.com/assets/5853e6992e7f151d490cd3f6/5a95cf49e10533415c99a04f/thumb/goals.jpg"" />",https://s3.amazonaws.com/assets.knackhq.com/assets/5853e6992e7f151d490cd3f6/5a95cf49e10533415c99a04f/original/goals.jpg,,,https://www.instagram.com/liloonpaper/,Guest & Host,Email,Valeria Kadelski,,,https://www.instagram.com/liloonpaper/,,,,,,,,,,,,,,,,,,,,,,,,,,Yes,02/27/2018 22:36,,Yes,"""I'm looking for hosts that are...   ""I'm searching for open calls that are...  ""I'm looking to get connected to someone that...""",https://www.humanhotel.com,No
02/27/2018 22:37,1173,C,Catherine Zanev,,Catherine,,Zanev,Catherine,Zanev,c.zanev@gmx.de,asdqweC1173,active,Member,,,", ",,,48,,"<img src=""https://s3.amazonaws.com/assets.knackhq.com/assets/5853e6992e7f151d490cd3f6/5a5daa58db68ae655a487afd/thumb/profileimagefiller.jpg"" />",https://s3.amazonaws.com/assets.knackhq.com/assets/5853e6992e7f151d490cd3f6/5a5daa58db68ae655a487afd/original/profileimagefiller.jpg,,,,Guest & Host,,,,,,,,,,,,,,,,,,,,,,,,,,,,,,,Yes,02/27/2018 22:37,,No,"""I'm looking for hosts that are...   ""I'm searching for open calls that are...  ""I'm looking to get connected to someone that...""",https://www.humanhotel.com,No
02/28/2017 2:49,1174,D,Loreta Gandolfi,,Loreta,,Gandolfi,Loreta,Gandolfi,loretagandolfi@icloud.com,asdqweD1174,active,Member,United Kingdom (UK),Cambridge,"Cambridge, United Kingdom (UK)",21/06/1972,44,46,Programming Consultant and Film Critic,"<img src=""https://s3.amazonaws.com/assets.knackhq.com/assets/5853e6992e7f151d490cd3f6/58b5715b9515255d25bcfa00/thumb/loretagandolfipicture.jpg"" />",https://s3.amazonaws.com/assets.knackhq.com/assets/5853e6992e7f151d490cd3f6/58b5715b9515255d25bcfa00/original/loretagandolfipicture.jpg,44,7501555650,@GandolfiLoreta,Guest only,Partner event,CPH:DOX,I do research in film studies and collaborate as a film curator with film institutions.,"film, art, music",http://www.mml.cam.ac.uk/film/people/loreta-gandolfi,"film curator, film programmer, film scholar",,,,,,,,,,,,,,,,,,,"I carry out research in film studies, teach film and curate line-ups for film festivals.",,,,,,,02/05/2018 12:21,,,,https://www.humanhotel.com,
02/28/2017 4:33,1175,E,Ninka Eijsink,,Ninka,,Eijsink,Ninka,Eijsink,mail@eyethink.nl,asdqweE1175,active,Member,Netherlands,Amsterdam,"Amsterdam, Netherlands",01/12/1979,39,39,filmmaker,"<img src=""https://s3.amazonaws.com/assets.knackhq.com/assets/5853e6992e7f151d490cd3f6/58b589bdbbe941872534344e/thumb/nienke_au2012.jpg"" />",https://s3.amazonaws.com/assets.knackhq.com/assets/5853e6992e7f151d490cd3f6/58b589bdbbe941872534344e/original/nienke_au2012.jpg,31,3162896915,xhttps://www.facebook.com/nienke.eijsink,Guest & Host,Email,Alessandra Peroncini,"hi, my name is Ninka and I am a 38-year-old freelance filmmaker from Amsterdam. In my spare time I love watching movies with my 12-year-old son Raven. I also like to travel, play a mean game of mediocre volleyball and spend loads of time working on my ‘ urban jungle’ (I am a bit of a plant rescue girl). Raven loves lego and mats (for some reason I don't understand) and collects comic books.","open-minded, sense of humor, communicative",www.eyethink.nl,"documentary, art, human interest","<img src=""https://s3.amazonaws.com/assets.knackhq.com/assets/5853e6992e7f151d490cd3f6/58e38fc26d7fd75882f8c35f/thumb/manbijthond.jpg"" />",https://s3.amazonaws.com/assets.knackhq.com/assets/5853e6992e7f151d490cd3f6/58e38fc26d7fd75882f8c35f/original/manbijthond.jpg,"Ok, so this is usually not my style of directing (pointing and telling people what to do), but you try filming with fifty guys in uniform who are twice your age :-)","<img src=""https://s3.amazonaws.com/assets.knackhq.com/assets/5853e6992e7f151d490cd3f6/58e39008f2d65757c40472f6/thumb/jeepfilming.jpg"" />",https://s3.amazonaws.com/assets.knackhq.com/assets/5853e6992e7f151d490cd3f6/58e39008f2d65757c40472f6/original/jeepfilming.jpg,"Filming from the back of a jeep in Thailand, check off bucket list!","<img src=""https://s3.amazonaws.com/assets.knackhq.com/assets/5853e6992e7f151d490cd3f6/58e39241939d15581077cca1/thumb/fanposter.jpg"" />",https://s3.amazonaws.com/assets.knackhq.com/assets/5853e6992e7f151d490cd3f6/58e39241939d15581077cca1/original/fanposter.jpg,My coming-of-age documentary about the search of my childhood idol: doctor Chris from the Australian TV series 'Flying Doctors',,,,,,,,,,"I have a background in art (bachelor and master of art) and work as a freelance director for documentary film and human interest TV. Depending on the job (and the budget of the production) I also write scenario's, do my own filming (self shooting director) and I edit my own material.",,,,,50% booking off from first trip,,11/07/2017 14:03,,,,https://www.humanhotel.com,
02/28/2017 6:25,1176,F,AD Lewis,,AD,,Lewis,AD,Lewis,a.d.seanlewis@gmail.com,asdqweF1176,active,Member,United States of America (USA),Chicago,"Chicago, United States of America (USA)",,26,48,data & policy stuff,"<img src=""https://s3.amazonaws.com/assets.knackhq.com/assets/5853e6992e7f151d490cd3f6/58b5a43f813789d82733b0c6/thumb/ad_aymar.jpg"" />",https://s3.amazonaws.com/assets.knackhq.com/assets/5853e6992e7f151d490cd3f6/58b5a43f813789d82733b0c6/original/ad_aymar.jpg,,,@adseanlewis,Guest & Host,Word of mouth,Jen Delos Reyes,,,https://www.linkedin.com/in/a-d-sean-lewis,,,,,,,,,,,,,,,,,,,,,,,,,50% booking off from first trip,,,,,,https://www.humanhotel.com,
02/28/2017 8:33,1177,G,Omar Vargas,,Omar,,Vargas,Omar,Vargas,vomar7824@gmail.com,asdqweG1177,active,Member,United States of America (USA),Los Angeles,"Los Angeles, United States of America (USA)",10/03/2018,23,0,Urban Futures Lab Fellow,"<img src=""https://s3.amazonaws.com/assets.knackhq.com/assets/5853e6992e7f151d490cd3f6/58b5bcfd3f77aa3925f01e44/thumb/16300336_10154755882955199_8642910747359754404_o.jpg"" />",https://s3.amazonaws.com/assets.knackhq.com/assets/5853e6992e7f151d490cd3f6/58b5bcfd3f77aa3925f01e44/original/16300336_10154755882955199_8642910747359754404_o.jpg,,3237198230,@omarozymandias (instagram),Guest only,Email,Mike Blockstein,"I love to meet new, interesting people and I love bikes!","spontaneous, adventurous, kind",http://publicmattersgroup.com/initiatives/ovargasportfolio/,"engagement, art, community",,,,,,,,,,,,,,,,,,,"Urban Futures Lab is a two-year fellowship training and employment program for young adults (aged 18-26) from low-income Los Angeles communities of color. The Lab trains Fellows as creative community problem solvers and catalysts for change. In project-based teams, Fellows work on Public Matters’ neighborhood-based projects. They work on projects addressing community health, neighborhood identity, and community and cultural economic development directly with Public Matters staff that act as project leaders and mentors. They participate in expert-led workshops and trainings. Fellows explore themes and topics through modules that build their knowledge, skills and networks. The Fellows’ “Supper Club” is a monthly networking and exchange dinner with experts in the module theme.",,,,,,,03/11/2018 3:04,,,,https://www.humanhotel.com,
02/28/2017 9:17,1178,H,Andy Alvarez,,Andy,,Alvarez,Andy,Alvarez,andy@publicmattersgroup.com,asdqweH1178,active,Member,United States of America (USA),Los Angeles,"Los Angeles, United States of America (USA)",,22,48,Artist/Entreprenuer/Photographer,"<img src=""https://s3.amazonaws.com/assets.knackhq.com/assets/5853e6992e7f151d490cd3f6/58c8348de0a4ff2727aa2c85/thumb/aqhyaqg.jpg"" />",https://s3.amazonaws.com/assets.knackhq.com/assets/5853e6992e7f151d490cd3f6/58c8348de0a4ff2727aa2c85/original/aqhyaqg.jpg,1,3235402186,@_andresalejandro (instagram),Guest only,Word of mouth,CCI,"Andy Alvarez first worked with Public Matters as a student at East Los Angeles Renaissance Academy (ELARA) in 2010 as part of Proyecto MercadoFRESCO, funded by the National Heart, Lung and Blood Institute through UCLA’s Center for Population Health and Health Disparities. Upon graduating from ELARA, Andy continued with the project as a Community Liaison. In these roles and others, Andy honed his skills as a young educator, project leader, visual artist, public speaker, and community interviewer. Andy is an “entrepreneur of ideas” who is open to failure. He’s a hands-on learner in service of building social awareness in communities.","Social, Creative, Funny",http://publicmattersgroup.com/walkingforward-backwards/,"Social Enterprise, Community&Civic Engagement, Empowering ","<img src=""https://s3.amazonaws.com/assets.knackhq.com/assets/5853e6992e7f151d490cd3f6/58c835153b3a03271e868502/thumb/img_0294.jpg"" />",https://s3.amazonaws.com/assets.knackhq.com/assets/5853e6992e7f151d490cd3f6/58c835153b3a03271e868502/original/img_0294.jpg,,"<img src=""https://s3.amazonaws.com/assets.knackhq.com/assets/5853e6992e7f151d490cd3f6/58c835240c3b313087944009/thumb/img_1165.jpg"" />",https://s3.amazonaws.com/assets.knackhq.com/assets/5853e6992e7f151d490cd3f6/58c835240c3b313087944009/original/img_1165.jpg,,"<img src=""https://s3.amazonaws.com/assets.knackhq.com/assets/5853e6992e7f151d490cd3f6/58c835320b59cb27236daae7/thumb/img_1157.jpg"" />",https://s3.amazonaws.com/assets.knackhq.com/assets/5853e6992e7f151d490cd3f6/58c835320b59cb27236daae7/original/img_1157.jpg,,,,,,,,,,,"Public Matters is an award-winning, interdisciplinary, Los Angeles-based social enterprise that designs and implements long-term, place-based, socially engaged art, media, education, and civic engagement projects that advance social change.<br />We are a multi-generational team of artists, educators, media professionals, and Fellows working together across disciplinary boundaries to build creative, economic, and social capital in communities.<br />",,,,,,,,,,,https://www.humanhotel.com,
02/28/2017 10:12,1179,I,Cole Pierce,,Cole,,Pierce,Cole,Pierce,pierce.cole@gmail.com,asdqweI1179,active,Member,United States of America (USA),Chicago,"Chicago, United States of America (USA)",,39,48,Artist,"<img src=""https://s3.amazonaws.com/assets.knackhq.com/assets/5853e6992e7f151d490cd3f6/58b5d766bbe941872534c10f/thumb/14045586_10210636021555969_9128388012465781113_n.jpg"" />",https://s3.amazonaws.com/assets.knackhq.com/assets/5853e6992e7f151d490cd3f6/58b5d766bbe941872534c10f/original/14045586_10210636021555969_9128388012465781113_n.jpg,,,https://www.instagram.com/coleypierce/,Guest & Host,Email,Martin Rosengaard,,,http://www.colepierce.com/,,,,,,,,,,,,,,,,,,,,,,,,,50% booking off from first trip,,,,,,https://www.humanhotel.com,
02/28/2017 20:52,1180,J,Scott Kennedy,,Scott,,Kennedy,Scott,Kennedy,scott@blackvalleyfilms.com,asdqweJ1180,active,Member,United States of America (USA),Los Angeles,"Los Angeles, United States of America (USA)",,51,48,filmmaker,"<img src=""https://s3.amazonaws.com/assets.knackhq.com/assets/5853e6992e7f151d490cd3f6/58b66f7ab2b1772f90454342/thumb/scotthamiltonkennedyfbselfie2016.jpg"" />",https://s3.amazonaws.com/assets.knackhq.com/assets/5853e6992e7f151d490cd3f6/58b66f7ab2b1772f90454342/original/scotthamiltonkennedyfbselfie2016.jpg,,,@foodevomovie,Guest only,Word of mouth,CPH: DOX,,...,blackvalleyfilms.com,...,,,,,,,,,,,,,,,,,,,,,,,,,,,,,,https://www.humanhotel.com,
02/28/2017 23:46,1181,K,jesus margallo,,jesus,,margallo,jesus,margallo,chusmargallo@gmail.com,asdqweK1181,active,Member,Spain,Barcelona,"Barcelona, Spain",,32,48,designer,"<img src=""https://s3.amazonaws.com/assets.knackhq.com/assets/5853e6992e7f151d490cd3f6/58b698539be79827f04d143f/thumb/juox26p.jpg"" />",https://s3.amazonaws.com/assets.knackhq.com/assets/5853e6992e7f151d490cd3f6/58b698539be79827f04d143f/original/juox26p.jpg,,,https://www.instagram.com/asrudeaspossible/,Guest & Host,Email,Laure-Anne Deltort,,,chusmargallo.com,,,,,,,,,,,,,,,,,,,,,,,,,50% booking off from first trip,,,,,,https://www.humanhotel.com,
02/28/2018 10:42,1182,L,Markus Wirthmann,,Markus,,Wirthmann,Markus,Wirthmann,markus.wirthmann@berlin.de,asdqweL1182,active,Member,Germany,Berlin,"Berlin, Germany",11/06/1963,,55,Artist,"<img src=""https://s3.amazonaws.com/assets.knackhq.com/assets/5853e6992e7f151d490cd3f6/5a9678d80a5a02149afd706d/thumb/avatar.jpg"" />",https://s3.amazonaws.com/assets.knackhq.com/assets/5853e6992e7f151d490cd3f6/5a9678d80a5a02149afd706d/original/avatar.jpg,49,0163 6846382,https://www.facebook.com/markus.wirthmann,Guest & Host,Email,Valeria Kadelski,I´m human,"art, aquaponics, bicycling",http://www.markus-wirthmann.de,"installation art, sculpture, conceptual art",,,,,,,,,,,,,,,,,,,"In my work, I materialise a cause-and-effect-correlation, which I exemplify by the use of volatile materials. Controlled chance is a very important element in my artistic work, which can be read as experimental arrangements, within which external influences, principles and chance is given the possibility to create works of art. (Does this make sense?)",,,,,,Yes,05/30/2018 18:02,,Yes,"""I'm looking for hosts that are...   ""I'm searching for open calls that are...  ""I'm looking to get connected to someone that...""",https://www.humanhotel.com,No
02/28/2018 10:59,1183,M,Daniel Lergon,,Daniel,,Lergon,Daniel,Lergon,daniellergon@gmx.de,asdqweM1183,active,Member,Germany,Berlin,"Berlin, Germany",10/10/1978,,40,artist,"<img src=""https://s3.amazonaws.com/assets.knackhq.com/assets/5853e6992e7f151d490cd3f6/5a967c8186de65014c258658/thumb/_mg_8832.jpg"" />",https://s3.amazonaws.com/assets.knackhq.com/assets/5853e6992e7f151d490cd3f6/5a967c8186de65014c258658/original/_mg_8832.jpg,49,17630359559,instagram/daniellergon,Guest only,Email,Valeria Kadelski,I am an artist / painter.,"#art, #poetry, #running",https://www.artmap.com//daniellergon,#art#painting#lightandmatter,"<img src=""https://s3.amazonaws.com/assets.knackhq.com/assets/5853e6992e7f151d490cd3f6/5a968318a5c337527e6a4d4c/thumb/1albedo2007galerieandreashuberwien.jpg"" />",https://s3.amazonaws.com/assets.knackhq.com/assets/5853e6992e7f151d490cd3f6/5a968318a5c337527e6a4d4c/original/1albedo2007galerieandreashuberwien.jpg,"""Albedo"", 2007, Galerie Andreas Huber, Wien","<img src=""https://s3.amazonaws.com/assets.knackhq.com/assets/5853e6992e7f151d490cd3f6/5a96834f36589d14ce28bd39/thumb/5coldfire2008aereastockholm.jpg"" />",https://s3.amazonaws.com/assets.knackhq.com/assets/5853e6992e7f151d490cd3f6/5a96834f36589d14ce28bd39/original/5coldfire2008aereastockholm.jpg,"""cold fire"", 2008, Galerie Christian Larsen, Stockholm","<img src=""https://s3.amazonaws.com/assets.knackhq.com/assets/5853e6992e7f151d490cd3f6/5a968261ed5ba37ece66c9b1/thumb/103rdeditionofmediationsbiennalemuzeumnarodowepoznan2012.jpg"" />",https://s3.amazonaws.com/assets.knackhq.com/assets/5853e6992e7f151d490cd3f6/5a968261ed5ba37ece66c9b1/original/103rdeditionofmediationsbiennalemuzeumnarodowepoznan2012.jpg,"untitled, 2008, lacquer on retroreflective fabric, 400x720cm","<img src=""https://s3.amazonaws.com/assets.knackhq.com/assets/5853e6992e7f151d490cd3f6/5a96832acd212414c75b0630/thumb/15elements2010alminerechgallerybrusselsmetalonwall.jpg"" />",https://s3.amazonaws.com/assets.knackhq.com/assets/5853e6992e7f151d490cd3f6/5a96832acd212414c75b0630/original/15elements2010alminerechgallerybrusselsmetalonwall.jpg,"""Elements"", Almine Rech Gallery, Brussels","<img src=""https://s3.amazonaws.com/assets.knackhq.com/assets/5853e6992e7f151d490cd3f6/5a9682f6ed443814ab998068/thumb/27untitled2015metalonpaper142x177cm.jpg"" />",https://s3.amazonaws.com/assets.knackhq.com/assets/5853e6992e7f151d490cd3f6/5a9682f6ed443814ab998068/original/27untitled2015metalonpaper142x177cm.jpg,"untitled, 2015, metal on paper, 177x242cm","<img src=""https://s3.amazonaws.com/assets.knackhq.com/assets/5853e6992e7f151d490cd3f6/5a96837282180d398701c797/thumb/37untitledoiloncanvas200x200cm.jpg"" />",https://s3.amazonaws.com/assets.knackhq.com/assets/5853e6992e7f151d490cd3f6/5a96837282180d398701c797/original/37untitledoiloncanvas200x200cm.jpg,"untitled, 2017, oil on canvas, 200x200cm",I am a painter...,,,,,,Yes,02/28/2018 12:17,,Yes,"""I'm looking for hosts that are...   ""I'm searching for open calls that are...  ""I'm looking to get connected to someone that...""",https://www.humanhotel.com,No
02/28/2018 17:24,1184,N,Isabella  Rizza,,Isabella,,Rizza,Isabella,Rizza,isabellarizza@hotmail.com,asdqweN1184,active,Member,Italy,Catania,"Catania, Italy",28/01/1965,,53,Costume designer,"<img src=""https://s3.amazonaws.com/assets.knackhq.com/assets/5853e6992e7f151d490cd3f6/5a96d7a1cd212414c75b7257/thumb/c863524c40004dcfa8b80b5273d2d4ab.jpeg"" />",https://s3.amazonaws.com/assets.knackhq.com/assets/5853e6992e7f151d490cd3f6/5a96d7a1cd212414c75b7257/original/c863524c40004dcfa8b80b5273d2d4ab.jpeg,39,3476360680,isabellarizza.facebook.com,Guest & Host,Email,"Claudia Corona , Catania ",I’m costume designer for cinema and theater.<br />Living between Rome and Catania,"Cinema, Travel, Art",www.imdb.com,"Drawing,photograph, painter ","<img src=""https://s3.amazonaws.com/assets.knackhq.com/assets/5853e6992e7f151d490cd3f6/5a96e5c44e9e1701c265ce2a/thumb/1b0a78ac79bb48728473cbac7ce8c385.jpeg"" />",https://s3.amazonaws.com/assets.knackhq.com/assets/5853e6992e7f151d490cd3f6/5a96e5c44e9e1701c265ce2a/original/1b0a78ac79bb48728473cbac7ce8c385.jpeg,Don’t movie (2004),"<img src=""https://s3.amazonaws.com/assets.knackhq.com/assets/5853e6992e7f151d490cd3f6/5a96e638fa22d461db97aaa1/thumb/e24d8e35838e4639b7fec22ebc6251dc.jpeg"" />",https://s3.amazonaws.com/assets.knackhq.com/assets/5853e6992e7f151d490cd3f6/5a96e638fa22d461db97aaa1/original/e24d8e35838e4639b7fec22ebc6251dc.jpeg,Fortunata (20017),,,,,,,,,,,,,"I like drawing, research and study fashion for cinema and theater ",,,,,,Yes,02/28/2018 18:33,,No,"""I'm looking for hosts that are...   ""I'm searching for open calls that are...  ""I'm looking to get connected to someone that...""",https://www.humanhotel.com,No
03/01/2017 0:26,1185,O,Human Hotel,,Human,,Hotel,Human,Hotel,humanhotel@gmail.com,asdqweO1185,active,Member,Denmark,Copenhagen,"Copenhagen, Denmark",,30,48,Intern,"<img src=""https://s3.amazonaws.com/assets.knackhq.com/assets/5853e6992e7f151d490cd3f6/58b6a1d0ab494425eece7125/thumb/img_8683.jpg"" />",https://s3.amazonaws.com/assets.knackhq.com/assets/5853e6992e7f151d490cd3f6/58b6a1d0ab494425eece7125/original/img_8683.jpg,,,https://www.facebook.com/humanhotel1/?fref=ts,Guest & Host,Word of mouth,office,CIAO,....,https://www.facebook.com/humanhotel1/?fref=ts,....,"<img src=""https://s3.amazonaws.com/assets.knackhq.com/assets/5853e6992e7f151d490cd3f6/59158e705da644316ebf8889/thumb/download.png"" />",https://s3.amazonaws.com/assets.knackhq.com/assets/5853e6992e7f151d490cd3f6/59158e705da644316ebf8889/original/download.png,,,,,,,,,,,,,,,,,...,,,,,,,05/12/2017 6:29,,,,https://www.humanhotel.com,
03/01/2017 0:45,1186,P,Sandra Tebbe,,Sandra,,Tebbe,Sandra,Tebbe,sandratebbe@yahoo.de,asdqweP1186,active,Member,Germany,Berlin,"Berlin, Germany",,38,48,Exhibition-Design,"<img src=""https://s3.amazonaws.com/assets.knackhq.com/assets/5853e6992e7f151d490cd3f6/58b6a6507c2371282a0d64bd/thumb/1185918_761274580550281_1370334401_n.jpg"" />",https://s3.amazonaws.com/assets.knackhq.com/assets/5853e6992e7f151d490cd3f6/58b6a6507c2371282a0d64bd/original/1185918_761274580550281_1370334401_n.jpg,,,https://www.facebook.com/ritz.ginger,Guest only,Word of mouth,Monopol Magazine,,,sandratebbe.com,,,,,,,,,,,,,,,,,,,,,,,,,,,,,,,https://www.humanhotel.com,
03/01/2017 2:35,1187,Q,Greetje Mulder,,Greetje,,Mulder,Greetje,Mulder,info@greetmulder.com,asdqweQ1187,active,Member,Netherlands,Amsterdam,"Amsterdam, Netherlands",,35,48,Photographer,"<img src=""https://s3.amazonaws.com/assets.knackhq.com/assets/5853e6992e7f151d490cd3f6/58b6b35187c2db2adc849e47/thumb/greetjemulder1of1.jpg"" />",https://s3.amazonaws.com/assets.knackhq.com/assets/5853e6992e7f151d490cd3f6/58b6b35187c2db2adc849e47/original/greetjemulder1of1.jpg,31,,https://www.linkedin.com/in/greetjemulder/,Guest & Host,Email,,,...,https://www.linkedin.com/in/greetjemulder/,..,,,,,,,,,,,,,,,,,,,,,,,,50% booking off from first trip,,,,,,https://www.humanhotel.com,
03/01/2017 7:36,1188,R,Karen Toftegaard,,Karen,,Toftegaard,Karen,Toftegaard,karen@karentoftegaard.dk,asdqweR1188,active,Member,Denmark,Copenhagen,"Copenhagen, Denmark",,42,48,Cultural Communicator and Mentor,"<img src=""https://s3.amazonaws.com/assets.knackhq.com/assets/5853e6992e7f151d490cd3f6/58b7069d89dd5e25f8d7e945/thumb/img_20170223_195826_784.jpg"" />",https://s3.amazonaws.com/assets.knackhq.com/assets/5853e6992e7f151d490cd3f6/58b7069d89dd5e25f8d7e945/original/img_20170223_195826_784.jpg,45,2298 6743,Facebook.com/karentoftegaard,Host only,Social Media,,I have been working in the area of performing arts for a lot of years. However lately some of my very good friends in documentary film has attracted me into this field as well.,performing arts documentary,Www.karentoftegaard.dk,performing arts documentary,,,,,,,,,,,,,,,,,,,,,,,,,,,,,,https://www.humanhotel.com,
03/01/2018 11:44,1189,S,Katja Aufleger,,Katja,,Aufleger,Katja,Aufleger,katja.aufleger@gmail.com,asdqweS1189,active,Member,Germany,Berlin,"Berlin, Germany",27/03/1983,,35,Artist,"<img src=""https://s3.amazonaws.com/assets.knackhq.com/assets/5853e6992e7f151d490cd3f6/5a97d86595ba7e6dab21a09a/thumb/dsc_94341.jpg"" />",https://s3.amazonaws.com/assets.knackhq.com/assets/5853e6992e7f151d490cd3f6/5a97d86595ba7e6dab21a09a/original/dsc_94341.jpg,,,@katja.aufleger (instagram),Guest only,Email,Valeria Kadelski,,,www.katja-aufleger.de,,,,,,,,,,,,,,,,,,,,,,,,,,Yes,03/01/2018 11:44,,Yes,"""I'm looking for hosts that are...   ""I'm searching for open calls that are...  ""I'm looking to get connected to someone that...""",https://www.humanhotel.com,No
03/01/2018 15:50,1190,T,Rosalio  Vargas,,Rosalio,,Vargas,Rosalio,Vargas,vargasrosalio@gmail.com,asdqweT1190,active,Member,"United States of America (USA), Australia",Los Gatos,"Los Gatos , United States of America (USA), Australia",22/07/1985,,33,Artist,"<img src=""https://s3.amazonaws.com/assets.knackhq.com/assets/5853e6992e7f151d490cd3f6/5a9811b74e772f14b270ec48/thumb/img_1266.png"" />",https://s3.amazonaws.com/assets.knackhq.com/assets/5853e6992e7f151d490cd3f6/5a9811b74e772f14b270ec48/original/img_1266.png,1,4089178042,Facebook.com/sirrosalio,Guest only,Email,Valeria Kadelski,"Loner heartist striving for education revolution through art, innovative thinking and embracing vulnerability. ",Expirence art value,http://linkedin.com/in/rosalio-vargas-a451ba83,Value experience art,"<img src=""https://s3.amazonaws.com/assets.knackhq.com/assets/5853e6992e7f151d490cd3f6/5a981425dc9fff14d25deadd/thumb/img_8099.jpg"" />",https://s3.amazonaws.com/assets.knackhq.com/assets/5853e6992e7f151d490cd3f6/5a981425dc9fff14d25deadd/original/img_8099.jpg,Play,"<img src=""https://s3.amazonaws.com/assets.knackhq.com/assets/5853e6992e7f151d490cd3f6/5a98143c72d4cc14cb33c0c0/thumb/img_4581.png"" />",https://s3.amazonaws.com/assets.knackhq.com/assets/5853e6992e7f151d490cd3f6/5a98143c72d4cc14cb33c0c0/original/img_4581.png,Male collaboration,"<img src=""https://s3.amazonaws.com/assets.knackhq.com/assets/5853e6992e7f151d490cd3f6/5a98145087777a14bc508935/thumb/img_5586.jpg"" />",https://s3.amazonaws.com/assets.knackhq.com/assets/5853e6992e7f151d490cd3f6/5a98145087777a14bc508935/original/img_5586.jpg,Symantec company logo,"<img src=""https://s3.amazonaws.com/assets.knackhq.com/assets/5853e6992e7f151d490cd3f6/5a981469ed78a037d1752fe6/thumb/ros_between_the_lines.jpg"" />",https://s3.amazonaws.com/assets.knackhq.com/assets/5853e6992e7f151d490cd3f6/5a981469ed78a037d1752fe6/original/ros_between_the_lines.jpg,Unconditional love,"<img src=""https://s3.amazonaws.com/assets.knackhq.com/assets/5853e6992e7f151d490cd3f6/5a98146cbff25209af878dd4/thumb/img_1725.png"" />",https://s3.amazonaws.com/assets.knackhq.com/assets/5853e6992e7f151d490cd3f6/5a98146cbff25209af878dd4/original/img_1725.png,Circle is life,"<img src=""https://s3.amazonaws.com/assets.knackhq.com/assets/5853e6992e7f151d490cd3f6/5a98147546da42094615b383/thumb/img_1727.png"" />",https://s3.amazonaws.com/assets.knackhq.com/assets/5853e6992e7f151d490cd3f6/5a98147546da42094615b383/original/img_1727.png,Pleased to be present,"I work with water and energy, combining the two with sounds of joy to the particular client, we make together a layer that's one of a kind collaborative art on which i mask later and create a story around it clearly.<br /><br />Play energetic art ",,,,,,Yes,03/01/2018 15:50,,Yes,"""I'm looking for hosts that are...   ""I'm searching for open calls that are...  ""I'm looking to get connected to someone that...""",https://www.humanhotel.com,No
03/01/2018 18:52,1191,U,alexandra friedman,,alexandra,,friedman,alexandra,friedman,afriedman@iscp-nyc.org,asdqweU1191,active,Member,United States of America (USA),Brooklyn,"Brooklyn, United States of America (USA)",11/01/1993,,25,Fine Arts,"<img src=""https://s3.amazonaws.com/assets.knackhq.com/assets/5853e6992e7f151d490cd3f6/5a983d8a5f08660b0d83c347/thumb/screenshot20170420at11.21.02am.png"" />",https://s3.amazonaws.com/assets.knackhq.com/assets/5853e6992e7f151d490cd3f6/5a983d8a5f08660b0d83c347/original/screenshot20170420at11.21.02am.png,,,@ISCP_NYC,Guest & Host,Email,A colleague,,,www.iscp-nyc.org,,,,,,,,,,,,,,,,,,,,,,,,,,Yes,03/01/2018 18:52,,Yes,"""I'm looking for hosts that are...   ""I'm searching for open calls that are...  ""I'm looking to get connected to someone that...""",https://www.humanhotel.com,No
03/01/2018 20:26,1192,V,Alexandra Dillon,,Alexandra,,Dillon,Alexandra,Dillon,info@alexandradillon.com,asdqweV1192,active,Member,United States of America (USA),Los Angeles,"Los Angeles, United States of America (USA)",19/03/1960,,58,artist,"<img src=""https://s3.amazonaws.com/assets.knackhq.com/assets/5853e6992e7f151d490cd3f6/5a985355bff25209af87efa1/thumb/portia_victoria2500.jpg"" />",https://s3.amazonaws.com/assets.knackhq.com/assets/5853e6992e7f151d490cd3f6/5a985355bff25209af87efa1/original/portia_victoria2500.jpg,,,@alexandradillonartist,Guest only,Email,Valeria Kadelski,,,www.alexandradillon.com,,,,,,,,,,,,,,,,,,,,,,,,,,Yes,03/01/2018 20:26,,Yes,"""I'm looking for hosts that are...   ""I'm searching for open calls that are...  ""I'm looking to get connected to someone that...""",https://www.humanhotel.com,No
03/01/2018 21:54,1193,W,Akitoshi Honda,,Akitoshi,,Honda,Akitoshi,Honda,service2de@yahoo.de,asdqweW1193,active,Member,Germany,berlin,"berlin, Germany",01/01/1970,,48,single,"<img src=""https://s3.amazonaws.com/assets.knackhq.com/assets/5853e6992e7f151d490cd3f6/5a98680bb0ef5524859bc717/thumb/ahondaphoto1.jpg"" />",https://s3.amazonaws.com/assets.knackhq.com/assets/5853e6992e7f151d490cd3f6/5a98680bb0ef5524859bc717/original/ahondaphoto1.jpg,49,15115500992,@akitoshihonda,Guest only,Wooloo.org Newsletter,,"I'm artist, practicing in new media art area. recently also working as research fellow in Urban planning area. outdoor activity and photograph is recent hobby.","art, photograph, nature",www.ahonda.org,"new media art, technology, consciousness","<img src=""https://s3.amazonaws.com/assets.knackhq.com/assets/5853e6992e7f151d490cd3f6/5a986ad90836990764be8491/thumb/renewsbig.jpg"" />",https://s3.amazonaws.com/assets.knackhq.com/assets/5853e6992e7f151d490cd3f6/5a986ad90836990764be8491/original/renewsbig.jpg,Re:newspapers,,,,,,,,,,,,,,,,"I do new media art. Programming is always my artistic material/tool. I'm interested in human's consciousness to their environment, social structure. ",,,,,,Yes,03/01/2018 21:54,,Yes,"""I'm looking for hosts that are...   ""I'm searching for open calls that are...  ""I'm looking to get connected to someone that...""",https://www.humanhotel.com,No
03/02/2017 7:55,1194,X,Kristof Bilsen,,Kristof,,Bilsen,Kristof,Bilsen,kristof@kristofbilsen.com,asdqweX1194,active,Member,,Antwerp,"Antwerp, ",,36,48,Filmmaker,"<img src=""https://s3.amazonaws.com/assets.knackhq.com/assets/5853e6992e7f151d490cd3f6/58b81616f291e349bb2227e2/thumb/1314_10207349546033345_7803801042457416385_n.jpg"" />",https://s3.amazonaws.com/assets.knackhq.com/assets/5853e6992e7f151d490cd3f6/58b81616f291e349bb2227e2/original/1314_10207349546033345_7803801042457416385_n.jpg,,,https://www.facebook.com/kristof.bilsen,Guest & Host,Partner event,CPH:DOX,,,www.kristofbilsen.com,,,,,,,,,,,,,,,,,,,,,,,,,,,,,,,https://www.humanhotel.com,
03/02/2017 8:40,1195,Y,Felipe Albuquerque,,Felipe,,Albuquerque,Felipe,Albuquerque,contato@felipealbuquerque.com.br,asdqweY1195,active,Member,,Sorocaba,"Sorocaba, ",,31,48,Craftsman and Designer,"<img src=""https://s3.amazonaws.com/assets.knackhq.com/assets/5853e6992e7f151d490cd3f6/58b81ffcf329dd2f5fc8bc9b/thumb/2012031105.20.35.jpg"" />",https://s3.amazonaws.com/assets.knackhq.com/assets/5853e6992e7f151d490cd3f6/58b81ffcf329dd2f5fc8bc9b/original/2012031105.20.35.jpg,,,facebook.com/xilispe,Guest & Host,Email,Don't remember. :BGuess were yourselves.,,,instagram.com/feitoporhumanos,,,,,,,,,,,,,,,,,,,,,,,,,50% booking off from first trip,,,,,,https://www.humanhotel.com,
03/02/2017 9:34,1196,Z,Rikke Selin,,Rikke,,Selin,Rikke,Selin,rikkefilm@gmail.com,asdqweZ1196,active,Member,Denmark,Copenhagen,"Copenhagen , Denmark",,45,48,Film editor,"<img src=""https://s3.amazonaws.com/assets.knackhq.com/assets/5853e6992e7f151d490cd3f6/58b82cd7c64e4f31fea02687/thumb/img_6051.jpg"" />",https://s3.amazonaws.com/assets.knackhq.com/assets/5853e6992e7f151d490cd3f6/58b82cd7c64e4f31fea02687/original/img_6051.jpg,45,40162066,https://m.facebook.com/rikke.s.lorentzen,Host only,Social Media,Andreas Dalsgaard,-,mother filmeditor enthusiastic,www.firstladyedit.com,"artistic integrity, engagement","<img src=""https://s3.amazonaws.com/assets.knackhq.com/assets/5853e6992e7f151d490cd3f6/5906fa83a0442d265f947e90/thumb/rikke.png"" />",https://s3.amazonaws.com/assets.knackhq.com/assets/5853e6992e7f151d490cd3f6/5906fa83a0442d265f947e90/original/rikke.png,,,,,,,,,,,,,,,,,"Active since 1993 with a heavy background in editing feature films, documentaries and commercials, plus a veritable kick-off to cutting movies by graduating from the National Film School of Denmark, I have shown myself to be a more than adept player in this male-dominant arena. A dedicated mother of two, I'm a visually elaborate editor who champions at telling the story, even within a commercial field. I never let the details escape me and it was only natural that I’d progress to take on directing. Always enthusiastic and positive, I try to bring ambition, artistic integrity and engagement to all my projects.",,,,,,,,,,,https://www.humanhotel.com,
03/02/2017 10:28,1197,A,Martijn Blom,,Martijn,,Blom,Martijn,Blom,martijn@blomandblom.com,asdqweA1197,active,Member,Netherlands,Amsterdam,"Amsterdam, Netherlands",,32,48,Lighting Designer,"<img src=""https://s3.amazonaws.com/assets.knackhq.com/assets/5853e6992e7f151d490cd3f6/58b839ce916eab29eb9cde40/thumb/brothersinfrontoftheirshowroom2copyrightmateiplesa.jpg"" />",https://s3.amazonaws.com/assets.knackhq.com/assets/5853e6992e7f151d490cd3f6/58b839ce916eab29eb9cde40/original/brothersinfrontoftheirshowroom2copyrightmateiplesa.jpg,31,,https://www.instagram.com/blomandblom/,Guest & Host,Email,Host maybe in a later stage,,...,https://blomandblom.com,...,,,,,,,,,,,,,,,,,,,,,,,,50% booking off from first trip,,,,,,https://www.humanhotel.com,
03/02/2017 12:16,1198,B,Annie Wong,,Annie,,Wong,Annie,Wong,anniewong416@gmail.com,asdqweB1198,active,Member,Canada,Toronto,"Toronto, Canada",06/12/1984,32,34,artist,"<img src=""https://s3.amazonaws.com/assets.knackhq.com/assets/5853e6992e7f151d490cd3f6/58b85355bf3a0526e20e022b/thumb/anniefront.jpg"" />",https://s3.amazonaws.com/assets.knackhq.com/assets/5853e6992e7f151d490cd3f6/58b85355bf3a0526e20e022b/original/anniefront.jpg,1,416 318 0228,https://www.facebook.com/anniewong416,Guest only,Email,Alessandra Peroncini,Poetry nerd haunted by Emily Dickinson. Spends too much time looking at cat gifs and fighting capitalism.<br />,"Poetry, performance, social engagement",www.anniewong.co,"Poetry, performance, social engagement",,,,,,,,,,,,,,,,,,,"Annie Wong is a multidisciplinary artist, arts educator, and writer. Wong uses various platforms of participation and social engagement to explore the intersections of the poetic and political in everyday life. Through her practice Wong aims to reimagine performance, installation, poetry and other media to create new aesthetic experiences that engage communities, histories, and emergent publics. Wong has been presented by The Art Gallery of Ontario, Nuit Blanche (Toronto), Intersite: Visual Arts Festival (Calgary), Third Space (Saint John), and The Modern Literature and Culture Research Centre. She holds a BA in English Literature and a MA in Communication and Culture from York University.<br /><br />",,,,,50% booking off from first trip,,03/08/2018 1:59,,,,https://www.humanhotel.com,
03/02/2017 13:00,1199,C,barbara reale,,barbara,,reale,barbara,reale,info@barbarareale.it,asdqweC1199,active,Member,,rome,"rome, ",,52,48,artist,"<img src=""https://s3.amazonaws.com/assets.knackhq.com/assets/5853e6992e7f151d490cd3f6/58b85db24a4f3f2f0eae6576/thumb/20170205_133518.jpg"" />",https://s3.amazonaws.com/assets.knackhq.com/assets/5853e6992e7f151d490cd3f6/58b85db24a4f3f2f0eae6576/original/20170205_133518.jpg,,,@realeart,Guest & Host,Email,WOOLOO,,,artcohousing.com,,,,,,,,,,,,,,,,,,,,,,,,,50% booking off from first trip,,,,,,https://www.humanhotel.com,
03/02/2017 15:34,1200,D,Plinio Nitzsche,,Plinio,,Nitzsche,Plinio,Nitzsche,plinioniitz@gmail.com,asdqweD1200,active,Member,,São Paulo,"São Paulo, ",,29,48,Art Director / Ilustrator / Motion Design,"<img src=""https://s3.amazonaws.com/assets.knackhq.com/assets/5853e6992e7f151d490cd3f6/58b8816f99fff226db0c37d3/thumb/plinio_oficial_768.jpg"" />",https://s3.amazonaws.com/assets.knackhq.com/assets/5853e6992e7f151d490cd3f6/58b8816f99fff226db0c37d3/original/plinio_oficial_768.jpg,,,@plinioniitz,Guest only,Email,Alessandra Peroncini,,,linkedin.com/in/plinioniitz,,,,,,,,,,,,,,,,,,,,,,,,,50% booking off from first trip,,,,,,https://www.humanhotel.com,