Created on,Number,Letter,firstName,lastName,email,Work Img. 6,imageSix,imageDescriptionSix
01/07/2018 16:54,21,U,Gordana,Zikic,gocazikic@gmail.com,"<img src=""https://s3.amazonaws.com/assets.knackhq.com/assets/5853e6992e7f151d490cd3f6/5a524e11b84bd35578eda62d/thumb/zikicgordana2.jpg"" />",https://s3.amazonaws.com/assets.knackhq.com/assets/5853e6992e7f151d490cd3f6/5a524e11b84bd35578eda62d/original/zikicgordana2.jpg,installation detail
01/08/2018 15:40,24,X,Yordan,Aleksandrov,egoistee@abv.bg,"<img src=""https://s3.amazonaws.com/assets.knackhq.com/assets/5853e6992e7f151d490cd3f6/5a53865e547d22556e86e46c/thumb/dr0a1390.jpg"" />",https://s3.amazonaws.com/assets.knackhq.com/assets/5853e6992e7f151d490cd3f6/5a53865e547d22556e86e46c/original/dr0a1390.jpg,
01/11/2018 17:48,46,T,Jacobi,Marie,rotunde@gmx.de,"<img src=""https://s3.amazonaws.com/assets.knackhq.com/assets/5853e6992e7f151d490cd3f6/5a61cff8ee04b866c16704f0/thumb/img_6992.jpg"" />",https://s3.amazonaws.com/assets.knackhq.com/assets/5853e6992e7f151d490cd3f6/5a61cff8ee04b866c16704f0/original/img_6992.jpg,
01/16/2018 18:01,53,A,Noele,Lusano,noelelusano@gmail.com,"<img src=""https://s3.amazonaws.com/assets.knackhq.com/assets/5853e6992e7f151d490cd3f6/5a5e329ebdc47555714d6444/thumb/sheltercoveedit.jpg"" />",https://s3.amazonaws.com/assets.knackhq.com/assets/5853e6992e7f151d490cd3f6/5a5e329ebdc47555714d6444/original/sheltercoveedit.jpg,Shelter Cove
01/19/2018 7:13,62,J,Charles,Schuster,schuster78@gmail.com,"<img src=""https://s3.amazonaws.com/assets.knackhq.com/assets/5853e6992e7f151d490cd3f6/5ab2f406eb100663467711f7/thumb/hotmandala.jpg"" />",https://s3.amazonaws.com/assets.knackhq.com/assets/5853e6992e7f151d490cd3f6/5ab2f406eb100663467711f7/original/hotmandala.jpg,mandala
01/23/2018 10:48,70,R,Cesare,Bedognè,cesare.bedogne@gmail.com,"<img src=""https://s3.amazonaws.com/assets.knackhq.com/assets/5853e6992e7f151d490cd3f6/5a67091bcc54c65f65542eca/thumb/scan_04_ritcmykcbncmykn_1.gif"" />",https://s3.amazonaws.com/assets.knackhq.com/assets/5853e6992e7f151d490cd3f6/5a67091bcc54c65f65542eca/original/scan_04_ritcmykcbncmykn_1.gif,film poster
01/23/2018 11:21,71,S,Diana,Vishnevskaia,fanfallina@gmail.com,"<img src=""https://s3.amazonaws.com/assets.knackhq.com/assets/5853e6992e7f151d490cd3f6/5a670f35ebb9215aac1eed01/thumb/screamer.gif"" />",https://s3.amazonaws.com/assets.knackhq.com/assets/5853e6992e7f151d490cd3f6/5a670f35ebb9215aac1eed01/original/screamer.gif,
01/25/2018 3:29,75,W,Ted,Vasin,ted@tedvasin.com,"<img src=""https://s3.amazonaws.com/assets.knackhq.com/assets/5853e6992e7f151d490cd3f6/5a6ac6d2a1941d587d275915/thumb/vasin_ted_32.jpg"" />",https://s3.amazonaws.com/assets.knackhq.com/assets/5853e6992e7f151d490cd3f6/5a6ac6d2a1941d587d275915/original/vasin_ted_32.jpg,"Lowrez, interference acrylic on canvas, 48x64 inches, 2012"
01/26/2018 23:29,78,Z,Thomas,Wegner,thomasgwegner@gmail.com,"<img src=""https://s3.amazonaws.com/assets.knackhq.com/assets/5853e6992e7f151d490cd3f6/5a6bb582e32b015b23a5c605/thumb/set236.jpg"" />",https://s3.amazonaws.com/assets.knackhq.com/assets/5853e6992e7f151d490cd3f6/5a6bb582e32b015b23a5c605/original/set236.jpg,wall sculpture
01/29/2018 10:05,83,E,Susan,Dutton,s.dutton@alice.it,"<img src=""https://s3.amazonaws.com/assets.knackhq.com/assets/5853e6992e7f151d490cd3f6/5a6ef1ed7d663158b9de8791/thumb/finishedibelong.jpg"" />",https://s3.amazonaws.com/assets.knackhq.com/assets/5853e6992e7f151d490cd3f6/5a6ef1ed7d663158b9de8791/original/finishedibelong.jpg,I Belong oil 90 x 70 cm
01/30/2018 8:55,87,I,Victor,Hoshiko,directorvkho@gmail.com,"<img src=""https://s3.amazonaws.com/assets.knackhq.com/assets/5853e6992e7f151d490cd3f6/5a7027e9bd5a6a58aa75eed0/thumb/img_6462.jpg"" />",https://s3.amazonaws.com/assets.knackhq.com/assets/5853e6992e7f151d490cd3f6/5a7027e9bd5a6a58aa75eed0/original/img_6462.jpg,Thinking about you. from my Travelogue series
01/31/2018 18:33,97,S,Hratch,Israelian,israelian1@verizon.net,"<img src=""https://s3.amazonaws.com/assets.knackhq.com/assets/5853e6992e7f151d490cd3f6/5a732c2d1fc65f201d0744e4/thumb/26.jpg"" />",https://s3.amazonaws.com/assets.knackhq.com/assets/5853e6992e7f151d490cd3f6/5a732c2d1fc65f201d0744e4/original/26.jpg,"#26, 1988 pen and ink"
01/31/2018 21:46,98,T,Massimiliano,Pelagatti,max.pelagatti@gmail.com,"<img src=""https://s3.amazonaws.com/assets.knackhq.com/assets/5853e6992e7f151d490cd3f6/5a72efffeb447458bba80473/thumb/0421a931213927.564602627771c.jpeg"" />",https://s3.amazonaws.com/assets.knackhq.com/assets/5853e6992e7f151d490cd3f6/5a72efffeb447458bba80473/original/0421a931213927.564602627771c.jpeg,
02/01/2018 20:46,107,C,Emma,Brooks,emma.ann.brooks@gmail.com,"<img src=""https://s3.amazonaws.com/assets.knackhq.com/assets/5853e6992e7f151d490cd3f6/5a737263f505a9367aa2483c/thumb/max_06.png"" />",https://s3.amazonaws.com/assets.knackhq.com/assets/5853e6992e7f151d490cd3f6/5a737263f505a9367aa2483c/original/max_06.png,
02/02/2018 17:44,111,G,Elise,Rorick,lusicovicreative@gmail.com,"<img src=""https://s3.amazonaws.com/assets.knackhq.com/assets/5853e6992e7f151d490cd3f6/5a74a06f5fa731493f4862b1/thumb/opheliajanesmithsmall.jpg"" />",https://s3.amazonaws.com/assets.knackhq.com/assets/5853e6992e7f151d490cd3f6/5a74a06f5fa731493f4862b1/original/opheliajanesmithsmall.jpg,
02/02/2018 23:08,112,H,Miguel,Buenrostro,buenrostro84miguel@gmail.com,"<img src=""https://s3.amazonaws.com/assets.knackhq.com/assets/5853e6992e7f151d490cd3f6/5a74e7ec4c8168533957c327/thumb/reflecting2.jpg"" />",https://s3.amazonaws.com/assets.knackhq.com/assets/5853e6992e7f151d490cd3f6/5a74e7ec4c8168533957c327/original/reflecting2.jpg,"Installation and public art piece ¨reflecting the border¨in collaboration with Marcos Ramirez and Margarita Garcia, we gathered migrants from different parts of the world we had a dinner and we had conversations about citizenship, globalization and of course migration."
02/03/2018 15:35,114,J,Ilaria,Demonti,ilaria.demonti@gmail.com,"<img src=""https://s3.amazonaws.com/assets.knackhq.com/assets/5853e6992e7f151d490cd3f6/5a7a0857f2c66c67af288d16/thumb/00_10319_mondohokusai_kids9.jpg"" />",https://s3.amazonaws.com/assets.knackhq.com/assets/5853e6992e7f151d490cd3f6/5a7a0857f2c66c67af288d16/original/00_10319_mondohokusai_kids9.jpg,"An illustration from Il sogno di Hokusai, realised on the occasion of the exhibition in Milan in 2017"
02/03/2018 16:48,116,L,Sol,Montaldo,solmontaldo@gmail.com,"<img src=""https://s3.amazonaws.com/assets.knackhq.com/assets/5853e6992e7f151d490cd3f6/5a75e82332ccde58ebddd47d/thumb/10565198_761592003863587_5394286893408148787_n.jpg"" />",https://s3.amazonaws.com/assets.knackhq.com/assets/5853e6992e7f151d490cd3f6/5a75e82332ccde58ebddd47d/original/10565198_761592003863587_5394286893408148787_n.jpg,Una Idea de Ayer - Project 2014
02/04/2018 9:31,117,M,Tamara,Erde,tamaricapari@gmail.com,"<img src=""https://s3.amazonaws.com/assets.knackhq.com/assets/5853e6992e7f151d490cd3f6/5a76c78bdc5d6b58f2ed42d1/thumb/10.jpg"" />",https://s3.amazonaws.com/assets.knackhq.com/assets/5853e6992e7f151d490cd3f6/5a76c78bdc5d6b58f2ed42d1/original/10.jpg,“Sarahs and Bobs” installation in NYC
02/04/2018 20:38,119,O,ALPER,ERAYDIN,alpereraydin@gmail.com,"<img src=""https://s3.amazonaws.com/assets.knackhq.com/assets/5853e6992e7f151d490cd3f6/5a77725c47cddf58e9ef0419/thumb/255280_10151081999941233_1920252047_n.jpg"" />",https://s3.amazonaws.com/assets.knackhq.com/assets/5853e6992e7f151d490cd3f6/5a77725c47cddf58e9ef0419/original/255280_10151081999941233_1920252047_n.jpg,Veda(tv serial)2012
02/05/2018 14:40,123,S,Lise,Klitten,liseklitten@kulisse.dk,"<img src=""https://s3.amazonaws.com/assets.knackhq.com/assets/5853e6992e7f151d490cd3f6/5a7d9e43b497c04bca830484/thumb/afghanhoundlilibethcuenca.jpg"" />",https://s3.amazonaws.com/assets.knackhq.com/assets/5853e6992e7f151d490cd3f6/5a7d9e43b497c04bca830484/original/afghanhoundlilibethcuenca.jpg,"""Afghan Hound"" costume to Lilibeth Cuenca, Venice Biennale 2011"
02/05/2018 15:13,124,T,Maria,Frepoli,mohalefou@libero.it,"<img src=""https://s3.amazonaws.com/assets.knackhq.com/assets/5853e6992e7f151d490cd3f6/5a786b2397808e03d94415e7/thumb/25storia_per_un_teatro_vuoto__film10_copia.jpeg"" />",https://s3.amazonaws.com/assets.knackhq.com/assets/5853e6992e7f151d490cd3f6/5a786b2397808e03d94415e7/original/25storia_per_un_teatro_vuoto__film10_copia.jpeg,"film still from ""Maria's Silence"" by Cesare Bedognè"
02/05/2018 16:10,125,U,Witte,Wartena,witte@wartena.nl,"<img src=""https://s3.amazonaws.com/assets.knackhq.com/assets/5853e6992e7f151d490cd3f6/5a78794beda96a03ab1df28c/thumb/hasenheide.jpg"" />",https://s3.amazonaws.com/assets.knackhq.com/assets/5853e6992e7f151d490cd3f6/5a78794beda96a03ab1df28c/original/hasenheide.jpg,Hasenheide 2018 Watercolour and coloured pencil on paper 30 x 40 cm
02/05/2018 20:47,127,W,Bo,Bannink,info@bobannink.nl,"<img src=""https://s3.amazonaws.com/assets.knackhq.com/assets/5853e6992e7f151d490cd3f6/5a78b78735b6a758e34f3cc8/thumb/2w8a9300.jpg"" />",https://s3.amazonaws.com/assets.knackhq.com/assets/5853e6992e7f151d490cd3f6/5a78b78735b6a758e34f3cc8/original/2w8a9300.jpg,Victoria (Dltd-scenes Magazine)
02/05/2018 21:12,128,X,jenna,josepher,jennajosepher@gmail.com,"<img src=""https://s3.amazonaws.com/assets.knackhq.com/assets/5853e6992e7f151d490cd3f6/5a78bca6c0b5b7585c5ac967/thumb/nvdes_sugar_square_nolyrics_081617.gif"" />",https://s3.amazonaws.com/assets.knackhq.com/assets/5853e6992e7f151d490cd3f6/5a78bca6c0b5b7585c5ac967/original/nvdes_sugar_square_nolyrics_081617.gif,Looping video edit: Sugar
02/05/2018 21:17,129,Y,Debbie,Voerman,debbievoerman@gmail.com,"<img src=""https://s3.amazonaws.com/assets.knackhq.com/assets/5853e6992e7f151d490cd3f6/5a7b29f23af06f1e6936abdd/thumb/screenshot20180207at17.31.26.png"" />",https://s3.amazonaws.com/assets.knackhq.com/assets/5853e6992e7f151d490cd3f6/5a7b29f23af06f1e6936abdd/original/screenshot20180207at17.31.26.png,"soft pastel on paper, 30 x 20 cm"
02/05/2018 23:27,130,Z,Ella,de Burca,deburcaella@gmail.com,"<img src=""https://s3.amazonaws.com/assets.knackhq.com/assets/5853e6992e7f151d490cd3f6/5a78e3ae3c5c28165568444f/thumb/img_5102.jpg"" />",https://s3.amazonaws.com/assets.knackhq.com/assets/5853e6992e7f151d490cd3f6/5a78e3ae3c5c28165568444f/original/img_5102.jpg,Saying is Believing. 2016
02/06/2018 0:00,131,A,Alyssa,Forte,lyssaforte@gmail.com,"<img src=""https://s3.amazonaws.com/assets.knackhq.com/assets/5853e6992e7f151d490cd3f6/5a78ef3cb372b4058956cf19/thumb/alyssaforte21304.jpg"" />",https://s3.amazonaws.com/assets.knackhq.com/assets/5853e6992e7f151d490cd3f6/5a78ef3cb372b4058956cf19/original/alyssaforte21304.jpg,
02/06/2018 15:44,133,C,Jan,Hoek,janhoek@gmail.com,"<img src=""https://s3.amazonaws.com/assets.knackhq.com/assets/5853e6992e7f151d490cd3f6/5a79c1dec07fdd67bc036d53/thumb/kimsupermodel.jpg"" />",https://s3.amazonaws.com/assets.knackhq.com/assets/5853e6992e7f151d490cd3f6/5a79c1dec07fdd67bc036d53/original/kimsupermodel.jpg,Kim Supermodel
02/07/2018 11:24,138,H,Arianne,Foks,arianne.foks@gmail.com,"<img src=""https://s3.amazonaws.com/assets.knackhq.com/assets/5853e6992e7f151d490cd3f6/5a7ae52283661f67bd1a0ec0/thumb/17ariannefoksbrion.png"" />",https://s3.amazonaws.com/assets.knackhq.com/assets/5853e6992e7f151d490cd3f6/5a7ae52283661f67bd1a0ec0/original/17ariannefoksbrion.png,"Ecran Total, a performance with Meg Boury"
02/07/2018 19:07,144,N,Federico,Cappellin,cappellinfederico@gmail.com,"<img src=""https://s3.amazonaws.com/assets.knackhq.com/assets/5853e6992e7f151d490cd3f6/5a7c9c4b379d39679165e48e/thumb/img_4040.jpg"" />",https://s3.amazonaws.com/assets.knackhq.com/assets/5853e6992e7f151d490cd3f6/5a7c9c4b379d39679165e48e/original/img_4040.jpg,Arcangelo Sassolino - Studio Visit
02/11/2018 23:11,166,J,Ellen,Vårtun,ellentxu@gmail.com,"<img src=""https://s3.amazonaws.com/assets.knackhq.com/assets/5853e6992e7f151d490cd3f6/5a83f0916c02315717994ad4/thumb/_e9a9773.jpg"" />",https://s3.amazonaws.com/assets.knackhq.com/assets/5853e6992e7f151d490cd3f6/5a83f0916c02315717994ad4/original/_e9a9773.jpg,"Foam, acrylic paint, soft pastel"
02/12/2018 14:25,167,K,Timna,Tomisa,timna@timnatomisa.com,"<img src=""https://s3.amazonaws.com/assets.knackhq.com/assets/5853e6992e7f151d490cd3f6/5a81a853572abd68ba8a642a/thumb/ttomisa3.jpg"" />",https://s3.amazonaws.com/assets.knackhq.com/assets/5853e6992e7f151d490cd3f6/5a81a853572abd68ba8a642a/original/ttomisa3.jpg,"Film still, 'The Graveyard Slot', 2017"
02/14/2017 0:01,213,E,Emily,Putter,emilypuetter@telefonica.net,"<img src=""https://s3.amazonaws.com/assets.knackhq.com/assets/5853e6992e7f151d490cd3f6/59d4dc7d6801e93418e96b5e/thumb/dsc00072426x640.jpg"" />",https://s3.amazonaws.com/assets.knackhq.com/assets/5853e6992e7f151d490cd3f6/59d4dc7d6801e93418e96b5e/original/dsc00072426x640.jpg,"material peace is made from, installation 2012"
02/14/2017 0:01,269,I,Jon,Fawcett,jon@jonfawcett.com,"<img src=""https://s3.amazonaws.com/assets.knackhq.com/assets/5853e6992e7f151d490cd3f6/5901fc0dfb70bf25b9b00672/thumb/unnamed10.jpg"" />",https://s3.amazonaws.com/assets.knackhq.com/assets/5853e6992e7f151d490cd3f6/5901fc0dfb70bf25b9b00672/original/unnamed10.jpg,
02/14/2017 0:01,294,H,Erika,Matsunami,matsunami@gmx.net,"<img src=""https://s3.amazonaws.com/assets.knackhq.com/assets/5853e6992e7f151d490cd3f6/59d6b390984b623b4fbe9b27/thumb/b.o.d.y.frauenmuseum201101.jpg"" />",https://s3.amazonaws.com/assets.knackhq.com/assets/5853e6992e7f151d490cd3f6/59d6b390984b623b4fbe9b27/original/b.o.d.y.frauenmuseum201101.jpg,B.O.D.Y. (2010)
02/14/2017 0:01,314,B,Maria,Bilbao Herrera,info@mariabilbao.com,"<img src=""https://s3.amazonaws.com/assets.knackhq.com/assets/5853e6992e7f151d490cd3f6/58ee12ee78d7e64927ea6ced/thumb/maria_bilbao_herrera_arbol_24x30cm.jpg"" />",https://s3.amazonaws.com/assets.knackhq.com/assets/5853e6992e7f151d490cd3f6/58ee12ee78d7e64927ea6ced/original/maria_bilbao_herrera_arbol_24x30cm.jpg,
02/14/2017 0:01,318,F,Christine,Gedeon,christinegedeon@gmail.com,"<img src=""https://s3.amazonaws.com/assets.knackhq.com/assets/5853e6992e7f151d490cd3f6/59f0c61c4dc0dc4bc9265d49/thumb/pe_gedeon_20.jpg"" />",https://s3.amazonaws.com/assets.knackhq.com/assets/5853e6992e7f151d490cd3f6/59f0c61c4dc0dc4bc9265d49/original/pe_gedeon_20.jpg,Engelbrecht Studio--Site-specifc installation
02/14/2017 0:01,326,N,Lionel,Cruet,lioart1@gmail.com,"<img src=""https://s3.amazonaws.com/assets.knackhq.com/assets/5853e6992e7f151d490cd3f6/59a6a04742365b39dec2baad/thumb/lionel_cruet_08.jpg"" />",https://s3.amazonaws.com/assets.knackhq.com/assets/5853e6992e7f151d490cd3f6/59a6a04742365b39dec2baad/original/lionel_cruet_08.jpg,
02/14/2017 0:01,349,K,Yaron,Lapid,finderandkeeper@gmail.com,"<img src=""https://s3.amazonaws.com/assets.knackhq.com/assets/5853e6992e7f151d490cd3f6/590a431fcd473d29f5e090a1/thumb/atthemonitor.jpg"" />",https://s3.amazonaws.com/assets.knackhq.com/assets/5853e6992e7f151d490cd3f6/590a431fcd473d29f5e090a1/original/atthemonitor.jpg,From Night Meter
02/14/2017 0:01,374,J,Amanda,Lyngesen,amandalyngesen@gmail.com,"<img src=""https://s3.amazonaws.com/assets.knackhq.com/assets/5853e6992e7f151d490cd3f6/5a5a846ba69a4659876d61f6/thumb/03.jpg"" />",https://s3.amazonaws.com/assets.knackhq.com/assets/5853e6992e7f151d490cd3f6/5a5a846ba69a4659876d61f6/original/03.jpg,Haus Claire
02/14/2017 0:01,386,V,Paul,Devens,info@pauldevens.nl,"<img src=""https://s3.amazonaws.com/assets.knackhq.com/assets/5853e6992e7f151d490cd3f6/59ef8b9ea1ecc17c0ca8d581/thumb/folly.jpg"" />",https://s3.amazonaws.com/assets.knackhq.com/assets/5853e6992e7f151d490cd3f6/59ef8b9ea1ecc17c0ca8d581/original/folly.jpg,"Folly'. The house-resembling wooden shape refers to one particular abandoned store, as it has been seen in the inaccessible UN-controlled bufferzone in between the divided city of Lefkoşa / Lefkosia.  The work 'Folly' is an interpretation of this architectonic construction, according to a scale of approximately 1:8. Previous to the exhibition, snippets of sounds from the public field were recorded in the surroundings on both sides of the border and buffer zone. The found sounds were edited to a composition, played back in the wooden mock-up and re-recorded. As the mock-up is scaled down, the sounds changed pace - as well.  The result is a soundscape, played at normal speed, yet with the assumed characteristics of the interior space acoustics of the inaccessible store. The act of imposing new sounds from the public domain in a representation of a building, of which its original is withdrawn from public life, because of conflict, could touch the idea of an attempt to reanimate its former embedment in social life by the recollective power of recorded sounds.   The abandoned building is left in no-man’s-land, shifted from an operative shop within a community, to a dysfunctional, virtually decorative object.   Lefkosia / Lefkoşa (Nicosia), February 2015 wooden mock-up 60 x 120 x 80 cm, table, mp3 player and headphones, stereo soundtrack 8'11"". 'Folly' was part of 'Stimulating Synapse' exhibited at first at EMAA Lefkoşa, curated by Branko Franceschi."
02/14/2017 0:01,390,Z,Tom,Mead,mrmead@mrmead.co.uk,"<img src=""https://s3.amazonaws.com/assets.knackhq.com/assets/5853e6992e7f151d490cd3f6/5a92c03b6a06ef13cd8c5533/thumb/thelastacorncollectorpenink.jpg"" />",https://s3.amazonaws.com/assets.knackhq.com/assets/5853e6992e7f151d490cd3f6/5a92c03b6a06ef13cd8c5533/original/thelastacorncollectorpenink.jpg,
02/14/2017 0:01,411,U,William,Bock,contact@williambock.com,"<img src=""https://s3.amazonaws.com/assets.knackhq.com/assets/5853e6992e7f151d490cd3f6/58e75b2215598e48ee9addd8/thumb/workf.jpg"" />",https://s3.amazonaws.com/assets.knackhq.com/assets/5853e6992e7f151d490cd3f6/58e75b2215598e48ee9addd8/original/workf.jpg,
02/14/2017 0:01,414,X,Jamie,McCartney,jamie@jamiemccartney.com,"<img src=""https://s3.amazonaws.com/assets.knackhq.com/assets/5853e6992e7f151d490cd3f6/595034dce0adae4c47e8e22d/thumb/parsvadhanurasana.jpg"" />",https://s3.amazonaws.com/assets.knackhq.com/assets/5853e6992e7f151d490cd3f6/595034dce0adae4c47e8e22d/original/parsvadhanurasana.jpg,Parsva Dahnurasana
02/14/2017 0:01,430,N,OLGA,PIBARS,olgapibars@gmail.com,"<img src=""https://s3.amazonaws.com/assets.knackhq.com/assets/5853e6992e7f151d490cd3f6/59f25612d016ed4fc5ca893b/thumb/_x8a9168_960px.jpg"" />",https://s3.amazonaws.com/assets.knackhq.com/assets/5853e6992e7f151d490cd3f6/59f25612d016ed4fc5ca893b/original/_x8a9168_960px.jpg,
02/14/2017 0:01,459,Q,Karin,Bos,karinbos@xs4all.nl,"<img src=""https://s3.amazonaws.com/assets.knackhq.com/assets/5853e6992e7f151d490cd3f6/58f634d145da7c0d66a03dd1/thumb/gt_dollabusesite.jpg"" />",https://s3.amazonaws.com/assets.knackhq.com/assets/5853e6992e7f151d490cd3f6/58f634d145da7c0d66a03dd1/original/gt_dollabusesite.jpg,"Karin Bos, Doll Abuse, watercolour and charcoal on paper, 102 x 66 cm, 2006, collection Teylers Museum"
02/14/2017 0:01,461,S,non,studio,info@nonstudio.info,"<img src=""https://s3.amazonaws.com/assets.knackhq.com/assets/5853e6992e7f151d490cd3f6/59d3d8d2021aa327293aa274/thumb/digest.png"" />",https://s3.amazonaws.com/assets.knackhq.com/assets/5853e6992e7f151d490cd3f6/59d3d8d2021aa327293aa274/original/digest.png,design of zine series with Homestead Apothecary
02/14/2017 0:01,482,N,Mark,Brounen,markbrounen@gmail.com,"<img src=""https://s3.amazonaws.com/assets.knackhq.com/assets/5853e6992e7f151d490cd3f6/592e8c473400334d73806fc9/thumb/joepbevingliveparadisorahirezvani2017_2.jpg"" />",https://s3.amazonaws.com/assets.knackhq.com/assets/5853e6992e7f151d490cd3f6/592e8c473400334d73806fc9/original/joepbevingliveparadisorahirezvani2017_2.jpg,Album release concert Paradiso Amsterdam
02/14/2017 0:01,508,N,Laura,Curry,lauracurry1@me.com,"<img src=""https://s3.amazonaws.com/assets.knackhq.com/assets/5853e6992e7f151d490cd3f6/5925bfddd1d8cf54b07d9830/thumb/img_6564.jpg"" />",https://s3.amazonaws.com/assets.knackhq.com/assets/5853e6992e7f151d490cd3f6/5925bfddd1d8cf54b07d9830/original/img_6564.jpg,Resdiency in Lima Peru
02/14/2017 0:01,534,N,Magnus,Bjerk,magnus.bjerk@gmail.com,"<img src=""https://s3.amazonaws.com/assets.knackhq.com/assets/5853e6992e7f151d490cd3f6/5921aa7d6e378c3f766f1585/thumb/4_bjerk_oslo_s_fasade_installert9x13me.jpg"" />",https://s3.amazonaws.com/assets.knackhq.com/assets/5853e6992e7f151d490cd3f6/5921aa7d6e378c3f766f1585/original/4_bjerk_oslo_s_fasade_installert9x13me.jpg,Magnus Bjerk The Inside Of the Outside Of The Inside Installed4 Oslo Public Art
02/14/2017 0:01,556,J,Tanya,Ury,youarewhy@netcologne.de,"<img src=""https://s3.amazonaws.com/assets.knackhq.com/assets/5853e6992e7f151d490cd3f6/59d39a4aef4e3427a0e2829e/thumb/lesser_is_me.jpg"" />",https://s3.amazonaws.com/assets.knackhq.com/assets/5853e6992e7f151d490cd3f6/59d39a4aef4e3427a0e2829e/original/lesser_is_me.jpg,"lesser is me more or less, 2003 A photograph sealed under plexiglass and mounted (MDF), height 64 cm x width 86,64 cm (edition of 7). (Edition of 7: height 32 cm x width 45 cm). lesser is me more or less features the artist Tanya Ury to the right of the picture, sitting in three-quarter view. Digitally incorporated into the photograph and facing her to the left, is the German Impressionist Lesser Ury, Tanya Ury's great-grand uncle, in a reproduction of his ‘Selbstportät mit Dunklem Hut’ (Self-portrait with dark hat, 1914, 64 x 40 cm). At the time, Lesser Ury was 53 years old and at the height of his powers. In this double portrait, the two Urys are more or less the same age, Tanya dresses and poses similarly to Lesser and mimics his facial expression. At the centre of lesser is me more or less, conjoining the two picture halves, is the representation of a scar and human scar tissue."
02/14/2017 0:01,578,F,Kai,Lossgott,kai.lossgott@gmail.com,"<img src=""https://s3.amazonaws.com/assets.knackhq.com/assets/5853e6992e7f151d490cd3f6/59d656f974fcb23bc300d643/thumb/iit_videoinstallationview_kai_lossgott_2017.jpg"" />",https://s3.amazonaws.com/assets.knackhq.com/assets/5853e6992e7f151d490cd3f6/59d656f974fcb23bc300d643/original/iit_videoinstallationview_kai_lossgott_2017.jpg,"i <-> it.  Kai Lossgott. 2017.  Video installation, PAL HD 3 min 32 sec, (installation view, ABSA Gallery, Johannesburg, ZA.)  Images courtesy of the artist and ABSA Gallery."
02/14/2017 0:01,604,F,Sonia,Gil,sonia@soniagil.com.br,"<img src=""https://s3.amazonaws.com/assets.knackhq.com/assets/5853e6992e7f151d490cd3f6/5a0dbfb90f2b4552a6540b3d/thumb/berlingraphic.jpg"" />",https://s3.amazonaws.com/assets.knackhq.com/assets/5853e6992e7f151d490cd3f6/5a0dbfb90f2b4552a6540b3d/original/berlingraphic.jpg,Berlin Graphic
02/14/2017 0:01,613,O,Per,Huttner,per@perhuttner.com,"<img src=""https://s3.amazonaws.com/assets.knackhq.com/assets/5853e6992e7f151d490cd3f6/58da6c151d90fa339e40081f/thumb/img_5806.low2.jpg"" />",https://s3.amazonaws.com/assets.knackhq.com/assets/5853e6992e7f151d490cd3f6/58da6c151d90fa339e40081f/original/img_5806.low2.jpg,
02/14/2017 0:01,641,Q,k,muldoon,kmuldoon@hotmail.com,"<img src=""https://s3.amazonaws.com/assets.knackhq.com/assets/5853e6992e7f151d490cd3f6/5afbcc0994de622a58545ba3/thumb/meandart.jpg"" />",https://s3.amazonaws.com/assets.knackhq.com/assets/5853e6992e7f151d490cd3f6/5afbcc0994de622a58545ba3/original/meandart.jpg,
02/14/2017 0:01,653,C,Eduardo,Padilha,eduardo@balinhouseprojects.com,"<img src=""https://s3.amazonaws.com/assets.knackhq.com/assets/5853e6992e7f151d490cd3f6/58e763504855ba4be06b7182/thumb/20.jpg"" />",https://s3.amazonaws.com/assets.knackhq.com/assets/5853e6992e7f151d490cd3f6/58e763504855ba4be06b7182/original/20.jpg,
02/14/2017 0:01,692,P,Biba,Fibiger,bibafibiger@gmail.com,"<img src=""https://s3.amazonaws.com/assets.knackhq.com/assets/5853e6992e7f151d490cd3f6/5991781b1db062280eb9b784/thumb/04bibafibiger.jpg"" />",https://s3.amazonaws.com/assets.knackhq.com/assets/5853e6992e7f151d490cd3f6/5991781b1db062280eb9b784/original/04bibafibiger.jpg,Untitled. Collage. Exhibition in Copenhagen and Amsterdam
02/14/2017 0:01,723,U,Enda,O'Donoghue,endaism@gmail.com,"<img src=""https://s3.amazonaws.com/assets.knackhq.com/assets/5853e6992e7f151d490cd3f6/5acf3783032e111fc05b4e99/thumb/endaodonoghuereno.jpg"" />",https://s3.amazonaws.com/assets.knackhq.com/assets/5853e6992e7f151d490cd3f6/5acf3783032e111fc05b4e99/original/endaodonoghuereno.jpg,"Reno ( 2011 ) Oil on Canvas , 180 x 240 cm (5.9 x 7.9 ft)"
02/14/2017 0:01,810,D,Cheryl,Gross,cmmgross@gmail.com,"<img src=""https://s3.amazonaws.com/assets.knackhq.com/assets/5853e6992e7f151d490cd3f6/59d35ed069915f246db10928/thumb/conut.jpg"" />",https://s3.amazonaws.com/assets.knackhq.com/assets/5853e6992e7f151d490cd3f6/59d35ed069915f246db10928/original/conut.jpg,New form of animal
02/14/2017 0:01,813,G,Berta,De La Rosa,bertadelarosa@gmail.com,"<img src=""https://s3.amazonaws.com/assets.knackhq.com/assets/5853e6992e7f151d490cd3f6/58eca6b6e310a04d5603d03a/thumb/getsemani_6310web.jpg"" />",https://s3.amazonaws.com/assets.knackhq.com/assets/5853e6992e7f151d490cd3f6/58eca6b6e310a04d5603d03a/original/getsemani_6310web.jpg,
02/14/2017 0:01,844,L,Weronika,Skonieczna,weronikaskonieczna@gmail.com,"<img src=""https://s3.amazonaws.com/assets.knackhq.com/assets/5853e6992e7f151d490cd3f6/5a8020399f5ce868bc8cdff2/thumb/22.jpg"" />",https://s3.amazonaws.com/assets.knackhq.com/assets/5853e6992e7f151d490cd3f6/5a8020399f5ce868bc8cdff2/original/22.jpg,
02/14/2017 0:01,865,G,Alice,Holmberg,alice@holmberg.gs,"<img src=""https://s3.amazonaws.com/assets.knackhq.com/assets/5853e6992e7f151d490cd3f6/5975a255aaeffc54b3daf468/thumb/dotter_askizze_klein_250px.jpg"" />",https://s3.amazonaws.com/assets.knackhq.com/assets/5853e6992e7f151d490cd3f6/5975a255aaeffc54b3daf468/original/dotter_askizze_klein_250px.jpg,Collage for Kosmopilot - Analysing post-colonial national identity and its expression in fashion: https://issuu.com/aliceholmberg/docs/kosmopilot
02/14/2017 0:01,881,W,Laura,Arena,laura@de-construkt.com,"<img src=""https://s3.amazonaws.com/assets.knackhq.com/assets/5853e6992e7f151d490cd3f6/58ecfbe271c56955b6d3cf11/thumb/4.jpg"" />",https://s3.amazonaws.com/assets.knackhq.com/assets/5853e6992e7f151d490cd3f6/58ecfbe271c56955b6d3cf11/original/4.jpg,Designed the experience of My Sky is Falling is a immersive interactive story telling experience based on the true story of aging out of the foster care system.
02/15/2018 13:35,924,N,Karel,Kammeijer,kdkammeijer@hotmail.com,"<img src=""https://s3.amazonaws.com/assets.knackhq.com/assets/5853e6992e7f151d490cd3f6/5a85a13dea16b476fd90f069/thumb/a0d2954f13d84487b54e6730a993ae09_rw_1920.jpg"" />",https://s3.amazonaws.com/assets.knackhq.com/assets/5853e6992e7f151d490cd3f6/5a85a13dea16b476fd90f069/original/a0d2954f13d84487b54e6730a993ae09_rw_1920.jpg,Westerkerk Amsterdam - Screen print
02/15/2018 15:54,927,Q,Claire,Sanford,sanford.claire@gmail.com,"<img src=""https://s3.amazonaws.com/assets.knackhq.com/assets/5853e6992e7f151d490cd3f6/5a86ed939d182164cba63efd/thumb/clairepitching.jpg"" />",https://s3.amazonaws.com/assets.knackhq.com/assets/5853e6992e7f151d490cd3f6/5a86ed939d182164cba63efd/original/clairepitching.jpg,Documentary pitching in Lisbon.
02/15/2018 17:34,929,S,DOMIZIANA,GIORDANO,domiziana1@gmail.com,"<img src=""https://s3.amazonaws.com/assets.knackhq.com/assets/5853e6992e7f151d490cd3f6/5a85c7592bffa372e9648b80/thumb/f961afeab0494b9c81631e4ecce93438.jpeg"" />",https://s3.amazonaws.com/assets.knackhq.com/assets/5853e6992e7f151d490cd3f6/5a85c7592bffa372e9648b80/original/f961afeab0494b9c81631e4ecce93438.jpeg,
02/15/2018 18:06,931,U,Michalis,Kallimopoulos,kallimopoulos@gmail.com,"<img src=""https://s3.amazonaws.com/assets.knackhq.com/assets/5853e6992e7f151d490cd3f6/5a89893a4904a475e9ab7f91/thumb/ergasthrio_13_01_47.jpg"" />",https://s3.amazonaws.com/assets.knackhq.com/assets/5853e6992e7f151d490cd3f6/5a89893a4904a475e9ab7f91/original/ergasthrio_13_01_47.jpg,
02/16/2018 8:51,946,J,Judith,Jockel,info@judithjockel.com,"<img src=""https://s3.amazonaws.com/assets.knackhq.com/assets/5853e6992e7f151d490cd3f6/5a86fbaddcaafa1bd959c58a/thumb/08jjockel.jpg"" />",https://s3.amazonaws.com/assets.knackhq.com/assets/5853e6992e7f151d490cd3f6/5a86fbaddcaafa1bd959c58a/original/08jjockel.jpg,"the veil  / In the northern Dutch landscape, earth and water are almost equally balanced. Just like the veins under our skin the canals crisscross the land. I've always been fascinated by this omnipresence of water.  In my images the fog works as a veil, as a boundary. It delimits and defines the landscape as a stage: you can see up to this point and no further. The land on my photos is bare, there is no greenery on the trees; we're in the depths of winter. This marshy area represents the transition from a solid to a liquid form, two types of matter: water and earth"
02/16/2018 16:10,954,R,Alessandro,Rauschmann,rauschmann@live.de,"<img src=""https://s3.amazonaws.com/assets.knackhq.com/assets/5853e6992e7f151d490cd3f6/5a88afff010bf25713918474/thumb/rauschmann_glove11_2.jpg"" />",https://s3.amazonaws.com/assets.knackhq.com/assets/5853e6992e7f151d490cd3f6/5a88afff010bf25713918474/original/rauschmann_glove11_2.jpg,Monkey`s Paw
02/18/2018 13:03,968,F,Marc,Volk,marc.volk@berlin.de,"<img src=""https://s3.amazonaws.com/assets.knackhq.com/assets/5853e6992e7f151d490cd3f6/5a89aaf94b85022848a78dcd/thumb/1800_4785.jpg"" />",https://s3.amazonaws.com/assets.knackhq.com/assets/5853e6992e7f151d490cd3f6/5a89aaf94b85022848a78dcd/original/1800_4785.jpg,"from the work Vanish, 2016"
02/19/2018 18:32,983,U,Anne,Puhlmann,annep86@ymail.com,"<img src=""https://s3.amazonaws.com/assets.knackhq.com/assets/5853e6992e7f151d490cd3f6/5aa58972c35f561704ccc860/thumb/sd12.jpg"" />",https://s3.amazonaws.com/assets.knackhq.com/assets/5853e6992e7f151d490cd3f6/5aa58972c35f561704ccc860/original/sd12.jpg,
02/20/2017 0:52,993,E,Alicja,Ziolko,info@alicjaziolko.com,"<img src=""https://s3.amazonaws.com/assets.knackhq.com/assets/5853e6992e7f151d490cd3f6/59db94095835f03bc0b57597/thumb/13235699_10153484488090863_8162550182322820613_o.jpg"" />",https://s3.amazonaws.com/assets.knackhq.com/assets/5853e6992e7f151d490cd3f6/59db94095835f03bc0b57597/original/13235699_10153484488090863_8162550182322820613_o.jpg,"CombatTango, Teatro Valle Occupato, Alicja Ziolko & Bennie Bartels"
02/20/2017 0:58,995,G,Kate,Hollett,bent@katehollett.com,"<img src=""https://s3.amazonaws.com/assets.knackhq.com/assets/5853e6992e7f151d490cd3f6/58fb1f2ce155dd1023156129/thumb/classoflovepicsgrouped.jpg"" />",https://s3.amazonaws.com/assets.knackhq.com/assets/5853e6992e7f151d490cd3f6/58fb1f2ce155dd1023156129/original/classoflovepicsgrouped.jpg,Class of Love
02/20/2018 12:42,1020,F,Igor,Bezinovic,igor.bezinovic@gmail.com,"<img src=""https://s3.amazonaws.com/assets.knackhq.com/assets/5853e6992e7f151d490cd3f6/5a8c0f1c66694a72da3951f9/thumb/judo.jpg"" />",https://s3.amazonaws.com/assets.knackhq.com/assets/5853e6992e7f151d490cd3f6/5a8c0f1c66694a72da3951f9/original/judo.jpg,A photo taken during a massive judo training at the club where I train.
02/20/2018 15:13,1026,L,Bruce,Riley,wingtank@outlook.com,"<img src=""https://s3.amazonaws.com/assets.knackhq.com/assets/5853e6992e7f151d490cd3f6/5a8c3032d0f1e02375278905/thumb/kali.jpg"" />",https://s3.amazonaws.com/assets.knackhq.com/assets/5853e6992e7f151d490cd3f6/5a8c3032d0f1e02375278905/original/kali.jpg,"2017  paint on panel  80"" x 48"""
02/21/2018 1:39,1051,K,jim,haynes,jbh3@helenscarsdale.com,"<img src=""https://s3.amazonaws.com/assets.knackhq.com/assets/5853e6992e7f151d490cd3f6/5a8cc125d350b65096777a44/thumb/alasti_a09.jpg"" />",https://s3.amazonaws.com/assets.knackhq.com/assets/5853e6992e7f151d490cd3f6/5a8cc125d350b65096777a44/original/alasti_a09.jpg,A09
02/21/2018 10:08,1053,M,juliana,tekova,tekova@abv.bg,"<img src=""https://s3.amazonaws.com/assets.knackhq.com/assets/5853e6992e7f151d490cd3f6/5aae3bd9998dbd1bde192c49/thumb/20180223_121803.jpg"" />",https://s3.amazonaws.com/assets.knackhq.com/assets/5853e6992e7f151d490cd3f6/5aae3bd9998dbd1bde192c49/original/20180223_121803.jpg,
02/21/2018 10:24,1054,N,Raimon,Sibilo,contact@raimonsibilo.com,"<img src=""https://s3.amazonaws.com/assets.knackhq.com/assets/5853e6992e7f151d490cd3f6/5abe453768aa591eab311541/thumb/raimonsibiloportfolioengimages4.jpg"" />",https://s3.amazonaws.com/assets.knackhq.com/assets/5853e6992e7f151d490cd3f6/5abe453768aa591eab311541/original/raimonsibiloportfolioengimages4.jpg,CLAIM MY NATURE
02/23/2017 0:57,1082,P,Manuel,Colombo,manuelcolombo.photo@gmail.com,"<img src=""https://s3.amazonaws.com/assets.knackhq.com/assets/5853e6992e7f151d490cd3f6/59d35b790a9d4c23b9e19641/thumb/dsc07800.jpg"" />",https://s3.amazonaws.com/assets.knackhq.com/assets/5853e6992e7f151d490cd3f6/59d35b790a9d4c23b9e19641/original/dsc07800.jpg,
02/23/2018 1:18,1111,S,Artem,Struyanskiy,hatarti@gmail.com,"<img src=""https://s3.amazonaws.com/assets.knackhq.com/assets/5853e6992e7f151d490cd3f6/5a8f5f528ee9040a38baca04/thumb/kollektion001.jpg"" />",https://s3.amazonaws.com/assets.knackhq.com/assets/5853e6992e7f151d490cd3f6/5a8f5f528ee9040a38baca04/original/kollektion001.jpg,Kollektion
02/23/2018 17:27,1114,V,Sven,Serkis,kontakt@svenserkis.de,"<img src=""https://s3.amazonaws.com/assets.knackhq.com/assets/5853e6992e7f151d490cd3f6/5a90444ec16f887444a722cb/thumb/_mg_2947alssmartobjekt1.jpg"" />",https://s3.amazonaws.com/assets.knackhq.com/assets/5853e6992e7f151d490cd3f6/5a90444ec16f887444a722cb/original/_mg_2947alssmartobjekt1.jpg,
02/25/2018 7:44,1128,J,Rangga,Purbaya,rggprby@gmail.com,"<img src=""https://s3.amazonaws.com/assets.knackhq.com/assets/5853e6992e7f151d490cd3f6/5a925d9e1a99dd13cdd76a6f/thumb/_dsc7999.jpg"" />",https://s3.amazonaws.com/assets.knackhq.com/assets/5853e6992e7f151d490cd3f6/5a925d9e1a99dd13cdd76a6f/original/_dsc7999.jpg,Landscape Of Deception
02/25/2018 14:02,1131,M,Lucia,Kempkes,info@luciakempkes.com,"<img src=""https://s3.amazonaws.com/assets.knackhq.com/assets/5853e6992e7f151d490cd3f6/5a9cfe7aead1aa7da70c486d/thumb/_1000634.jpg"" />",https://s3.amazonaws.com/assets.knackhq.com/assets/5853e6992e7f151d490cd3f6/5a9cfe7aead1aa7da70c486d/original/_1000634.jpg,Studio view
02/26/2018 14:23,1145,A,Maren,Langer,mail@marenlanger.de,"<img src=""https://s3.amazonaws.com/assets.knackhq.com/assets/5853e6992e7f151d490cd3f6/5a940e25d2434013da7db628/thumb/bildschirmfoto20171224um16.31.02.png"" />",https://s3.amazonaws.com/assets.knackhq.com/assets/5853e6992e7f151d490cd3f6/5a940e25d2434013da7db628/original/bildschirmfoto20171224um16.31.02.png,
02/27/2018 16:25,1169,Y,Claudia,Corona,maisondeco11@gmail.com,"<img src=""https://s3.amazonaws.com/assets.knackhq.com/assets/5853e6992e7f151d490cd3f6/5a958eeed887804764b3074b/thumb/c.corona2.jpg"" />",https://s3.amazonaws.com/assets.knackhq.com/assets/5853e6992e7f151d490cd3f6/5a958eeed887804764b3074b/original/c.corona2.jpg,
02/28/2018 10:59,1183,M,Daniel,Lergon,daniellergon@gmx.de,"<img src=""https://s3.amazonaws.com/assets.knackhq.com/assets/5853e6992e7f151d490cd3f6/5a96837282180d398701c797/thumb/37untitledoiloncanvas200x200cm.jpg"" />",https://s3.amazonaws.com/assets.knackhq.com/assets/5853e6992e7f151d490cd3f6/5a96837282180d398701c797/original/37untitledoiloncanvas200x200cm.jpg,"untitled, 2017, oil on canvas, 200x200cm"
03/01/2018 15:50,1190,T,Rosalio,Vargas,vargasrosalio@gmail.com,"<img src=""https://s3.amazonaws.com/assets.knackhq.com/assets/5853e6992e7f151d490cd3f6/5a98147546da42094615b383/thumb/img_1727.png"" />",https://s3.amazonaws.com/assets.knackhq.com/assets/5853e6992e7f151d490cd3f6/5a98147546da42094615b383/original/img_1727.png,Pleased to be present
03/06/2018 1:18,1250,B,Erin,Long,erinelyselong@gmail.com,"<img src=""https://s3.amazonaws.com/assets.knackhq.com/assets/5853e6992e7f151d490cd3f6/5a9f7017c3a61a4d7cf22f99/thumb/facetune_19022018235216.jpg"" />",https://s3.amazonaws.com/assets.knackhq.com/assets/5853e6992e7f151d490cd3f6/5a9f7017c3a61a4d7cf22f99/original/facetune_19022018235216.jpg,
03/06/2018 20:48,1256,H,Ben,Silberstein,bribenestlesin@gmail.com,"<img src=""https://s3.amazonaws.com/assets.knackhq.com/assets/5853e6992e7f151d490cd3f6/5a9f096168a5ee40edd88d9e/thumb/img_5821.jpg"" />",https://s3.amazonaws.com/assets.knackhq.com/assets/5853e6992e7f151d490cd3f6/5a9f096168a5ee40edd88d9e/original/img_5821.jpg,"""why do you always feel like you have to do something?"" (acrylic paint)"
03/07/2017 0:01,1259,K,Diana,Matoso,dswayd@gmail.com,"<img src=""https://s3.amazonaws.com/assets.knackhq.com/assets/5853e6992e7f151d490cd3f6/5939d48c61d1414ea35a9f0f/thumb/20161216_154051.jpg"" />",https://s3.amazonaws.com/assets.knackhq.com/assets/5853e6992e7f151d490cd3f6/5939d48c61d1414ea35a9f0f/original/20161216_154051.jpg,Keyrings made from disused plastic bags
03/07/2018 6:31,1264,P,Camilla,Taylor,camilla.a.taylor@gmail.com,"<img src=""https://s3.amazonaws.com/assets.knackhq.com/assets/5853e6992e7f151d490cd3f6/5aa01da630e3077150bf9e1c/thumb/001_web.jpg"" />",https://s3.amazonaws.com/assets.knackhq.com/assets/5853e6992e7f151d490cd3f6/5aa01da630e3077150bf9e1c/original/001_web.jpg,You will always hesitate
03/08/2018 17:37,1279,E,Giulio,Zanet,giuliozanet@gmail.com,"<img src=""https://s3.amazonaws.com/assets.knackhq.com/assets/5853e6992e7f151d490cd3f6/5aa17903b089980f878fc6b4/thumb/giuliozanet_fonderia27.jpg"" />",https://s3.amazonaws.com/assets.knackhq.com/assets/5853e6992e7f151d490cd3f6/5aa17903b089980f878fc6b4/original/giuliozanet_fonderia27.jpg,
03/08/2018 21:32,1281,G,Carlos,Beltran Arechiga,beltronicastudio@gmail.com,"<img src=""https://s3.amazonaws.com/assets.knackhq.com/assets/5853e6992e7f151d490cd3f6/5aa1bdd3917c0a7347ed7356/thumb/img_2534.jpg"" />",https://s3.amazonaws.com/assets.knackhq.com/assets/5853e6992e7f151d490cd3f6/5aa1bdd3917c0a7347ed7356/original/img_2534.jpg,My first museum survey exhibition
03/09/2017 12:27,1284,J,Alex,Kolbe,akolbeee@gmail.com,"<img src=""https://s3.amazonaws.com/assets.knackhq.com/assets/5853e6992e7f151d490cd3f6/5a6fb6835aab5458afde6222/thumb/img_3841.jpg"" />",https://s3.amazonaws.com/assets.knackhq.com/assets/5853e6992e7f151d490cd3f6/5a6fb6835aab5458afde6222/original/img_3841.jpg,Design direction for new kind of tasting event for Waldorf Astoria
03/10/2018 10:56,1305,E,Milena,Sgambato,milena.sgambato@libero.it,"<img src=""https://s3.amazonaws.com/assets.knackhq.com/assets/5853e6992e7f151d490cd3f6/5aa3b4d7b3ef7118b022a501/thumb/33..jpg"" />",https://s3.amazonaws.com/assets.knackhq.com/assets/5853e6992e7f151d490cd3f6/5aa3b4d7b3ef7118b022a501/original/33..jpg,"On-Off, 2017, Solo Show, E23 Gallery , Naples"
03/12/2018 18:12,1316,P,Chiara,Cordeschi,chiaracordeschi@yahoo.it,"<img src=""https://s3.amazonaws.com/assets.knackhq.com/assets/5853e6992e7f151d490cd3f6/5aa7a37f06d6be18d3ad0139/thumb/7.jpg"" />",https://s3.amazonaws.com/assets.knackhq.com/assets/5853e6992e7f151d490cd3f6/5aa7a37f06d6be18d3ad0139/original/7.jpg,Hung like Jesus
03/13/2018 15:47,1329,C,Sabrina,Barrios,info@sabrinabarrios.com,"<img src=""https://s3.amazonaws.com/assets.knackhq.com/assets/5853e6992e7f151d490cd3f6/5aaeb779d1c4471bee3c0450/thumb/tiamat_08_bx.jpg"" />",https://s3.amazonaws.com/assets.knackhq.com/assets/5853e6992e7f151d490cd3f6/5aaeb779d1c4471bee3c0450/original/tiamat_08_bx.jpg,Epic of Creation–TIAMAT
03/13/2018 20:23,1331,E,Mauro,Maugliani,mauro@mauglianiart.com,"<img src=""https://s3.amazonaws.com/assets.knackhq.com/assets/5853e6992e7f151d490cd3f6/5aa8e18e1af4840a49ce8f9e/thumb/dsc_0109.jpg"" />",https://s3.amazonaws.com/assets.knackhq.com/assets/5853e6992e7f151d490cd3f6/5aa8e18e1af4840a49ce8f9e/original/dsc_0109.jpg,"Etoiles Filantes, Solo Show, Mattatoio (ex Macro Testaccio) Roma.2018,carbonized and abrasive wood"
03/14/2018 5:09,1345,S,Gianfranco,Basso,info@gianfrancobasso.it,"<img src=""https://s3.amazonaws.com/assets.knackhq.com/assets/5853e6992e7f151d490cd3f6/5aa8a27014dec418cea75c2d/thumb/vision1.jpg"" />",https://s3.amazonaws.com/assets.knackhq.com/assets/5853e6992e7f151d490cd3f6/5aa8a27014dec418cea75c2d/original/vision1.jpg,
03/14/2018 20:13,1355,C,Luca,Paccusse,luca_paccusse@yahoo.it,"<img src=""https://s3.amazonaws.com/assets.knackhq.com/assets/5853e6992e7f151d490cd3f6/5aa98de731364f74bc8a137e/thumb/24176681_1984155415178565_6705465362186345196_n.jpg"" />",https://s3.amazonaws.com/assets.knackhq.com/assets/5853e6992e7f151d490cd3f6/5aa98de731364f74bc8a137e/original/24176681_1984155415178565_6705465362186345196_n.jpg,Exhibition
03/15/2018 5:02,1366,N,Alick,Alick,every28hoursplays@gmail.com,"<img src=""https://s3.amazonaws.com/assets.knackhq.com/assets/5853e6992e7f151d490cd3f6/5aa9f58360125375da677159/thumb/img_0116.jpg"" />",https://s3.amazonaws.com/assets.knackhq.com/assets/5853e6992e7f151d490cd3f6/5aa9f58360125375da677159/original/img_0116.jpg,Producing Indigenous Peoples day
03/15/2018 11:20,1370,R,HMK,HotelMariakapel,office@hotelmariakapel.nl,"<img src=""https://s3.amazonaws.com/assets.knackhq.com/assets/5853e6992e7f151d490cd3f6/5ac4cafa30fc001868d0f9a3/thumb/dsc_9424_flat.jpg"" />",https://s3.amazonaws.com/assets.knackhq.com/assets/5853e6992e7f151d490cd3f6/5ac4cafa30fc001868d0f9a3/original/dsc_9424_flat.jpg,"In the Hold by Vincent Vulsma, January 2018"
03/15/2018 18:18,1374,V,Siobhan,McClure,smcclurerose@roadrunner.com,"<img src=""https://s3.amazonaws.com/assets.knackhq.com/assets/5853e6992e7f151d490cd3f6/5aaabab60de87d4c01cf5bab/thumb/residuefromthesaltmarshchronicle.jpg"" />",https://s3.amazonaws.com/assets.knackhq.com/assets/5853e6992e7f151d490cd3f6/5aaabab60de87d4c01cf5bab/original/residuefromthesaltmarshchronicle.jpg,"RESIDUE, oil/panel, 10 x 8"", 2017"
03/16/2018 23:20,1401,W,Zoe,Natale Mannella,zoe.natale@gmail.com,"<img src=""https://s3.amazonaws.com/assets.knackhq.com/assets/5853e6992e7f151d490cd3f6/5aac674bb5d9e91be0fbc579/thumb/zoenatalemannella_metalmagazine_13.jpg"" />",https://s3.amazonaws.com/assets.knackhq.com/assets/5853e6992e7f151d490cd3f6/5aac674bb5d9e91be0fbc579/original/zoenatalemannella_metalmagazine_13.jpg,
03/17/2017 6:55,1407,C,tomas,colaco,colacotomas@gmail.com,"<img src=""https://s3.amazonaws.com/assets.knackhq.com/assets/5853e6992e7f151d490cd3f6/59844295d9832658ef880221/thumb/capturadeecra20170804as09.13.28.png"" />",https://s3.amazonaws.com/assets.knackhq.com/assets/5853e6992e7f151d490cd3f6/59844295d9832658ef880221/original/capturadeecra20170804as09.13.28.png,grilo..our working studio
03/17/2018 9:44,1412,H,Nicole,Voltan,nicolevoltan@gmail.com,"<img src=""https://s3.amazonaws.com/assets.knackhq.com/assets/5853e6992e7f151d490cd3f6/5aacfe978c5dda1bdd94cd06/thumb/img_8005.jpg"" />",https://s3.amazonaws.com/assets.knackhq.com/assets/5853e6992e7f151d490cd3f6/5aacfe978c5dda1bdd94cd06/original/img_8005.jpg,"""In 2.000.000.001 | graphite drawing on paper on panels | cm 170 x 170 x 6 | 2017"
03/19/2018 16:06,1435,E,ali,zaidi,seek@alizaidiarts.com,"<img src=""https://s3.amazonaws.com/assets.knackhq.com/assets/5853e6992e7f151d490cd3f6/5aafe142b97de81bdabe99c8/thumb/tareq_s_r_montford1024x512.jpg"" />",https://s3.amazonaws.com/assets.knackhq.com/assets/5853e6992e7f151d490cd3f6/5aafe142b97de81bdabe99c8/original/tareq_s_r_montford1024x512.jpg,1001 UnMasked (on-going photographic project)            https://alizaidiarts.com/1001-unmasked-hyper-real-portraits-of-gender/
03/19/2018 19:32,1438,H,Pippa,Healy,pippahello@hotmail.com,"<img src=""https://s3.amazonaws.com/assets.knackhq.com/assets/5853e6992e7f151d490cd3f6/5addd08292efc12876ccfb97/thumb/healypippa9.jpg"" />",https://s3.amazonaws.com/assets.knackhq.com/assets/5853e6992e7f151d490cd3f6/5addd08292efc12876ccfb97/original/healypippa9.jpg,"At this hour' Where does your mind wander in your final hours? Which experiences are revisited? ‘At This Hour’ explores memories and their role in the final moments of life.  If you could return to a place or a person in your last days, where would you go? What would you choose to experience one last time? Might a painting or a favourite place be something, or somewhere, you would like to revisit? As we reflect on the memories built up over a lifetime, some have emotional resonance above all others. Some are there until our very last breath."
03/19/2018 23:58,1439,I,Helen,Sear,hmsear@gmail.com,"<img src=""https://s3.amazonaws.com/assets.knackhq.com/assets/5853e6992e7f151d490cd3f6/5b21779da7093801eec96771/thumb/beetmountain2017.jpg"" />",https://s3.amazonaws.com/assets.knackhq.com/assets/5853e6992e7f151d490cd3f6/5b21779da7093801eec96771/original/beetmountain2017.jpg,
03/20/2017 11:57,1441,K,Duarte,Netto,contact@duartenetto.com,"<img src=""https://s3.amazonaws.com/assets.knackhq.com/assets/5853e6992e7f151d490cd3f6/58ffc7ddc8ec372c08e5d8e4/thumb/reencenacao09.jpg"" />",https://s3.amazonaws.com/assets.knackhq.com/assets/5853e6992e7f151d490cd3f6/58ffc7ddc8ec372c08e5d8e4/original/reencenacao09.jpg,"Reenactment #9, 135x200 cm, 2015 - 2016"
03/20/2018 12:41,1447,Q,Allan,Dransfield,allan@lifekollektiv.com,"<img src=""https://s3.amazonaws.com/assets.knackhq.com/assets/5853e6992e7f151d490cd3f6/5ab26c0dcb71641bdb187d6b/thumb/jumpingproject_270115.jpg"" />",https://s3.amazonaws.com/assets.knackhq.com/assets/5853e6992e7f151d490cd3f6/5ab26c0dcb71641bdb187d6b/original/jumpingproject_270115.jpg,JUMP! A 9 year social document of human expression
03/22/2018 12:51,1506,X,Guillaume,Linard-Osorio,g.linard.osorio@gmail.com,"<img src=""https://s3.amazonaws.com/assets.knackhq.com/assets/5853e6992e7f151d490cd3f6/5ab3ae0b71886813b2fe52d5/thumb/01.jpg"" />",https://s3.amazonaws.com/assets.knackhq.com/assets/5853e6992e7f151d490cd3f6/5ab3ae0b71886813b2fe52d5/original/01.jpg,"Exhibition view, solo show Ecce terra, et cetera at Alain Gutharc galeery, Paris"
03/22/2018 18:23,1510,B,Maurizio,Chiantone,buxreal@gmail.com,"<img src=""https://s3.amazonaws.com/assets.knackhq.com/assets/5853e6992e7f151d490cd3f6/5ab3eb381c8cd25cdc7bfe0e/thumb/oggetto.jpg"" />",https://s3.amazonaws.com/assets.knackhq.com/assets/5853e6992e7f151d490cd3f6/5ab3eb381c8cd25cdc7bfe0e/original/oggetto.jpg,Collective performance at Filangieri Asylum multifunctional space | Naples | Italy
03/23/2018 18:04,1524,P,Ollie,Hayward,olliehaywardimages@outlook.com,"<img src=""https://s3.amazonaws.com/assets.knackhq.com/assets/5853e6992e7f151d490cd3f6/5aba5965d408484334c467f1/thumb/olliehayward_1.3.jpg"" />",https://s3.amazonaws.com/assets.knackhq.com/assets/5853e6992e7f151d490cd3f6/5aba5965d408484334c467f1/original/olliehayward_1.3.jpg,"""1.3"" from ""Body of Ours"""
03/24/2017 14:39,1538,D,Antonio,Amendola,a.amendola@gmail.com,"<img src=""https://s3.amazonaws.com/assets.knackhq.com/assets/5853e6992e7f151d490cd3f6/5a70acd00a6f7153509329f9/thumb/aa14_theapulians_129.jpg"" />",https://s3.amazonaws.com/assets.knackhq.com/assets/5853e6992e7f151d490cd3f6/5a70acd00a6f7153509329f9/original/aa14_theapulians_129.jpg,
03/25/2018 11:26,1548,N,Franco,Di Cesare,franco@francodicesare.com,"<img src=""https://s3.amazonaws.com/assets.knackhq.com/assets/5853e6992e7f151d490cd3f6/5abe2ea7c010091eb8a1b0c6/thumb/l.d.i.004217.multimediaoncanvassize120x90cm.2017..jpg"" />",https://s3.amazonaws.com/assets.knackhq.com/assets/5853e6992e7f151d490cd3f6/5abe2ea7c010091eb8a1b0c6/original/l.d.i.004217.multimediaoncanvassize120x90cm.2017..jpg,"L.d.i. 004-217. multimedia on canvas, size 120x90cm. 2017."
03/26/2018 20:35,1560,Z,Henry,Tyrrell,henrytyrrell@hotmail.com,"<img src=""https://s3.amazonaws.com/assets.knackhq.com/assets/5853e6992e7f151d490cd3f6/5ab959fc3c05741c75fc5ca9/thumb/img_4762.jpg"" />",https://s3.amazonaws.com/assets.knackhq.com/assets/5853e6992e7f151d490cd3f6/5ab959fc3c05741c75fc5ca9/original/img_4762.jpg,"Untitled, Gouache on Paper, 25 x 35 cm, 2016"
03/27/2017 11:28,1562,B,joseph,heidecker,jheideck3@optonline.net,"<img src=""https://s3.amazonaws.com/assets.knackhq.com/assets/5853e6992e7f151d490cd3f6/59d23c3c99830720eb0d6ee6/thumb/woodsculpturewhair.jpg"" />",https://s3.amazonaws.com/assets.knackhq.com/assets/5853e6992e7f151d490cd3f6/59d23c3c99830720eb0d6ee6/original/woodsculpturewhair.jpg,Found Form w hair
03/27/2018 9:45,1568,H,Maurizio,L'Altrella,laltro.topo@gmail.com,"<img src=""https://s3.amazonaws.com/assets.knackhq.com/assets/5853e6992e7f151d490cd3f6/5ab9ff4b3d165e1dbb3f93aa/thumb/nativita.jpg"" />",https://s3.amazonaws.com/assets.knackhq.com/assets/5853e6992e7f151d490cd3f6/5ab9ff4b3d165e1dbb3f93aa/original/nativita.jpg,"""Natività in utero"", 2017, cm 60x60, oil on canvas."
03/27/2018 16:32,1572,L,Simone,Monsi,simonemonsi@ymail.com,"<img src=""https://s3.amazonaws.com/assets.knackhq.com/assets/5853e6992e7f151d490cd3f6/5aba5b06f549eb0920564c17/thumb/72trwbiamsometimes2016.jpg"" />",https://s3.amazonaws.com/assets.knackhq.com/assets/5853e6992e7f151d490cd3f6/5aba5b06f549eb0920564c17/original/72trwbiamsometimes2016.jpg,"Transparent word banners (I am sometimes not in touch with my feelings), 2016"
03/28/2018 0:00,1583,W,Andreea,Teleaga,andreeateleaga@gmail.com,"<img src=""https://s3.amazonaws.com/assets.knackhq.com/assets/5853e6992e7f151d490cd3f6/5abb8b801942e5476afb2422/thumb/andreeateleagaviolenceisanewkindofinstinct01.jpg"" />",https://s3.amazonaws.com/assets.knackhq.com/assets/5853e6992e7f151d490cd3f6/5abb8b801942e5476afb2422/original/andreeateleagaviolenceisanewkindofinstinct01.jpg,"002, Violence is a New Kind of Instinct, a series of nine silver prints created from a black and white negative punctured with a nail"
03/28/2018 9:24,1584,X,Enzo,Comin,contact@enzocomin.com,"<img src=""https://s3.amazonaws.com/assets.knackhq.com/assets/5853e6992e7f151d490cd3f6/5abb44a32c00651dc001550b/thumb/enzocomin_lafotografiaestesa_07.jpg"" />",https://s3.amazonaws.com/assets.knackhq.com/assets/5853e6992e7f151d490cd3f6/5abb44a32c00651dc001550b/original/enzocomin_lafotografiaestesa_07.jpg,
03/29/2018 3:56,1597,K,Jane,Szabo,jane@janeszabophotography.com,"<img src=""https://s3.amazonaws.com/assets.knackhq.com/assets/5853e6992e7f151d490cd3f6/5abc7c02eaa535437b0e2eb0/thumb/jane_szabo_img_9505.jpg"" />",https://s3.amazonaws.com/assets.knackhq.com/assets/5853e6992e7f151d490cd3f6/5abc7c02eaa535437b0e2eb0/original/jane_szabo_img_9505.jpg,MOAH Billboard Project
03/29/2018 23:48,1600,N,Masha,Biryukova,mangomadness22@gmail.com,"<img src=""https://s3.amazonaws.com/assets.knackhq.com/assets/5853e6992e7f151d490cd3f6/5abf8a8e14642d295b84b3cf/thumb/wkvn0npql6a.jpg"" />",https://s3.amazonaws.com/assets.knackhq.com/assets/5853e6992e7f151d490cd3f6/5abf8a8e14642d295b84b3cf/original/wkvn0npql6a.jpg,2014 Audio installation. (8 speakers inside the black box).
03/30/2018 18:21,1602,P,Amelie,Mckee,amelie.mckee@wanadoo.fr,"<img src=""https://s3.amazonaws.com/assets.knackhq.com/assets/5853e6992e7f151d490cd3f6/5acf4c2a8c0b4057ba9bfd4a/thumb/2017edit7d5x7inches.jpg"" />",https://s3.amazonaws.com/assets.knackhq.com/assets/5853e6992e7f151d490cd3f6/5acf4c2a8c0b4057ba9bfd4a/original/2017edit7d5x7inches.jpg,"Hampstead heath 1936, FB print, 2016"
03/31/2018 14:04,1613,A,Alba,Balmaseda,alba.balmaseda@hotmail.com,"<img src=""https://s3.amazonaws.com/assets.knackhq.com/assets/5853e6992e7f151d490cd3f6/5ac08e3d199ced1e93832f72/thumb/rutilio.jpg"" />",https://s3.amazonaws.com/assets.knackhq.com/assets/5853e6992e7f151d490cd3f6/5ac08e3d199ced1e93832f72/original/rutilio.jpg,Refurbishment for an urban flat
04/01/2018 15:13,1618,F,Jane,McAdam Freud,mail@janemcadamfreud.com,"<img src=""https://s3.amazonaws.com/assets.knackhq.com/assets/5853e6992e7f151d490cd3f6/5ac1d9ec2ffe861eac4ba901/thumb/web1.jpg"" />",https://s3.amazonaws.com/assets.knackhq.com/assets/5853e6992e7f151d490cd3f6/5ac1d9ec2ffe861eac4ba901/original/web1.jpg,Object - Fix Me in Your Turquoise Gaze Installation
04/04/2017 12:12,1652,N,Marcela,Jardón,artist.residencies@barcelonaarte.es,"<img src=""https://s3.amazonaws.com/assets.knackhq.com/assets/5853e6992e7f151d490cd3f6/596b2520a72db25fd528f746/thumb/flyer_julio.jpg"" />",https://s3.amazonaws.com/assets.knackhq.com/assets/5853e6992e7f151d490cd3f6/596b2520a72db25fd528f746/original/flyer_julio.jpg,Work on paper
04/05/2017 0:01,1658,T,Joe,Sobel,applylppa@gmail.com,"<img src=""https://s3.amazonaws.com/assets.knackhq.com/assets/5853e6992e7f151d490cd3f6/58e786c354a3584adb13bd2b/thumb/dsc_3331.jpg"" />",https://s3.amazonaws.com/assets.knackhq.com/assets/5853e6992e7f151d490cd3f6/58e786c354a3584adb13bd2b/original/dsc_3331.jpg,
04/05/2018 15:07,1668,D,Maïa,Régis,maiaregis95@gmail.com,"<img src=""https://s3.amazonaws.com/assets.knackhq.com/assets/5853e6992e7f151d490cd3f6/5ac622ce3350c01fb5a2c079/thumb/heads.jpg"" />",https://s3.amazonaws.com/assets.knackhq.com/assets/5853e6992e7f151d490cd3f6/5ac622ce3350c01fb5a2c079/original/heads.jpg,Heads (acrylic on canvas)
04/06/2017 8:25,1682,R,Michal,Martychowiec,info@michalmartychowiec.com,"<img src=""https://s3.amazonaws.com/assets.knackhq.com/assets/5853e6992e7f151d490cd3f6/58f3ccf2d563190cc5fdd6ba/thumb/a181c.jpg"" />",https://s3.amazonaws.com/assets.knackhq.com/assets/5853e6992e7f151d490cd3f6/58f3ccf2d563190cc5fdd6ba/original/a181c.jpg,
04/06/2018 14:08,1691,A,Gunther,Herbst,guntherdh63@hotmail.com,"<img src=""https://s3.amazonaws.com/assets.knackhq.com/assets/5853e6992e7f151d490cd3f6/5ac886f58b93721fa04b772c/thumb/gloversisland3.jpg"" />",https://s3.amazonaws.com/assets.knackhq.com/assets/5853e6992e7f151d490cd3f6/5ac886f58b93721fa04b772c/original/gloversisland3.jpg,"Glovers Island 3 2007, Acrylic on paper, 35 x 42 cm"
04/06/2018 20:19,1696,F,Anissa,Lewis,anissa.lewis@gmail.com,"<img src=""https://s3.amazonaws.com/assets.knackhq.com/assets/5853e6992e7f151d490cd3f6/5ac7c1e495856a6f142642fd/thumb/lewisfamilyaltar.jpg"" />",https://s3.amazonaws.com/assets.knackhq.com/assets/5853e6992e7f151d490cd3f6/5ac7c1e495856a6f142642fd/original/lewisfamilyaltar.jpg,Installation
04/07/2018 1:56,1706,P,Francine,Affourtit,francineka@gmail.com,"<img src=""https://s3.amazonaws.com/assets.knackhq.com/assets/5853e6992e7f151d490cd3f6/5ac9094fe31a6d1fa9adcc2d/thumb/teatromarinoni9223.jpg"" />",https://s3.amazonaws.com/assets.knackhq.com/assets/5853e6992e7f151d490cd3f6/5ac9094fe31a6d1fa9adcc2d/original/teatromarinoni9223.jpg,
04/07/2018 5:57,1707,Q,Jerry,Wellman,jerrywellman1@gmail.com,"<img src=""https://s3.amazonaws.com/assets.knackhq.com/assets/5853e6992e7f151d490cd3f6/5acee284a86b381fcb4185ce/thumb/noosphere.jpg"" />",https://s3.amazonaws.com/assets.knackhq.com/assets/5853e6992e7f151d490cd3f6/5acee284a86b381fcb4185ce/original/noosphere.jpg,
04/07/2018 23:27,1709,S,Youssef,Kubis,youssefkubis@gmail.com,"<img src=""https://s3.amazonaws.com/assets.knackhq.com/assets/5853e6992e7f151d490cd3f6/5ac93f769b31991fd6584428/thumb/2018021709.50.23.jpg"" />",https://s3.amazonaws.com/assets.knackhq.com/assets/5853e6992e7f151d490cd3f6/5ac93f769b31991fd6584428/original/2018021709.50.23.jpg,Self Design Home
04/09/2017 4:29,1722,F,marie jeanne,hoffner,mjhoffner@hotmail.com,"<img src=""https://s3.amazonaws.com/assets.knackhq.com/assets/5853e6992e7f151d490cd3f6/59f86380d4837d4e208ba9a3/thumb/p1010091.jpg"" />",https://s3.amazonaws.com/assets.knackhq.com/assets/5853e6992e7f151d490cd3f6/59f86380d4837d4e208ba9a3/original/p1010091.jpg,a particular portion of space
04/09/2018 21:20,1740,X,Jeannette,Unite,jeannette@artunite.com,"<img src=""https://s3.amazonaws.com/assets.knackhq.com/assets/5853e6992e7f151d490cd3f6/5acbc791891f7d1fbfda2431/thumb/jeannetteunitepaintingtheindustrialsublime.jpg"" />",https://s3.amazonaws.com/assets.knackhq.com/assets/5853e6992e7f151d490cd3f6/5acbc791891f7d1fbfda2431/original/jeannetteunitepaintingtheindustrialsublime.jpg,Measuring modernity Exhibition
04/10/2017 15:06,1750,H,Dexter,Dean,info@ventiko.com,"<img src=""https://s3.amazonaws.com/assets.knackhq.com/assets/5853e6992e7f151d490cd3f6/591a911d95c239390982e9ca/thumb/sylvadeanatbushwickunited.jpg"" />",https://s3.amazonaws.com/assets.knackhq.com/assets/5853e6992e7f151d490cd3f6/591a911d95c239390982e9ca/original/sylvadeanatbushwickunited.jpg,Sylva Dean at Bushwick United
04/11/2017 8:15,1760,R,Sonia,Toneu,info@hannacc.com,"<img src=""https://s3.amazonaws.com/assets.knackhq.com/assets/5853e6992e7f151d490cd3f6/58ecd009ff0a9048f555869a/thumb/songofrtacriliconcanvas130x130cm.jpg"" />",https://s3.amazonaws.com/assets.knackhq.com/assets/5853e6992e7f151d490cd3f6/58ecd009ff0a9048f555869a/original/songofrtacriliconcanvas130x130cm.jpg,
04/11/2017 10:31,1762,T,Jacqueline,van de Geer,vandegeerjacqueline@gmail.com,"<img src=""https://s3.amazonaws.com/assets.knackhq.com/assets/5853e6992e7f151d490cd3f6/59258ebefa5aa048eb6d6efc/thumb/12jvandegeer.jpg"" />",https://s3.amazonaws.com/assets.knackhq.com/assets/5853e6992e7f151d490cd3f6/59258ebefa5aa048eb6d6efc/original/12jvandegeer.jpg,"listen to my art beat, on art and togetherness"
04/11/2018 10:00,1776,H,Mario,Gonzalez,mariogonzalezdelanuez@gmail.com,"<img src=""https://s3.amazonaws.com/assets.knackhq.com/assets/5853e6992e7f151d490cd3f6/5ae1850282eb0028646d637b/thumb/fullsizerender7.jpg"" />",https://s3.amazonaws.com/assets.knackhq.com/assets/5853e6992e7f151d490cd3f6/5ae1850282eb0028646d637b/original/fullsizerender7.jpg,drypoint
04/13/2017 17:04,1784,P,Megan,M.,megan_michlik@yahoo.com,"<img src=""https://s3.amazonaws.com/assets.knackhq.com/assets/5853e6992e7f151d490cd3f6/5aa74bfe542b1d18c4c386e9/thumb/68add2f12e1b448ca8851946dda7588d.jpeg"" />",https://s3.amazonaws.com/assets.knackhq.com/assets/5853e6992e7f151d490cd3f6/5aa74bfe542b1d18c4c386e9/original/68add2f12e1b448ca8851946dda7588d.jpeg,happy client
04/14/2018 15:01,1795,A,Pannarai,Manoonphol,pannarai.m@gmail.com,"<img src=""https://s3.amazonaws.com/assets.knackhq.com/assets/5853e6992e7f151d490cd3f6/5ad406102a51c420ef28aa4d/thumb/s__46383116.jpg"" />",https://s3.amazonaws.com/assets.knackhq.com/assets/5853e6992e7f151d490cd3f6/5ad406102a51c420ef28aa4d/original/s__46383116.jpg,
04/15/2018 8:08,1798,D,Jesse,Alk,jessealk@gmail.com,"<img src=""https://s3.amazonaws.com/assets.knackhq.com/assets/5853e6992e7f151d490cd3f6/5ad4a749180c6820df270e70/thumb/dog_doorway.jpg"" />",https://s3.amazonaws.com/assets.knackhq.com/assets/5853e6992e7f151d490cd3f6/5ad4a749180c6820df270e70/original/dog_doorway.jpg,Production still from Pariah Dog.
04/16/2018 0:00,1801,G,Harriet,Fleuriot,harrietfleuriot@hotmail.com,"<img src=""https://s3.amazonaws.com/assets.knackhq.com/assets/5853e6992e7f151d490cd3f6/5ad3cd8457049620fea185aa/thumb/cockingsfleuriot_plasmavista_web_6.jpg"" />",https://s3.amazonaws.com/assets.knackhq.com/assets/5853e6992e7f151d490cd3f6/5ad3cd8457049620fea185aa/original/cockingsfleuriot_plasmavista_web_6.jpg,
04/18/2018 17:08,1813,S,Veronica,Ho,veronicaeho@gmail.com,"<img src=""https://s3.amazonaws.com/assets.knackhq.com/assets/5853e6992e7f151d490cd3f6/5ad765b4ae0de02709345a25/thumb/img_2411.jpg"" />",https://s3.amazonaws.com/assets.knackhq.com/assets/5853e6992e7f151d490cd3f6/5ad765b4ae0de02709345a25/original/img_2411.jpg,Aspiring Model on Miami Beach
04/18/2018 18:02,1814,T,Jemila,MacEwan,jemilamacewan@gmail.com,"<img src=""https://s3.amazonaws.com/assets.knackhq.com/assets/5853e6992e7f151d490cd3f6/5ad76e3dca424926f7030cbf/thumb/macewan_jemila_1.jpg"" />",https://s3.amazonaws.com/assets.knackhq.com/assets/5853e6992e7f151d490cd3f6/5ad76e3dca424926f7030cbf/original/macewan_jemila_1.jpg,"Casa, 2016"
04/19/2017 12:19,1825,E,liria,varne,liriaartist@gmail.com,"<img src=""https://s3.amazonaws.com/assets.knackhq.com/assets/5853e6992e7f151d490cd3f6/58fb6ba4346a990d6db57a00/thumb/img_20160424_165159.jpg"" />",https://s3.amazonaws.com/assets.knackhq.com/assets/5853e6992e7f151d490cd3f6/58fb6ba4346a990d6db57a00/original/img_20160424_165159.jpg,stickers/collage/Street art
04/19/2017 14:04,1829,I,Rachel,Tine,racheltine@gmail.com,"<img src=""https://s3.amazonaws.com/assets.knackhq.com/assets/5853e6992e7f151d490cd3f6/58ffaa7ed7f78129bd5d6340/thumb/20160914img_3246editeditedit.jpg"" />",https://s3.amazonaws.com/assets.knackhq.com/assets/5853e6992e7f151d490cd3f6/58ffaa7ed7f78129bd5d6340/original/20160914img_3246editeditedit.jpg,
04/19/2017 18:11,1837,Q,Donna,Henes,cityshaman@aol.com,"<img src=""https://s3.amazonaws.com/assets.knackhq.com/assets/5853e6992e7f151d490cd3f6/590c9f64f3ec1030d97c04a8/thumb/phyllisgalembo.jpeg"" />",https://s3.amazonaws.com/assets.knackhq.com/assets/5853e6992e7f151d490cd3f6/590c9f64f3ec1030d97c04a8/original/phyllisgalembo.jpeg,Mama Donna's Blessing Band leading the Greenwich Village Halloween Parade for 10 years
04/19/2017 20:10,1839,S,Kristen,Watson,kristen@kristenmwatson.com,"<img src=""https://s3.amazonaws.com/assets.knackhq.com/assets/5853e6992e7f151d490cd3f6/58fe3b7ab9fb80132c92a915/thumb/sequencing_2016_kristenmwatson_12.jpg"" />",https://s3.amazonaws.com/assets.knackhq.com/assets/5853e6992e7f151d490cd3f6/58fe3b7ab9fb80132c92a915/original/sequencing_2016_kristenmwatson_12.jpg,sequencing_2016 kristen m. watson
04/19/2018 15:50,1842,V,Nick,Pinto,nicktkpinto@gmail.com,"<img src=""https://s3.amazonaws.com/assets.knackhq.com/assets/5853e6992e7f151d490cd3f6/5ad8a430169bdc2887d84078/thumb/1e6d0c2b5c664ea2a15a82315f0b417b.jpeg"" />",https://s3.amazonaws.com/assets.knackhq.com/assets/5853e6992e7f151d490cd3f6/5ad8a430169bdc2887d84078/original/1e6d0c2b5c664ea2a15a82315f0b417b.jpeg,Match - Branding
04/19/2018 18:16,1843,W,Esteban,Villalta,estebanrockabillyvillalta@gmail.com,"<img src=""https://s3.amazonaws.com/assets.knackhq.com/assets/5853e6992e7f151d490cd3f6/5b05514e4de4c42969f51102/thumb/_parismonamour_1986200x160.jpg"" />",https://s3.amazonaws.com/assets.knackhq.com/assets/5853e6992e7f151d490cd3f6/5b05514e4de4c42969f51102/original/_parismonamour_1986200x160.jpg,
04/19/2018 21:17,1845,Y,Bret,Watkins,bret.w.watkins@gmail.com,"<img src=""https://s3.amazonaws.com/assets.knackhq.com/assets/5853e6992e7f151d490cd3f6/5af09eb4cf11952c79869c35/thumb/whatshouldido.jpg"" />",https://s3.amazonaws.com/assets.knackhq.com/assets/5853e6992e7f151d490cd3f6/5af09eb4cf11952c79869c35/original/whatshouldido.jpg,What Do I Do Now?
04/21/2017 6:37,1856,J,Rose,Davies,scribblah@hotmail.co.uk,"<img src=""https://s3.amazonaws.com/assets.knackhq.com/assets/5853e6992e7f151d490cd3f6/59d4ba99db91cb3a0313fd0e/thumb/composite3.jpg"" />",https://s3.amazonaws.com/assets.knackhq.com/assets/5853e6992e7f151d490cd3f6/59d4ba99db91cb3a0313fd0e/original/composite3.jpg,A composite of drawn portraits from a series I am doing of Baby Boomers
04/21/2018 12:20,1862,P,Sabrina,Gevaerd,asabrinagevaerd@gmail.com,"<img src=""https://s3.amazonaws.com/assets.knackhq.com/assets/5853e6992e7f151d490cd3f6/5adb14d7415909286000e1a0/thumb/2125ff617b46426394e781d0c77b3405.jpeg"" />",https://s3.amazonaws.com/assets.knackhq.com/assets/5853e6992e7f151d490cd3f6/5adb14d7415909286000e1a0/original/2125ff617b46426394e781d0c77b3405.jpeg,Illustration - pleasure VI
04/23/2018 21:51,1883,K,andre,romitelli,andre.romitelli@gmail.com,"<img src=""https://s3.amazonaws.com/assets.knackhq.com/assets/5853e6992e7f151d490cd3f6/5ade3b9f73cc3b286053379e/thumb/projetofeito4.jpg"" />",https://s3.amazonaws.com/assets.knackhq.com/assets/5853e6992e7f151d490cd3f6/5ade3b9f73cc3b286053379e/original/projetofeito4.jpg,
04/24/2017 15:35,1890,R,Melina,Pena,melina.is.pena@gmail.com,"<img src=""https://s3.amazonaws.com/assets.knackhq.com/assets/5853e6992e7f151d490cd3f6/59259f2e019b484bf15822c2/thumb/screenshot20170307at21.31.01.png"" />",https://s3.amazonaws.com/assets.knackhq.com/assets/5853e6992e7f151d490cd3f6/59259f2e019b484bf15822c2/original/screenshot20170307at21.31.01.png,"Come in Come in! - Video Performance. Tijuana Mexico, 2009"
04/26/2017 21:12,1920,V,Monica,Rezman,monicarezman@sbcglobal.net,"<img src=""https://s3.amazonaws.com/assets.knackhq.com/assets/5853e6992e7f151d490cd3f6/5946c8a26c8e1c4c2fa70273/thumb/themeetingoftwooceans.jpg"" />",https://s3.amazonaws.com/assets.knackhq.com/assets/5853e6992e7f151d490cd3f6/5946c8a26c8e1c4c2fa70273/original/themeetingoftwooceans.jpg,Painting and Charcoal drawing on paper
04/26/2018 19:17,1921,W,Isabelle,Caron,isabellcaron@hotmail.com,"<img src=""https://s3.amazonaws.com/assets.knackhq.com/assets/5853e6992e7f151d490cd3f6/5ae20c50ff3edd28722bfaef/thumb/_mg_0782_sebastien_roy.jpg"" />",https://s3.amazonaws.com/assets.knackhq.com/assets/5853e6992e7f151d490cd3f6/5ae20c50ff3edd28722bfaef/original/_mg_0782_sebastien_roy.jpg,"Rouge Mekong, Lebovitz collective"
04/28/2017 12:42,1934,J,Benoit,Maubrey,mail@benoitmaubrey.com,"<img src=""https://s3.amazonaws.com/assets.knackhq.com/assets/5853e6992e7f151d490cd3f6/59d36959de43f025b40a7b2a/thumb/cube.jpg"" />",https://s3.amazonaws.com/assets.knackhq.com/assets/5853e6992e7f151d490cd3f6/59d36959de43f025b40a7b2a/original/cube.jpg,CUBE: an interactive public sound space
04/28/2017 20:32,1939,O,Debbie,Davies,debbietdavies@aol.com,"<img src=""https://s3.amazonaws.com/assets.knackhq.com/assets/5853e6992e7f151d490cd3f6/5910c87aa2d3783133cfe62d/thumb/draculaact1.jpg"" />",https://s3.amazonaws.com/assets.knackhq.com/assets/5853e6992e7f151d490cd3f6/5910c87aa2d3783133cfe62d/original/draculaact1.jpg,Paper flowers project
04/28/2018 8:23,1940,P,Lauren,Ruth,laurencruth@gmail.com,"<img src=""https://s3.amazonaws.com/assets.knackhq.com/assets/5853e6992e7f151d490cd3f6/5b021d965152a5088b7bc430/thumb/images_page_14.jpg"" />",https://s3.amazonaws.com/assets.knackhq.com/assets/5853e6992e7f151d490cd3f6/5b021d965152a5088b7bc430/original/images_page_14.jpg,
04/29/2017 10:25,1944,T,Debbie,Davies,litehausgalerie@gmail.com,"<img src=""https://s3.amazonaws.com/assets.knackhq.com/assets/5853e6992e7f151d490cd3f6/5910d6bbc480ee2fee8e3b42/thumb/spiral54small.jpg"" />",https://s3.amazonaws.com/assets.knackhq.com/assets/5853e6992e7f151d490cd3f6/5910d6bbc480ee2fee8e3b42/original/spiral54small.jpg,my abstract painting series SPIRALS
04/30/2018 19:22,1951,A,Robin,Lambert,lambert.robin@gmail.com,"<img src=""https://s3.amazonaws.com/assets.knackhq.com/assets/5853e6992e7f151d490cd3f6/5ae753355038f66441b9aecf/thumb/lambert2018banffcentreimages.004.jpeg"" />",https://s3.amazonaws.com/assets.knackhq.com/assets/5853e6992e7f151d490cd3f6/5ae753355038f66441b9aecf/original/lambert2018banffcentreimages.004.jpeg,I should like to give you a give you a kiss
05/03/2017 0:00,1964,N,Cecilia,Westerberg,cwesterberg@yahoo.com,"<img src=""https://s3.amazonaws.com/assets.knackhq.com/assets/5853e6992e7f151d490cd3f6/590ae29da24b5b266f4480e2/thumb/animation_river_01.jpg"" />",https://s3.amazonaws.com/assets.knackhq.com/assets/5853e6992e7f151d490cd3f6/590ae29da24b5b266f4480e2/original/animation_river_01.jpg,"Digital animation projected onto water in Adelaide, Australia. 2015"
05/03/2018 17:10,1971,U,Paulo,H,paulo44uk@gmail.com,"<img src=""https://s3.amazonaws.com/assets.knackhq.com/assets/5853e6992e7f151d490cd3f6/5aec2eacba2ea86cbbf71293/thumb/my_new_project_05.jpg"" />",https://s3.amazonaws.com/assets.knackhq.com/assets/5853e6992e7f151d490cd3f6/5aec2eacba2ea86cbbf71293/original/my_new_project_05.jpg,workshop
05/04/2017 5:15,1973,W,Alberto,Parres,albertoparres@gmail.com,"<img src=""https://s3.amazonaws.com/assets.knackhq.com/assets/5853e6992e7f151d490cd3f6/590af66e4b916626712ad0ca/thumb/w2.jpg"" />",https://s3.amazonaws.com/assets.knackhq.com/assets/5853e6992e7f151d490cd3f6/590af66e4b916626712ad0ca/original/w2.jpg,Warriors 180 cm. x 100 cm.
05/04/2018 13:54,1977,A,Ciara,Brown,ciarabrown@hotmail.co.uk,"<img src=""https://s3.amazonaws.com/assets.knackhq.com/assets/5853e6992e7f151d490cd3f6/5aec5a1d944b3e2a1c7baef8/thumb/colne.jpg"" />",https://s3.amazonaws.com/assets.knackhq.com/assets/5853e6992e7f151d490cd3f6/5aec5a1d944b3e2a1c7baef8/original/colne.jpg,
05/06/2017 8:07,1988,L,Roberto,Pace,pace.roberto@fastwebnet.it,"<img src=""https://s3.amazonaws.com/assets.knackhq.com/assets/5853e6992e7f151d490cd3f6/590dc220d7a8c74381c2bd95/thumb/robertopacecatalogofrascati1942011bis2copia2.jpg"" />",https://s3.amazonaws.com/assets.knackhq.com/assets/5853e6992e7f151d490cd3f6/590dc220d7a8c74381c2bd95/original/robertopacecatalogofrascati1942011bis2copia2.jpg,"2011/""film con sottotitoli"", Scuderie Aldobrandini, Frascati ( Roma)"
05/10/2017 12:04,2006,D,leyla,cardenas,lehila@gmail.com,"<img src=""https://s3.amazonaws.com/assets.knackhq.com/assets/5853e6992e7f151d490cd3f6/5913428d4c04f6310207df2c/thumb/4.jpg"" />",https://s3.amazonaws.com/assets.knackhq.com/assets/5853e6992e7f151d490cd3f6/5913428d4c04f6310207df2c/original/4.jpg,removed-drawing the facade of the palais de tokyo with it´s own layers
05/10/2017 13:30,2009,G,Oloya,Peter,oloyart@gmail.com,"<img src=""https://s3.amazonaws.com/assets.knackhq.com/assets/5853e6992e7f151d490cd3f6/591355706abbcb35ba092099/thumb/image.jpeg"" />",https://s3.amazonaws.com/assets.knackhq.com/assets/5853e6992e7f151d490cd3f6/591355706abbcb35ba092099/original/image.jpeg,
05/10/2018 23:28,2017,O,Kai,Des Etages,kaidesetages@gmail.com,"<img src=""https://s3.amazonaws.com/assets.knackhq.com/assets/5853e6992e7f151d490cd3f6/5af5ace16b55ed6aa7363aec/thumb/1d8c9813bbb343d0ba9049e8746145a7.jpeg"" />",https://s3.amazonaws.com/assets.knackhq.com/assets/5853e6992e7f151d490cd3f6/5af5ace16b55ed6aa7363aec/original/1d8c9813bbb343d0ba9049e8746145a7.jpeg,
05/11/2017 5:23,2018,P,Lydia,Bauman,lydia.bauman@googlemail.com,"<img src=""https://s3.amazonaws.com/assets.knackhq.com/assets/5853e6992e7f151d490cd3f6/591494140cf1b03590a2c86c/thumb/img_1163.jpg"" />",https://s3.amazonaws.com/assets.knackhq.com/assets/5853e6992e7f151d490cd3f6/591494140cf1b03590a2c86c/original/img_1163.jpg,Night Wood 122x96cm m/m on canvas
05/17/2018 17:46,2067,M,Laurel,Terlesky,hello@laurelterlesky.ca,"<img src=""https://s3.amazonaws.com/assets.knackhq.com/assets/5853e6992e7f151d490cd3f6/5b0442e4e1a4b829524fcef4/thumb/04nollostandfound.jpg"" />",https://s3.amazonaws.com/assets.knackhq.com/assets/5853e6992e7f151d490cd3f6/5b0442e4e1a4b829524fcef4/original/04nollostandfound.jpg,Lost and Found Collaboration with Bren Simmers)
05/18/2018 12:38,2075,U,franz,pelloud,franz@pelloud.com,"<img src=""https://s3.amazonaws.com/assets.knackhq.com/assets/5853e6992e7f151d490cd3f6/5afeafd380b7866cc636b2cb/thumb/femmedanslaruedeshommes.jpg"" />",https://s3.amazonaws.com/assets.knackhq.com/assets/5853e6992e7f151d490cd3f6/5afeafd380b7866cc636b2cb/original/femmedanslaruedeshommes.jpg,Woman in men street...Acrylic on Canvas... Sold at the GLAAD outauction
05/23/2017 9:59,2104,X,Boris,Eldagsen,mail@eldagsen.com,"<img src=""https://s3.amazonaws.com/assets.knackhq.com/assets/5853e6992e7f151d490cd3f6/5923fe4c92a1103cdb0d0b11/thumb/dhaka.jpg"" />",https://s3.amazonaws.com/assets.knackhq.com/assets/5853e6992e7f151d490cd3f6/5923fe4c92a1103cdb0d0b11/original/dhaka.jpg,
05/24/2017 16:38,2124,R,Gabriela,Rosa da Silva,gabriela_rosa_dasilva@yahoo.fr,"<img src=""https://s3.amazonaws.com/assets.knackhq.com/assets/5853e6992e7f151d490cd3f6/592894c392f7084bfdc5c731/thumb/2imwirbelsturminthewhirl_gabrielar.dasilva_email.jpg"" />",https://s3.amazonaws.com/assets.knackhq.com/assets/5853e6992e7f151d490cd3f6/592894c392f7084bfdc5c731/original/2imwirbelsturminthewhirl_gabrielar.dasilva_email.jpg,The green plastique-Man (who is winning - nature or plastique-world?
05/24/2017 18:13,2126,T,Gigi,Fields,gigirosafields@yahoo.com,"<img src=""https://s3.amazonaws.com/assets.knackhq.com/assets/5853e6992e7f151d490cd3f6/5b25e63cc8d7ce31f0052cdc/thumb/image.jpeg"" />",https://s3.amazonaws.com/assets.knackhq.com/assets/5853e6992e7f151d490cd3f6/5b25e63cc8d7ce31f0052cdc/original/image.jpeg,
05/24/2018 14:37,2136,D,DIANA,ALI,alidiana@gmail.com,"<img src=""https://s3.amazonaws.com/assets.knackhq.com/assets/5853e6992e7f151d490cd3f6/5b06e47061a9dd171b42dae6/thumb/dsc_1616.jpg"" />",https://s3.amazonaws.com/assets.knackhq.com/assets/5853e6992e7f151d490cd3f6/5b06e47061a9dd171b42dae6/original/dsc_1616.jpg,Performance
05/25/2017 1:06,2140,H,Steven,Day,sdayny@gmail.com,"<img src=""https://s3.amazonaws.com/assets.knackhq.com/assets/5853e6992e7f151d490cd3f6/5926283c9975404da600b368/thumb/shreditacrylicandsilkscreenmediumoncanavs30x23in20172017.jpg"" />",https://s3.amazonaws.com/assets.knackhq.com/assets/5853e6992e7f151d490cd3f6/5926283c9975404da600b368/original/shreditacrylicandsilkscreenmediumoncanavs30x23in20172017.jpg,shred-it 2017 acrylic and silkscreen medium on canvas 30x20 in 2016
05/25/2017 14:01,2146,N,Demetria,Verduci,info@chianticom.com,"<img src=""https://s3.amazonaws.com/assets.knackhq.com/assets/5853e6992e7f151d490cd3f6/5926ca85352e7c4933704bea/thumb/myhome00006.jpg"" />",https://s3.amazonaws.com/assets.knackhq.com/assets/5853e6992e7f151d490cd3f6/5926ca85352e7c4933704bea/original/myhome00006.jpg,
05/25/2017 15:16,2147,O,Jacqueline,van der Venne,design@jacquelinevandervenne.nl,"<img src=""https://s3.amazonaws.com/assets.knackhq.com/assets/5853e6992e7f151d490cd3f6/5926da9cdbad574bd3e65bd4/thumb/18485256_10208576493192187_7273056251311008475_n.jpg"" />",https://s3.amazonaws.com/assets.knackhq.com/assets/5853e6992e7f151d490cd3f6/5926da9cdbad574bd3e65bd4/original/18485256_10208576493192187_7273056251311008475_n.jpg,Installation art
05/27/2017 23:01,2171,M,Jason,McPhillips,jemcphillips@studiomcphillips.com,"<img src=""https://s3.amazonaws.com/assets.knackhq.com/assets/5853e6992e7f151d490cd3f6/592a0415fe95774d814a41eb/thumb/negentropy_700.jpg"" />",https://s3.amazonaws.com/assets.knackhq.com/assets/5853e6992e7f151d490cd3f6/592a0415fe95774d814a41eb/original/negentropy_700.jpg,"""Negentropy"", Oil, gold leaf, and sgraffito on panel"
05/27/2018 13:08,2175,Q,Laquet,Christine,christine.laquet@gmail.com,"<img src=""https://s3.amazonaws.com/assets.knackhq.com/assets/5853e6992e7f151d490cd3f6/5b0a9f308fbe066ebff1fe8c/thumb/couteaux.jpg"" />",https://s3.amazonaws.com/assets.knackhq.com/assets/5853e6992e7f151d490cd3f6/5b0a9f308fbe066ebff1fe8c/original/couteaux.jpg,"Lollipops Knives 40 sugar knives (lengh: 60cm) - Performance at Pioneer Works with Robert Steijn, NYC, 2013"
05/27/2018 14:25,2176,R,Erin,Hughes,0elhughes0@gmail.com,"<img src=""https://s3.amazonaws.com/assets.knackhq.com/assets/5853e6992e7f151d490cd3f6/5b0aa8385810a170ac2b44e8/thumb/4.0x.jpg"" />",https://s3.amazonaws.com/assets.knackhq.com/assets/5853e6992e7f151d490cd3f6/5b0aa8385810a170ac2b44e8/original/4.0x.jpg,"Home Me, emuslsion, projected images from collection of house and home magazines, wall paper lining, 2014"
05/29/2017 18:18,2189,E,monika,bravo,monika@monikabravo.com,"<img src=""https://s3.amazonaws.com/assets.knackhq.com/assets/5853e6992e7f151d490cd3f6/5afdb4a6ea68c229451f80b1/thumb/bravo03.jpg"" />",https://s3.amazonaws.com/assets.knackhq.com/assets/5853e6992e7f151d490cd3f6/5afdb4a6ea68c229451f80b1/original/bravo03.jpg,"commission b the MTA arts and design for upcoming sunway station, mosaic made at franz mayer munich"
05/30/2017 12:49,2196,L,Andreia,Splisgar,splisgar@splisgar.de,"<img src=""https://s3.amazonaws.com/assets.knackhq.com/assets/5853e6992e7f151d490cd3f6/5a8c2c3ef1585a7352a5df4e/thumb/chapter1framekopie.jpg"" />",https://s3.amazonaws.com/assets.knackhq.com/assets/5853e6992e7f151d490cd3f6/5a8c2c3ef1585a7352a5df4e/original/chapter1framekopie.jpg,"image from ""the difference - how to celebrate surviving"""
05/31/2017 2:53,2212,B,Barton,Lewis,bartonlewis@optonline.net,"<img src=""https://s3.amazonaws.com/assets.knackhq.com/assets/5853e6992e7f151d490cd3f6/59347c165a42dc4f50ed8f35/thumb/erp3.jpg"" />",https://s3.amazonaws.com/assets.knackhq.com/assets/5853e6992e7f151d490cd3f6/59347c165a42dc4f50ed8f35/original/erp3.jpg,"film still from ""East River Pavilion, Upper East Side, New York City"""
06/01/2017 10:33,2224,N,Laurence,O'Toole,lartoole@gmail.com,"<img src=""https://s3.amazonaws.com/assets.knackhq.com/assets/5853e6992e7f151d490cd3f6/59d4c6402d47e839e3256361/thumb/1mbanotetomyself.jpeg"" />",https://s3.amazonaws.com/assets.knackhq.com/assets/5853e6992e7f151d490cd3f6/59d4c6402d47e839e3256361/original/1mbanotetomyself.jpeg,"“ Note to self ” Oil on canvas    90cm x 120cm  This painting is a confirmation of where I am with my work and how I got here. It has been borne out of the last few years restructuring my self which was borne out of following what I want from my work. Not what I ‘can’ do, or what I am accomplished at and can repeat and tweak and repeat again but what I want to say. The narrative here is myself, tethered to what’s important in my life, the way forward, no matter how delicate the thread, the choice is made. The snares of outside influence, rejection and control will always be blowing in the wind, dangling closer than we want to admit….. but for now, I have tied my self to the handle of my creative well. For this is what I need, maybe its all I need"
06/01/2018 18:29,2232,V,nick,fracaro,nick@intlculturelab.org,"<img src=""https://s3.amazonaws.com/assets.knackhq.com/assets/5853e6992e7f151d490cd3f6/5b1ac7d66aa1bb1a4981ec23/thumb/georgiabutoh.jpg"" />",https://s3.amazonaws.com/assets.knackhq.com/assets/5853e6992e7f151d490cd3f6/5b1ac7d66aa1bb1a4981ec23/original/georgiabutoh.jpg,Butoh in Republic of Georgia
06/05/2017 11:22,2246,J,Andrea,Sala,lacortedibrenta@gmail.com,"<img src=""https://s3.amazonaws.com/assets.knackhq.com/assets/5853e6992e7f151d490cd3f6/59353b7e9fbb3f47caf1de50/thumb/andreasalamemoriediluoghi.jpg"" />",https://s3.amazonaws.com/assets.knackhq.com/assets/5853e6992e7f151d490cd3f6/59353b7e9fbb3f47caf1de50/original/andreasalamemoriediluoghi.jpg,
06/05/2017 23:40,2248,L,Sidse,Carstens,sidsecarstens@gmail.com,"<img src=""https://s3.amazonaws.com/assets.knackhq.com/assets/5853e6992e7f151d490cd3f6/59386bcd55089a4a42bd0d39/thumb/01_mrket_frame.jpg"" />",https://s3.amazonaws.com/assets.knackhq.com/assets/5853e6992e7f151d490cd3f6/59386bcd55089a4a42bd0d39/original/01_mrket_frame.jpg,still frame from video for Danish Broadcasting Corporation
06/06/2017 8:42,2254,R,Joris,Hofmans,joris.hofmans@gmail.com,"<img src=""https://s3.amazonaws.com/assets.knackhq.com/assets/5853e6992e7f151d490cd3f6/593807395fbd955757d69ce7/thumb/screenshot2017060715.59.23.png"" />",https://s3.amazonaws.com/assets.knackhq.com/assets/5853e6992e7f151d490cd3f6/593807395fbd955757d69ce7/original/screenshot2017060715.59.23.png,Africa Burn Temple
06/06/2017 14:08,2256,T,Steve,Swindells,steveswindells@mac.com,"<img src=""https://s3.amazonaws.com/assets.knackhq.com/assets/5853e6992e7f151d490cd3f6/5936c682e512324c298fd1b1/thumb/streetboxercisefitzrovia.jpg"" />",https://s3.amazonaws.com/assets.knackhq.com/assets/5853e6992e7f151d490cd3f6/5936c682e512324c298fd1b1/original/streetboxercisefitzrovia.jpg,Street Boxercise'. A Photo taken on my iPhoneSE.
06/06/2018 3:53,2260,X,Nicolas,Grenier,grenier.nicolas@gmail.com,"<img src=""https://s3.amazonaws.com/assets.knackhq.com/assets/5853e6992e7f151d490cd3f6/5b17d69d7e1822162c7c1e44/thumb/10_nicolasgrenier_bruges.jpg"" />",https://s3.amazonaws.com/assets.knackhq.com/assets/5853e6992e7f151d490cd3f6/5b17d69d7e1822162c7c1e44/original/10_nicolasgrenier_bruges.jpg,"Installation ""Vertically Integrated Socialism"", Bruges Triennial of Art and Architecture"
06/06/2018 14:59,2262,Z,Art,Destreet,kdestreet@yahoo.com,"<img src=""https://s3.amazonaws.com/assets.knackhq.com/assets/5853e6992e7f151d490cd3f6/5b17ddc43887862d60178c14/thumb/waterisforall.jpg"" />",https://s3.amazonaws.com/assets.knackhq.com/assets/5853e6992e7f151d490cd3f6/5b17ddc43887862d60178c14/original/waterisforall.jpg,
06/06/2018 23:15,2265,C,Claudia,Alemao,francisca.alemao@gmail.com,"<img src=""https://s3.amazonaws.com/assets.knackhq.com/assets/5853e6992e7f151d490cd3f6/5b18f725a020722d38e774e8/thumb/img_1436.jpg"" />",https://s3.amazonaws.com/assets.knackhq.com/assets/5853e6992e7f151d490cd3f6/5b18f725a020722d38e774e8/original/img_1436.jpg,printing and packaging
06/08/2017 16:36,2274,L,Connie,Noyes,cyd@connienoyes.com,"<img src=""https://s3.amazonaws.com/assets.knackhq.com/assets/5853e6992e7f151d490cd3f6/5ab0823fe027a6578c2160cc/thumb/noyes_connie_bodyearth_2017.jpg"" />",https://s3.amazonaws.com/assets.knackhq.com/assets/5853e6992e7f151d490cd3f6/5ab0823fe027a6578c2160cc/original/noyes_connie_bodyearth_2017.jpg,"Body-Earth, 2017"
06/09/2018 15:19,2288,Z,Rachel,Sommer,rachelbsommer@gmail.com,"<img src=""https://s3.amazonaws.com/assets.knackhq.com/assets/5853e6992e7f151d490cd3f6/5b1bfddac010a36b929660ee/thumb/shadow2017rachelsommer.jpg"" />",https://s3.amazonaws.com/assets.knackhq.com/assets/5853e6992e7f151d490cd3f6/5b1bfddac010a36b929660ee/original/shadow2017rachelsommer.jpg,"""Shadow"""
06/12/2018 16:02,2301,M,Maiia,Ivanenko,majaivanenko@gmail.com,"<img src=""https://s3.amazonaws.com/assets.knackhq.com/assets/5853e6992e7f151d490cd3f6/5b1fd6665282246f5e2de1f3/thumb/1.jpg"" />",https://s3.amazonaws.com/assets.knackhq.com/assets/5853e6992e7f151d490cd3f6/5b1fd6665282246f5e2de1f3/original/1.jpg,
06/14/2018 0:00,2312,X,KEVIN,UMANA,umanaki@gmail.com,"<img src=""https://s3.amazonaws.com/assets.knackhq.com/assets/5853e6992e7f151d490cd3f6/5b219b86e2c5161a6419ef2c/thumb/ku6.jpg"" />",https://s3.amazonaws.com/assets.knackhq.com/assets/5853e6992e7f151d490cd3f6/5b219b86e2c5161a6419ef2c/original/ku6.jpg,"Champlain Bridge, 2018 Mixed media on canvas 48 × 48 in; 121.9 × 121.9 cm"
06/21/2017 14:23,2328,N,Alann,De Vuyst,saweedi@yahoo.com,"<img src=""https://s3.amazonaws.com/assets.knackhq.com/assets/5853e6992e7f151d490cd3f6/5a8e15680b03ba7344e7af0d/thumb/dscn2981web.jpg"" />",https://s3.amazonaws.com/assets.knackhq.com/assets/5853e6992e7f151d490cd3f6/5a8e15680b03ba7344e7af0d/original/dscn2981web.jpg,
06/21/2017 16:36,2330,P,Lefteris,Papazoglou,leftphoto@yahoo.gr,"<img src=""https://s3.amazonaws.com/assets.knackhq.com/assets/5853e6992e7f151d490cd3f6/5a8c39fb8a629d72fb60a4ac/thumb/room1.jpg"" />",https://s3.amazonaws.com/assets.knackhq.com/assets/5853e6992e7f151d490cd3f6/5a8c39fb8a629d72fb60a4ac/original/room1.jpg,The Room
06/28/2017 4:09,2340,Z,Kees,Ouwens,kees.ouwens@gmail.com,"<img src=""https://s3.amazonaws.com/assets.knackhq.com/assets/5853e6992e7f151d490cd3f6/5969777ba72db25fd5280349/thumb/imgp02241.jpg"" />",https://s3.amazonaws.com/assets.knackhq.com/assets/5853e6992e7f151d490cd3f6/5969777ba72db25fd5280349/original/imgp02241.jpg,Stone terrace at the Studio.
07/16/2017 4:53,2363,W,Kristi,Beisecker,star_dust125@hotmail.com,"<img src=""https://s3.amazonaws.com/assets.knackhq.com/assets/5853e6992e7f151d490cd3f6/596ad5d5d5182162434f85f9/thumb/seaweed.jpg"" />",https://s3.amazonaws.com/assets.knackhq.com/assets/5853e6992e7f151d490cd3f6/596ad5d5d5182162434f85f9/original/seaweed.jpg,Seaweed | organic materials exposed with electricity and developed normally in a darkroom
08/01/2017 20:45,2374,H,Chris,Lao,kerianlao@gmail.com,"<img src=""https://s3.amazonaws.com/assets.knackhq.com/assets/5853e6992e7f151d490cd3f6/5980dd0f55fd12558a312416/thumb/jpg.jpg"" />",https://s3.amazonaws.com/assets.knackhq.com/assets/5853e6992e7f151d490cd3f6/5980dd0f55fd12558a312416/original/jpg.jpg,In my studio
08/15/2017 17:48,2395,C,Filipa,Assis,filipa.assis@outlook.com,"<img src=""https://s3.amazonaws.com/assets.knackhq.com/assets/5853e6992e7f151d490cd3f6/5993334cbda671281fc488bc/thumb/img_67771.jpg"" />",https://s3.amazonaws.com/assets.knackhq.com/assets/5853e6992e7f151d490cd3f6/5993334cbda671281fc488bc/original/img_67771.jpg,
08/17/2017 4:57,2404,L,GORDEN,KEGYA,kegya@icloud.com,"<img src=""https://s3.amazonaws.com/assets.knackhq.com/assets/5853e6992e7f151d490cd3f6/5995077bd3e81a282105eee2/thumb/yewokrom.jpg"" />",https://s3.amazonaws.com/assets.knackhq.com/assets/5853e6992e7f151d490cd3f6/5995077bd3e81a282105eee2/original/yewokrom.jpg,
08/21/2017 18:56,2418,Z,Alberto,Sorbelli,albertosorbelli2015@gmail.com,"<img src=""https://s3.amazonaws.com/assets.knackhq.com/assets/5853e6992e7f151d490cd3f6/59a0775b22ef622bb6b07952/thumb/_f8a8220.jpg"" />",https://s3.amazonaws.com/assets.knackhq.com/assets/5853e6992e7f151d490cd3f6/59a0775b22ef622bb6b07952/original/_f8a8220.jpg,Bal Rêvé 2016 auteur et mise en scene Alberto Sorbelli
09/01/2017 13:11,2436,R,Leopold,van de Ven,leopoldvandeven@xs4all.nl,"<img src=""https://s3.amazonaws.com/assets.knackhq.com/assets/5853e6992e7f151d490cd3f6/59aa7521c5e00c387eb8917f/thumb/dsc_3855kopie72.jpg"" />",https://s3.amazonaws.com/assets.knackhq.com/assets/5853e6992e7f151d490cd3f6/59aa7521c5e00c387eb8917f/original/dsc_3855kopie72.jpg,"Untitled, wood, plasterboard, cardboard,papier-mache 86 x 106 x 89 cm, 2013"
09/09/2017 0:59,2448,D,Antonio,Carvalho,5dcreativehub@gmail.com,"<img src=""https://s3.amazonaws.com/assets.knackhq.com/assets/5853e6992e7f151d490cd3f6/59e1020ed4e5464bf0749674/thumb/dscf0233.jpg"" />",https://s3.amazonaws.com/assets.knackhq.com/assets/5853e6992e7f151d490cd3f6/59e1020ed4e5464bf0749674/original/dscf0233.jpg,
09/22/2017 15:34,2471,A,Maya,Bracha,mayabracha2017@gmail.com,"<img src=""https://s3.amazonaws.com/assets.knackhq.com/assets/5853e6992e7f151d490cd3f6/59c518c8d4655a24cc011b01/thumb/img_5105.jpg"" />",https://s3.amazonaws.com/assets.knackhq.com/assets/5853e6992e7f151d490cd3f6/59c518c8d4655a24cc011b01/original/img_5105.jpg,
09/25/2017 1:10,2476,F,Freyja,Bardell,freya.greenmeme@gmail.com,"<img src=""https://s3.amazonaws.com/assets.knackhq.com/assets/5853e6992e7f151d490cd3f6/59ca75168fe60b20e7ccd35a/thumb/fbyirwide.jpg"" />",https://s3.amazonaws.com/assets.knackhq.com/assets/5853e6992e7f151d490cd3f6/59ca75168fe60b20e7ccd35a/original/fbyirwide.jpg,Set for Facebook
09/26/2017 12:40,2478,H,Jorge,Leal,jrgleal@gmail.com,"<img src=""https://s3.amazonaws.com/assets.knackhq.com/assets/5853e6992e7f151d490cd3f6/59ca32ebcfcea120e862e889/thumb/feetdelight18.jpg"" />",https://s3.amazonaws.com/assets.knackhq.com/assets/5853e6992e7f151d490cd3f6/59ca32ebcfcea120e862e889/original/feetdelight18.jpg,Feet Delight n18
10/07/2017 7:04,2499,C,Katia,Engel,info@katiaengel.com,"<img src=""https://s3.amazonaws.com/assets.knackhq.com/assets/5853e6992e7f151d490cd3f6/5a4e1fe95f51ca581f6b4dd4/thumb/image2.jpg"" />",https://s3.amazonaws.com/assets.knackhq.com/assets/5853e6992e7f151d490cd3f6/5a4e1fe95f51ca581f6b4dd4/original/image2.jpg,installation Mount Bromo / East Java
10/10/2017 13:52,2509,M,Allison,Blumenthal,allison.blumenthal@gmail.com,"<img src=""https://s3.amazonaws.com/assets.knackhq.com/assets/5853e6992e7f151d490cd3f6/59e0dda0aa5f324a9ebd1f93/thumb/media_file_162.jpg"" />",https://s3.amazonaws.com/assets.knackhq.com/assets/5853e6992e7f151d490cd3f6/59e0dda0aa5f324a9ebd1f93/original/media_file_162.jpg,"untitled work on paper, 2017"
10/18/2017 9:59,2524,B,Destreet,Ayub Kabati,destreet.kla@gmail.com,"<img src=""https://s3.amazonaws.com/assets.knackhq.com/assets/5853e6992e7f151d490cd3f6/59e7152bff1ec04f05270dae/thumb/img_2348.jpg"" />",https://s3.amazonaws.com/assets.knackhq.com/assets/5853e6992e7f151d490cd3f6/59e7152bff1ec04f05270dae/original/img_2348.jpg,
10/24/2017 10:42,2538,P,eleonora,diana,eleonora.dn@gmail.com,"<img src=""https://s3.amazonaws.com/assets.knackhq.com/assets/5853e6992e7f151d490cd3f6/59ef0177b8fe264dbc75d327/thumb/framed4.jpg"" />",https://s3.amazonaws.com/assets.knackhq.com/assets/5853e6992e7f151d490cd3f6/59ef0177b8fe264dbc75d327/original/framed4.jpg,Framed // art direction of a stop motion movies
11/13/2017 19:07,2571,W,Pablo,Gamboa,pablogamboasan@hotmail.com,"<img src=""https://s3.amazonaws.com/assets.knackhq.com/assets/5853e6992e7f151d490cd3f6/5a0b4116017894505dde3ea0/thumb/tacticposterweb.jpg"" />",https://s3.amazonaws.com/assets.knackhq.com/assets/5853e6992e7f151d490cd3f6/5a0b4116017894505dde3ea0/original/tacticposterweb.jpg,Tac Tic flyer
11/26/2017 15:57,2582,H,Laura,D'Asta,laury.dasta@gmail.com,"<img src=""https://s3.amazonaws.com/assets.knackhq.com/assets/5853e6992e7f151d490cd3f6/5a2675d5d1b25d53df0ca751/thumb/jlstarwarswiredmagazine1.jpg"" />",https://s3.amazonaws.com/assets.knackhq.com/assets/5853e6992e7f151d490cd3f6/5a2675d5d1b25d53df0ca751/original/jlstarwarswiredmagazine1.jpg,"Wired Magazine, Star Wars, John Lewis ad"
11/27/2017 17:12,2584,J,Ann,Toebbe,anntoebbe@gmail.com,"<img src=""https://s3.amazonaws.com/assets.knackhq.com/assets/5853e6992e7f151d490cd3f6/5a1c3f2935ada153912db9f6/thumb/07toebbepicturesanddolls.jpeg"" />",https://s3.amazonaws.com/assets.knackhq.com/assets/5853e6992e7f151d490cd3f6/5a1c3f2935ada153912db9f6/original/07toebbepicturesanddolls.jpeg,"Pictures and Dolls, 2014, gouache and paper on panel, 24 x 28 inches"
12/04/2017 11:32,2591,Q,Francesca,Pinzari,francesca.pinzari@gmail.com,"<img src=""https://s3.amazonaws.com/assets.knackhq.com/assets/5853e6992e7f151d490cd3f6/5a25307a7f4f8253e4de5580/thumb/chimeracinalow.jpg"" />",https://s3.amazonaws.com/assets.knackhq.com/assets/5853e6992e7f151d490cd3f6/5a25307a7f4f8253e4de5580/original/chimeracinalow.jpg,"Chimera, 2013 bonded horsehair on metal wire"
12/06/2017 12:17,2601,A,Nicolas,Mignani,nicolas.mignani@orange.fr,"<img src=""https://s3.amazonaws.com/assets.knackhq.com/assets/5853e6992e7f151d490cd3f6/5a27d67b70de71578767c605/thumb/sanstitre61sd.jpg"" />",https://s3.amazonaws.com/assets.knackhq.com/assets/5853e6992e7f151d490cd3f6/5a27d67b70de71578767c605/original/sanstitre61sd.jpg,Portrait
12/10/2017 22:58,2612,L,coquelicot,mafille,coclouss@gmail.com,"<img src=""https://s3.amazonaws.com/assets.knackhq.com/assets/5853e6992e7f151d490cd3f6/5a2e7225becde255743a477c/thumb/fundamentalknowledge.jpg"" />",https://s3.amazonaws.com/assets.knackhq.com/assets/5853e6992e7f151d490cd3f6/5a2e7225becde255743a477c/original/fundamentalknowledge.jpg,"Fundamental knowledge, mixed media on paper, 30 x 40 cm, 2016"
12/11/2017 20:09,2614,N,Lluís,Sabadell Artiga,lluis@cocreable.com,"<img src=""https://s3.amazonaws.com/assets.knackhq.com/assets/5853e6992e7f151d490cd3f6/5a300eb8bfe9bc5df835f54c/thumb/noupaticastellum10.jpg"" />",https://s3.amazonaws.com/assets.knackhq.com/assets/5853e6992e7f151d490cd3f6/5a300eb8bfe9bc5df835f54c/original/noupaticastellum10.jpg,"Co-creation of the playground in the Castellum School (Sant Julià de Ramis, Girona 2010-2012)"
,2643,Q,William,Rawlings,william@humanhotel.com,"<img src=""https://s3.amazonaws.com/assets.knackhq.com/assets/5853e6992e7f151d490cd3f6/5a6ca481ea09105829d17c07/thumb/tilt3.jpg"" />",https://s3.amazonaws.com/assets.knackhq.com/assets/5853e6992e7f151d490cd3f6/5a6ca481ea09105829d17c07/original/tilt3.jpg,"Launching Ramp (Tensta, Sweden)"