Created on,Number,Letter,displayName,Name: Title,Name: First,Name: Middle,Name: Last,firstName,lastName,email,password,User Status,User Roles,country,city,location,dateOfBirth,Age,Age - 2,occupation,Profile photo,picture,phoneCountryCode,phoneNumber,socialProfileLink,memberType,memberDetail,recommandedBy,info,interestsTags,workRelatedLink,practiceTags,Work Img. 1,imageOne,imageDescriptionOne,Work Img. 2,imageTwo,imageDescriptionTwo,Work Img. 3,imageThree,imageDescriptionThree,Work Img. 4,imageFour,imageDescriptionFour,Work Img. 5,imageFive,imageDescriptionFive,Work Img. 6,imageSix,imageDescriptionSix,descriptionYourPractices,videoLinkOne,videoDescriptionOne,videoLinkTwo,videoDescriptionTwo,INTERNAL NOTES,I agree to the Terms of Use,Last Updated,Connections,emailConfirmed,Connections/Helpful Details,www.humanhotel.com,Host?
08/16/2017 15:54,2401,I,Sasha Moore,,Sasha,,Moore,Sasha,Moore,moore.sasha@gmail.com,asdqweI2401,active,Member,United Kingdom (UK),"York, United Kingdom","York, United Kingdom, United Kingdom (UK)",,25,48,Project Support Officer,"<img src=""https://s3.amazonaws.com/assets.knackhq.com/assets/5853e6992e7f151d490cd3f6/59944d6245d5922cef76dfac/thumb/laurenandi.jpg"" />",https://s3.amazonaws.com/assets.knackhq.com/assets/5853e6992e7f151d490cd3f6/59944d6245d5922cef76dfac/original/laurenandi.jpg,44,447599660663,facebook.com/sashagracemoore,Guest & Host,Through an event,CLOWN POLICE,,,linkedin.com/in/sasha-moore-783a7a135,,,,,,,,,,,,,,,,,,,,,,,,,,Yes,08/16/2017 15:54,,,,https://www.humanhotel.com,
08/16/2017 16:26,2402,J,Ben Weinstock,,Ben,,Weinstock,Ben,Weinstock,benow555@gmail.com,asdqweJ2402,active,Member,Germany,berlin,"berlin, Germany",,39,48,Hitech,"<img src=""https://s3.amazonaws.com/assets.knackhq.com/assets/5853e6992e7f151d490cd3f6/5994560a7a4be72820500bf5/thumb/cropped15_003_appliftmaxthrelfallphoto0013.jpg"" />",https://s3.amazonaws.com/assets.knackhq.com/assets/5853e6992e7f151d490cd3f6/5994560a7a4be72820500bf5/original/cropped15_003_appliftmaxthrelfallphoto0013.jpg,49,15222660071,@benow555,Guest only,Email,CLOWN POLICE,,,https://www.linkedin.com/in/benweinstock/,,,,,,,,,,,,,,,,,,,,,,,,,,Yes,08/16/2017 16:26,,,,https://www.humanhotel.com,
08/16/2017 20:04,2403,K,Alexandra Hasdorf,,Alexandra,,Hasdorf,Alexandra,Hasdorf,alexandra.hasdorf@gmail.com,asdqweK2403,active,Member,Denmark,Aarhus,"Aarhus, Denmark",24/08/1994,23,24,"Kaospilot, yoga teacher, process & experience designer","<img src=""https://s3.amazonaws.com/assets.knackhq.com/assets/5853e6992e7f151d490cd3f6/599488e284cf4f2822f08965/thumb/hanawolfphotography_sanmarcos_theyogaforest_alex_hr27.jpg"" />",https://s3.amazonaws.com/assets.knackhq.com/assets/5853e6992e7f151d490cd3f6/599488e284cf4f2822f08965/original/hanawolfphotography_sanmarcos_theyogaforest_alex_hr27.jpg,45,25306626,https://www.facebook.com/alexandra.hasdorf,Guest only,Word of mouth,CLOWN POLICE,On a soul mission to turn things upside down for us realize how magic is present everywhere.,"Shape shifter, magic maker, dream weaver",https://www.linkedin.com/in/alexandra-hasdorf-a23a9412a/,"Change maker, good life activist, systems thinking",,,,,,,,,,,,,,,,,,,"I go wherever my curiosity, excitement and wonder takes me. That is currently Kaospilots - a hybrid business/art school based in Denmark educating creative rebels for systemic change.",,,,,,Yes,09/19/2017 15:06,,,,https://www.humanhotel.com,
08/17/2017 4:57,2404,L,GORDEN KEGYA,,GORDEN,,KEGYA,GORDEN,KEGYA,kegya@icloud.com,asdqweL2404,active,Member,,ACCRA,"ACCRA, ",,23,48,ARTIST,"<img src=""https://s3.amazonaws.com/assets.knackhq.com/assets/5853e6992e7f151d490cd3f6/599505b20555bd2817553731/thumb/15844020_1171249389638419_3896799751495896687_o.jpg"" />",https://s3.amazonaws.com/assets.knackhq.com/assets/5853e6992e7f151d490cd3f6/599505b20555bd2817553731/original/15844020_1171249389638419_3896799751495896687_o.jpg,,,https://www.facebook.com/GordenKegya,Host only,Wooloo.org Newsletter,WOOLOO,"Gorden is a digital, figurative, painter/portraitist who considers his lifestyle his career. He spends his days exploring questions affecting the social, emotional, economic, and political aspects of life, then portrays the answers he generates through his art. A digitally remastered visual griot, Gorden views his paintings as a global figure of speech. He’s keenly aware that younger generations use images to lubricate their thinking and promote viral messages. As such, Gorden uses the study of Westernization, technology, and African concepts to tell the story of contemporary Africa. <br />","Kegya,Digitalart,art",https://fineartamerica.com/profiles/kegya-art-gallery.html,"Kegya, Digitalart, Art ","<img src=""https://s3.amazonaws.com/assets.knackhq.com/assets/5853e6992e7f151d490cd3f6/5995072f9865d2281d67c82c/thumb/001xxx.jpg"" />",https://s3.amazonaws.com/assets.knackhq.com/assets/5853e6992e7f151d490cd3f6/5995072f9865d2281d67c82c/original/001xxx.jpg,,"<img src=""https://s3.amazonaws.com/assets.knackhq.com/assets/5853e6992e7f151d490cd3f6/599507384fc861281d2c4693/thumb/002.jpg"" />",https://s3.amazonaws.com/assets.knackhq.com/assets/5853e6992e7f151d490cd3f6/599507384fc861281d2c4693/original/002.jpg,,"<img src=""https://s3.amazonaws.com/assets.knackhq.com/assets/5853e6992e7f151d490cd3f6/59950772f7c7d328461b962c/thumb/trust.jpg"" />",https://s3.amazonaws.com/assets.knackhq.com/assets/5853e6992e7f151d490cd3f6/59950772f7c7d328461b962c/original/trust.jpg,,"<img src=""https://s3.amazonaws.com/assets.knackhq.com/assets/5853e6992e7f151d490cd3f6/5995074f8ae9a628d140bc4e/thumb/008.jpg"" />",https://s3.amazonaws.com/assets.knackhq.com/assets/5853e6992e7f151d490cd3f6/5995074f8ae9a628d140bc4e/original/008.jpg,,"<img src=""https://s3.amazonaws.com/assets.knackhq.com/assets/5853e6992e7f151d490cd3f6/599507835fcef8293650fd0c/thumb/005.jpg"" />",https://s3.amazonaws.com/assets.knackhq.com/assets/5853e6992e7f151d490cd3f6/599507835fcef8293650fd0c/original/005.jpg,,"<img src=""https://s3.amazonaws.com/assets.knackhq.com/assets/5853e6992e7f151d490cd3f6/5995077bd3e81a282105eee2/thumb/yewokrom.jpg"" />",https://s3.amazonaws.com/assets.knackhq.com/assets/5853e6992e7f151d490cd3f6/5995077bd3e81a282105eee2/original/yewokrom.jpg,,"Gorden is a digital, figurative, painter/portraitist who considers his lifestyle his career. He spends his days exploring questions affecting the social, emotional, economic, and political aspects of life, then portrays the answers he generates through his art. A digitally remastered visual griot, Gorden views his paintings as a global figure of speech. He’s keenly aware that younger generations use images to lubricate their thinking and promote viral messages. As such, Gorden uses the study of Westernization, technology, and African concepts to tell the story of contemporary Africa. <br />",,,,,,Yes,08/17/2017 5:04,,,,https://www.humanhotel.com,
08/17/2017 9:49,2405,M,Jhonatan Ceballos,,Jhonatan,,Ceballos,Jhonatan,Ceballos,jhalcon27@gmail.com,asdqweM2405,active,Member,Sweden,Stockholm,"Stockholm, Sweden",,27,48,Consultant,"<img src=""https://s3.amazonaws.com/assets.knackhq.com/assets/5853e6992e7f151d490cd3f6/599549fd3e8d9f284c3a2957/thumb/pp.jpg"" />",https://s3.amazonaws.com/assets.knackhq.com/assets/5853e6992e7f151d490cd3f6/599549fd3e8d9f284c3a2957/original/pp.jpg,46,46703138407,facebook.com/jceballoss,Guest only,Word of mouth,CLOWN POLICE,,,www.linkedin.com/in/jceballoss,,,,,,,,,,,,,,,,,,,,,,,,,,Yes,08/17/2017 9:49,,,,https://www.humanhotel.com,
08/17/2017 10:33,2406,N,Ola Forman,,Ola,,Forman,Ola,Forman,olaforman@hotmail.com,asdqweN2406,active,Member,United Kingdom (UK),London,"London, United Kingdom (UK)",,23,48,Student,"<img src=""https://s3.amazonaws.com/assets.knackhq.com/assets/5853e6992e7f151d490cd3f6/599554214fe5eb2cda94e789/thumb/img_0133.jpg"" />",https://s3.amazonaws.com/assets.knackhq.com/assets/5853e6992e7f151d490cd3f6/599554214fe5eb2cda94e789/original/img_0133.jpg,44,7780715647,www.facebook.com/alexandra.forman,Guest & Host,Word of mouth,CLOWN POLICE,,,https://www.linkedin.com/in/ola-forman-97b30a61/,,,,,,,,,,,,,,,,,,,,,,,,,,Yes,08/17/2017 10:33,,,,https://www.humanhotel.com,
08/17/2017 20:01,2407,O,Michelle Brehmer,,Michelle,,Brehmer,Michelle,Brehmer,brehmer.michelle@gmail.com,asdqweO2407,active,Member,United States of America (USA),Chicago,"Chicago, United States of America (USA)",,26,48,Artist,"<img src=""https://s3.amazonaws.com/assets.knackhq.com/assets/5853e6992e7f151d490cd3f6/5995d9e979c893281c71bdb9/thumb/kelseymartinimg_1007.cr2"" />",https://s3.amazonaws.com/assets.knackhq.com/assets/5853e6992e7f151d490cd3f6/5995d9e979c893281c71bdb9/original/kelseymartinimg_1007.cr2,1,3137821947,@meeeshelbreh,Guest & Host,Wooloo.org Newsletter,,,,michellebrehmer.tumblr.com,,,,,,,,,,,,,,,,,,,,,,,,,,Yes,08/17/2017 20:01,,,,https://www.humanhotel.com,
08/17/2017 20:01,2408,P,Michelle Brehmer,,Michelle,,Brehmer,Michelle,Brehmer,michellebrehmer2012@gmail.com,asdqweP2408,active,Member,United States of America (USA),Chicago,"Chicago, United States of America (USA)",,26,48,Artist,"<img src=""https://s3.amazonaws.com/assets.knackhq.com/assets/5853e6992e7f151d490cd3f6/5995d9e979c893281c71bdb9/thumb/kelseymartinimg_1007.cr2"" />",https://s3.amazonaws.com/assets.knackhq.com/assets/5853e6992e7f151d490cd3f6/5995d9e979c893281c71bdb9/original/kelseymartinimg_1007.cr2,1,3137821947,@meeeshelbreh,Guest & Host,Wooloo.org Newsletter,,,,michellebrehmer.tumblr.com,,,,,,,,,,,,,,,,,,,,,,,,,,Yes,08/17/2017 20:01,,,,https://www.humanhotel.com,
08/18/2017 20:21,2409,Q,Karin Hald,,Karin,,Hald,Karin,Hald,krnhald@gmail.com,asdqweQ2409,active,Member,Denmark,Copenhagen,"Copenhagen , Denmark",,31,48,Artist,"<img src=""https://s3.amazonaws.com/assets.knackhq.com/assets/5853e6992e7f151d490cd3f6/59972fb9a6aa8b2bd8890bf1/thumb/1932287_10152093770328423_1956638027_n.jpg"" />",https://s3.amazonaws.com/assets.knackhq.com/assets/5853e6992e7f151d490cd3f6/59972fb9a6aa8b2bd8890bf1/original/1932287_10152093770328423_1956638027_n.jpg,45,22457705,https://www.facebook.com/karin.hald.5?ref=bookmarks,Guest & Host,Word of mouth,,Im a artist educated in 2015 from Malmö Art Academy and is now doing in master in Literary Composition in Gothenburg.,"text, installation, site specific",https://www.facebook.com/forlagetgestus/?fref=ts,"text, installation, site specific",,,,,,,,,,,,,,,,,,,I have an exhilitionspace combined with a small publishinghouse in Copenhagen. I work with text and installation in my own practice.,,,,,Host Discount 50% of our booking fee for first booked room,Yes,08/18/2017 20:37,,,,https://www.humanhotel.com,
08/19/2017 0:43,2410,R,Michele Di Cosmo,,Michele,,Di Cosmo,Michele,Di Cosmo,micheledicosmo@gmail.com,asdqweR2410,active,Member,United Kingdom (UK),London,"London, United Kingdom (UK)",,31,48,Sofware developer,"<img src=""https://s3.amazonaws.com/assets.knackhq.com/assets/5853e6992e7f151d490cd3f6/59976d468d55722e70a0bc80/thumb/sid_metalwerks_cropped.jpg"" />",https://s3.amazonaws.com/assets.knackhq.com/assets/5853e6992e7f151d490cd3f6/59976d468d55722e70a0bc80/original/sid_metalwerks_cropped.jpg,44,7402294991,https://www.facebook.com/siddhartha.london,Guest & Host,Word of mouth,CLOWN POLICE,,,https://www.linkedin.com/in/micheledicosmo/,,,,,,,,,,,,,,,,,,,,,,,,,,Yes,08/19/2017 0:43,,,,https://www.humanhotel.com,
08/19/2017 10:00,2411,S,Louise Gronemann,,Louise,,Gronemann,Louise,Gronemann,louisegronemann@hotmail.com,asdqweS2411,active,Member,Denmark,Copenhagen,"Copenhagen , Denmark",,33,48,Fashion agent,"<img src=""https://s3.amazonaws.com/assets.knackhq.com/assets/5853e6992e7f151d490cd3f6/5997ef98fe33652c93c4f78e/thumb/img_1072.png"" />",https://s3.amazonaws.com/assets.knackhq.com/assets/5853e6992e7f151d490cd3f6/5997ef98fe33652c93c4f78e/original/img_1072.png,,,@kgmodeagentur,Guest & Host,Word of mouth,,,,www.kgmodeagentur.dk,,,,,,,,,,,,,,,,,,,,,,,,,Host discount 50% of our booking fee for the first guest,Yes,08/19/2017 10:00,,,,https://www.humanhotel.com,
08/19/2017 20:22,2412,T,Devin Maroney,,Devin,,Maroney,Devin,Maroney,devinmaroney@gmail.com,asdqweT2412,active,Member,United States of America (USA),Bethesda,"Bethesda, United States of America (USA)",,34,48,Teacher,"<img src=""https://s3.amazonaws.com/assets.knackhq.com/assets/5853e6992e7f151d490cd3f6/5998811adf13da2bc7bf5537/thumb/img_3997.jpg"" />",https://s3.amazonaws.com/assets.knackhq.com/assets/5853e6992e7f151d490cd3f6/5998811adf13da2bc7bf5537/original/img_3997.jpg,1,2024456360,https://www.facebook.com/devinmaroney,Guest only,Word of mouth,,"I'm a meditation teacher and therapist-in-training who lives by the river in Washington, DC. I really like people and don't need much.",#dioramas #meditation #water,http://mindsincorporated.org/team/devin-maroney/,#mindfulness #meditation #compassion,,,,,,,,,,,,,,,,,,,"I'm a meditation teacher and therapist-in-training who lives by the river in Washington, DC. I really like people and don't need much.",,,,,,Yes,08/19/2017 20:25,,,,https://www.humanhotel.com,
08/20/2017 2:20,2413,U,eva Cammarata,,eva,,Cammarata,eva,Cammarata,eva.cammarata@gmail.com,asdqweU2413,active,Member,United Kingdom (UK),london,"london, United Kingdom (UK)",07/05/1983,34,35,fashion designer - boutique owner,"<img src=""https://s3.amazonaws.com/assets.knackhq.com/assets/5853e6992e7f151d490cd3f6/5a1bd9595f12915304c2e2ea/thumb/eva.png"" />",https://s3.amazonaws.com/assets.knackhq.com/assets/5853e6992e7f151d490cd3f6/5a1bd9595f12915304c2e2ea/original/eva.png,44,7533410896,https://www.facebook.com/profile.php?id=1489922824&lst=1489922824%3A1489922824%3A1503186726&sk=about,Guest & Host,Word of mouth,,I am a passionate art lover.. visit about anything happening in London and I wish I had more time for gigs.. being a fashionista I waste a lot of time browsing cool things online trying not to hit the buy button!,#fashion #art #music,www.evacammarata.com,#knit #green #glam,,,,,,,,,,,,,,,,,,,"I produce ethical fashion with a twist, specialising on comfortable glam and unique knitwear",https://www.youtube.com/channel/UCiRhwH6TKRm2-hfbt1J1hPg/videos?view_as=subscriber&shelf_id=0&view=0&sort=dd,"This is my Youtube Channel, here you can check out a few things I have done with my crazy fashion :) ",,,,Yes,11/23/2017 0:36,,,,https://www.humanhotel.com,
08/20/2017 9:16,2414,V,Alberto Cereser,,Alberto,,Cereser,Alberto,Cereser,mannaro85@gmail.com,asdqweV2414,active,Member,Denmark,Copenhagen,"Copenhagen, Denmark",,31,48,University researcher,"<img src=""https://s3.amazonaws.com/assets.knackhq.com/assets/5853e6992e7f151d490cd3f6/599936928e82bf2bf6b64201/thumb/374ceb2.jpg"" />",https://s3.amazonaws.com/assets.knackhq.com/assets/5853e6992e7f151d490cd3f6/599936928e82bf2bf6b64201/original/374ceb2.jpg,45,71467778,https://twitter.com/albus_c,Guest only,Word of mouth,,"Hi there! I'm a physicist working on new techniques to look inside things in 3D, mixing physics, computer science and more. I'm a non professional reader/writer/runner ;-)<br /><br />I'm 31, originally from Italy and I spent the last few years on tour. My mission for 2017 is to become a better cook.","art, nature, posturbanism",www.linkedin.com/in/albertocereser,"3D, materials, programming",,,,,,,,,,,,,,,,,,,"To look inside materials in 3D, you need a powerful microscope and a creative approach. Together with lots of people way smarter than me, I made a new instrument which uses neutrons. The good thing: it works. The bad thing: for now, to use it you have to travel all the way to Japan!",https://vimeo.com/144471450,"After 3 years of work, I got a working 3D reconstruction of the material we studied!",,,,Yes,08/20/2017 9:25,,,,https://www.humanhotel.com,
08/20/2017 18:25,2415,W,Emily Kawano,,Emily,,Kawano,Emily,Kawano,emilykawano@gmail.com,asdqweW2415,active,Member,United States of America (USA),Belchertown,"Belchertown, United States of America (USA)",,60,48,"economist, activist","<img src=""https://s3.amazonaws.com/assets.knackhq.com/assets/5853e6992e7f151d490cd3f6/5999b70b310d362b8362e233/thumb/emilyatquabbin.jpg"" />",https://s3.amazonaws.com/assets.knackhq.com/assets/5853e6992e7f151d490cd3f6/5999b70b310d362b8362e233/original/emilyatquabbin.jpg,1,413-461-8203,https://www.facebook.com/emily.kawano,Guest & Host,Word of mouth,,,,ussen.org,,,,,,,,,,,,,,,,,,,,,,,,,,Yes,08/20/2017 18:25,,,,https://www.humanhotel.com,
08/20/2017 19:33,2416,X,Ana Brotas,,Ana,,Brotas,Ana,Brotas,anabrotas@hotmail.com,asdqweX2416,active,Member,Portugal,Sesimbra,"Sesimbra, Portugal",10/09/1990,26,28,Mixed media artist,"<img src=""https://s3.amazonaws.com/assets.knackhq.com/assets/5853e6992e7f151d490cd3f6/5999c7bfdf13da2bc7c0169d/thumb/img_20170810_183123.jpg"" />",https://s3.amazonaws.com/assets.knackhq.com/assets/5853e6992e7f151d490cd3f6/5999c7bfdf13da2bc7c0169d/original/img_20170810_183123.jpg,351,351939602140,facebook.com/ana.perola.54,Guest & Host,Wooloo.org Newsletter,,happy,"science, art, education",anabrotas.tumblr.com,"photography, collage, installation",,,,,,,,,,,,,,,,,,,"I am a visual artist interested in material and aesthetic manipulation in order to tell stories. The search to find appropriate forms of visual storytelling has led me to explore a wide range of mediums, connecting art with my social and ecological context.",,,,,,Yes,09/07/2017 13:49,,,,https://www.humanhotel.com,
08/20/2017 20:12,2417,Y,Nada Prlja,,Nada,,Prlja,Nada,Prlja,nada@seriousinterests.co.uk,asdqweY2417,active,Member,United Kingdom (UK),London,"London, United Kingdom (UK)",,45,48,Artist,"<img src=""https://s3.amazonaws.com/assets.knackhq.com/assets/5853e6992e7f151d490cd3f6/5999d0aedf1f0d2bb0c99705/thumb/screenshot20170820at20.10.37.png"" />",https://s3.amazonaws.com/assets.knackhq.com/assets/5853e6992e7f151d490cd3f6/5999d0aedf1f0d2bb0c99705/original/screenshot20170820at20.10.37.png,44,38975410130,https://www.facebook.com/nada.prlja?sw_fnr_id=2203271826&fnr_t=0,Guest only,Word of mouth,,"I have been living in Sarajevo and Skopje, prior to moving to London, when I was 26 years old. I am an artist who has been also teaching in various universities in London since 2005. From 2013, I have been living, with my family, between Skopje and London.",art architecture travelling,www.nadaprlja.com,socially engaged art,,,,,,,,,,,,,,,,,,,"I am an artist who is using different mediums. My projects are multi-layered, site or condition- specific. I work mainly in installation, video installation, live art, public art projects.<br /><br />My main aim is to affect society in the most direct of ways; it challenges critical discourse around issues of current politics, nationalism, transition of ex-socialist countries, human rights, migration, etc. My work adopts a site’s context specific quality or certain kind of social conditions, which may vary from project to project in the choice of media deemed most appropriate.<br /><br />I have also initiated independent gallery space Serious Interests Agency SIA in Skopje, Macedonia in 2013, co directed with an architect Daniel Serafimovski.",,,,,,Yes,08/20/2017 20:20,,,,https://www.humanhotel.com,
08/21/2017 18:56,2418,Z,Alberto Sorbelli,,Alberto,,Sorbelli,Alberto,Sorbelli,albertosorbelli2015@gmail.com,asdqweZ2418,active,Member,France,Paris,"Paris, France",09/05/1964,53,54,Poète,"<img src=""https://s3.amazonaws.com/assets.knackhq.com/assets/5853e6992e7f151d490cd3f6/599b0834cf5f203927dce2f9/thumb/photo22.jpg"" />",https://s3.amazonaws.com/assets.knackhq.com/assets/5853e6992e7f151d490cd3f6/599b0834cf5f203927dce2f9/original/photo22.jpg,33,33616347470,https://www.facebook.com/alberto.sorbelli,Guest & Host,Word of mouth,Martin Rosengaard,,"Yoga, Meditation, Massage, Naturisme, Gastronomie, Cinema, Philosophie,",https://fr.wikipedia.org/wiki/Alberto_Sorbelli,http://www.newmedia-art.org/cgi-bin/show-art.asp?LG=FRA&ID=9000000000080309&na=&pna=&DOC=bio,"<img src=""https://s3.amazonaws.com/assets.knackhq.com/assets/5853e6992e7f151d490cd3f6/599ff4ec94d4f2294d8b7c1d/thumb/img_0519.jpg"" />",https://s3.amazonaws.com/assets.knackhq.com/assets/5853e6992e7f151d490cd3f6/599ff4ec94d4f2294d8b7c1d/original/img_0519.jpg,News paper from Hong Kong Whit my loft and my self come out from Bathtub          https://www.mingpao.com/,"<img src=""https://s3.amazonaws.com/assets.knackhq.com/assets/5853e6992e7f151d490cd3f6/59a08f5c1b5b8b29481319ac/thumb/photo9.png"" />",https://s3.amazonaws.com/assets.knackhq.com/assets/5853e6992e7f151d490cd3f6/59a08f5c1b5b8b29481319ac/original/photo9.png,,"<img src=""https://s3.amazonaws.com/assets.knackhq.com/assets/5853e6992e7f151d490cd3f6/59a076ad6bbfe5294916d947/thumb/_f8a8108.jpg"" />",https://s3.amazonaws.com/assets.knackhq.com/assets/5853e6992e7f151d490cd3f6/59a076ad6bbfe5294916d947/original/_f8a8108.jpg,Bal Rêvé 2016 auteur et mise en scene Alberto Sorbelli,"<img src=""https://s3.amazonaws.com/assets.knackhq.com/assets/5853e6992e7f151d490cd3f6/59a077594788042b6710d3d6/thumb/_f8a8102.jpg"" />",https://s3.amazonaws.com/assets.knackhq.com/assets/5853e6992e7f151d490cd3f6/59a077594788042b6710d3d6/original/_f8a8102.jpg,Bal Rêvé 2016 auteur et mise en scene Alberto Sorbelli,"<img src=""https://s3.amazonaws.com/assets.knackhq.com/assets/5853e6992e7f151d490cd3f6/59a077454771b92948e8a341/thumb/_f8a8122.jpg"" />",https://s3.amazonaws.com/assets.knackhq.com/assets/5853e6992e7f151d490cd3f6/59a077454771b92948e8a341/original/_f8a8122.jpg,Bal Rêvé 2016 auteur et mise en scene Alberto Sorbelli,"<img src=""https://s3.amazonaws.com/assets.knackhq.com/assets/5853e6992e7f151d490cd3f6/59a0775b22ef622bb6b07952/thumb/_f8a8220.jpg"" />",https://s3.amazonaws.com/assets.knackhq.com/assets/5853e6992e7f151d490cd3f6/59a0775b22ef622bb6b07952/original/_f8a8220.jpg,Bal Rêvé 2016 auteur et mise en scene Alberto Sorbelli,"http://sortir.telerama.fr/evenements/expos/alberto-sorbelli-atteindre-le-bal-reve,201776.php<br /><br /><br />http://www.imdb.com/name/nm0814742/<br /><br /><br />http://www.galerie-maisonneuve.com/sorbelli/as_gb_tentative.html<br /><br /><br /><br />Université Paris 1 Panthéon-Sorbonne<br />https://www.univ-paris1.fr/fileadmin/Publi_Sorbonne/Slideshow/vdp.s_r33.pdf<br />De quelques mascarades contemporaines : Cindy Sherman, Alberto Sorbelli, Banksy. Thomas Schlesser. <br /><br /><br /><br />Louis Vuitton : Art, Mode et Architecture (Luxe) - Librairie des Archives ...<br />www.librairiedesarchives.com › ... › Créateurs & Marques (Designers & Brands) › P - Z<br />9 avr. 2014 - Louis Vuitton : Art, Mode et Architecture (Luxe) ... James Rosenquist, Alberto Sorbelli, Stephen Sprouse, Philippe Starck, Sybilla, Juergen Teller ...",http://lamaisonrouge.org/fr/activites-performances-detail/activites/dancecollection-par-alberto-sorbelli/,,http://www.beauxartsparis.fr/fr/l-ecole/a-la-une/1461-colloque-international-fr#quatorze,,,Yes,10/03/2017 18:22,,,,https://www.humanhotel.com,
08/22/2017 11:23,2419,A,Mayel de Borniol,,Mayel,,de Borniol,Mayel,de Borniol,mayel@deborniol.com,asdqweA2419,active,Member,Greece,Athens,"Athens, Greece",01/03/1985,32,33,Tech Activism,"<img src=""https://s3.amazonaws.com/assets.knackhq.com/assets/5853e6992e7f151d490cd3f6/599bf7e58942112b445fb73b/thumb/profile.jpg"" />",https://s3.amazonaws.com/assets.knackhq.com/assets/5853e6992e7f151d490cd3f6/599bf7e58942112b445fb73b/original/profile.jpg,30,447784173771,https://www.facebook.com/mayel2b,Guest & Host,Word of mouth,Julien M," Hi! I’m Mayel. A developer and social entrepreneur who enjoys understanding and hacking systems, and occasionally designing and building new ones.<br /><br />"," Tech, Activism, Travel",http://mayel.space,"Tech, Open, Social",,,,,,,,,,,,,,,,,,,"I've had the pleasure of building a lot of fun projects, including: Podemus, a podcasting platform (one of the first, back in 2005); LeLab.TV, a video platform (for which I also produced video content); Babelverse, an award-winning startup that took on the challenge of creating the 'universal translator', and now as a tech volunteer for many grassroots solidarity organisations in Greece, I’m busy setting up computer labs and online solutions to meet the needs of refugees.<br /><br />With over 10 years experience as a startup founder and over 15 years as a full-stack web app developer, I can help with a wide range of projects.<br /><br />Whether it be defining a project’s strategy, designing the features and architecture, building and launching the website or app, or setting up the servers.",,,,,"If he doesn't reply on this number, here is another one: +1 6629350102",Yes,10/03/2017 11:28,,,,https://www.humanhotel.com,
08/25/2017 12:29,2420,B,Yngvild Saeter,,Yngvild,,Saeter,Yngvild,Saeter,yngvildsaeter@gmail.com,asdqweB2420,active,Member,Denmark,Copenhagen,"Copenhagen, Denmark",30/10/1986,30,32,visual artist (sculptor),"<img src=""https://s3.amazonaws.com/assets.knackhq.com/assets/5853e6992e7f151d490cd3f6/599ffbde22ef622bb6af6b82/thumb/img_1191.jpg"" />",https://s3.amazonaws.com/assets.knackhq.com/assets/5853e6992e7f151d490cd3f6/599ffbde22ef622bb6af6b82/original/img_1191.jpg,45,53538424,https://www.facebook.com/profile.php?id=834560607,Guest & Host,Word of mouth,,"Hi!<br />I am a 30 year old sculptor from Norway based in Copenhagen. I also work as a journalist and actor (money jobs, you know how it is..). I have an amazing french poodle named Oda and a great Swedish boyfriend named Daniel, who works as a cinematographer.","nature, art, film",www.yngvildsaeter.com,#sci-fi #sculpture #monolith,"<img src=""https://s3.amazonaws.com/assets.knackhq.com/assets/5853e6992e7f151d490cd3f6/59abe32e7e32ec35306f6035/thumb/rex1.jpg"" />",https://s3.amazonaws.com/assets.knackhq.com/assets/5853e6992e7f151d490cd3f6/59abe32e7e32ec35306f6035/original/rex1.jpg,"Rex 2017 Bike helmets, resin and lacquer 32x36x28 cm","<img src=""https://s3.amazonaws.com/assets.knackhq.com/assets/5853e6992e7f151d490cd3f6/59abe383584d57342199f5db/thumb/anaconda2.cargo.jpg"" />",https://s3.amazonaws.com/assets.knackhq.com/assets/5853e6992e7f151d490cd3f6/59abe383584d57342199f5db/original/anaconda2.cargo.jpg,"Anaconda Choke 2017 5,1 x 3,2 x 2,5 m tractor, MMA headgear, decal, epoxy, reflective paint, lacquer and clay  Commissioned work for Skankaloss Gagnef festival 2017","<img src=""https://s3.amazonaws.com/assets.knackhq.com/assets/5853e6992e7f151d490cd3f6/59abe3b57e49d9335a45aec0/thumb/atlas.lyseremin.jpg"" />",https://s3.amazonaws.com/assets.knackhq.com/assets/5853e6992e7f151d490cd3f6/59abe3b57e49d9335a45aec0/original/atlas.lyseremin.jpg,"Atlas Centaur 201x170x127cm pieces of car skeleton, chassis and laquer","<img src=""https://s3.amazonaws.com/assets.knackhq.com/assets/5853e6992e7f151d490cd3f6/59abe3d58482ae347a4ce86f/thumb/bensintank3min.jpg"" />",https://s3.amazonaws.com/assets.knackhq.com/assets/5853e6992e7f151d490cd3f6/59abe3d58482ae347a4ce86f/original/bensintank3min.jpg,Pioneer 130x116x58 cm Gas tank and window film,"<img src=""https://s3.amazonaws.com/assets.knackhq.com/assets/5853e6992e7f151d490cd3f6/59abe41b8482ae347a4ce88e/thumb/meteor4min.jpg"" />",https://s3.amazonaws.com/assets.knackhq.com/assets/5853e6992e7f151d490cd3f6/59abe41b8482ae347a4ce88e/original/meteor4min.jpg,New Horizons 52x48x30 cm piece of chassis and Taza meteorite,,,,"My artistic process is based on two key elements: 1. Create an imagined scenario in which the works stem from or are created within. 2. Do makeshift field studies of a culture, gather information and then actively ignore all facts, making them an ambiance surrounding the works.",,,,,,Yes,09/03/2017 13:15,,,,https://www.humanhotel.com,
08/25/2017 23:57,2421,C,Annika Järlestedt,,Annika,,Järlestedt,Annika,Järlestedt,neouro@hotmail.com,asdqweC2421,active,Member,Sweden,Falun,"Falun, Sweden",,32,48,Life,"<img src=""https://s3.amazonaws.com/assets.knackhq.com/assets/5853e6992e7f151d490cd3f6/59a09c724771b92948e8f8b1/thumb/20170130_06.04.39.jpg"" />",https://s3.amazonaws.com/assets.knackhq.com/assets/5853e6992e7f151d490cd3f6/59a09c724771b92948e8f8b1/original/20170130_06.04.39.jpg,46,46704106567,facebook.com/annika.jarlestedt,Guest only,Email,CLOWN POLICE,,,facebook.com/annika.jarlestedt,,,,,,,,,,,,,,,,,,,,,,,,,,Yes,08/25/2017 23:57,,,,https://www.humanhotel.com,
08/28/2017 8:07,2422,D,Ariana Valentina Méndez,,Ariana Valentina,,Méndez,Ariana Valentina,Méndez,valentina.mdz@gmail.com,asdqweD2422,active,Member,Sweden,Gothenburg,"Gothenburg, Sweden",,24,48,Architecture student,"<img src=""https://s3.amazonaws.com/assets.knackhq.com/assets/5853e6992e7f151d490cd3f6/59a3b0a2493f66376c58d4e5/thumb/img20170811wa0012.jpg"" />",https://s3.amazonaws.com/assets.knackhq.com/assets/5853e6992e7f151d490cd3f6/59a3b0a2493f66376c58d4e5/original/img20170811wa0012.jpg,46,46762838599,https://www.facebook.com/VaL.Mdz,Guest & Host,Through an event,,,,www.linkedin.com/in/ariana-valentina-méndez-83b595137,,,,,,,,,,,,,,,,,,,,,,,,,,Yes,08/28/2017 8:07,,,,https://www.humanhotel.com,
08/28/2017 12:34,2423,E,Ronny Flynn,,Ronny,,Flynn,Ronny,Flynn,sharon.flynn@me.com,asdqweE2423,active,Member,Australia,Sydney,"Sydney, Australia",28/08/2017,28,1,"Writer, Curator","<img src=""https://s3.amazonaws.com/assets.knackhq.com/assets/5853e6992e7f151d490cd3f6/59a3f16128e34d3716242526/thumb/profile.jpg"" />",https://s3.amazonaws.com/assets.knackhq.com/assets/5853e6992e7f151d490cd3f6/59a3f16128e34d3716242526/original/profile.jpg,61,61439404992,https://www.facebook.com/sharon.flynn.330,Guest only,Word of mouth,,,,http://edmundpearce.com.au/curated-sharon-flynn-move-loud-january-15-february-01-2014/,,,,,,,,,,,,,,,,,,,,,,,,,,Yes,08/28/2017 12:34,,,,https://www.humanhotel.com,
08/29/2017 18:24,2424,F,Odrija Fišere,,Odrija,,Fišere,Odrija,Fišere,odrija.f@gmail.com,asdqweF2424,active,Member,Latvia,Rīga,"Rīga, Latvia",29/09/1976,,42,"Art curator, journalist","<img src=""https://s3.amazonaws.com/assets.knackhq.com/assets/5853e6992e7f151d490cd3f6/59a59425e26cf62db77a3981/thumb/odr_preseskartei.jpg"" />",https://s3.amazonaws.com/assets.knackhq.com/assets/5853e6992e7f151d490cd3f6/59a59425e26cf62db77a3981/original/odr_preseskartei.jpg,371,37128382408,Martin Venice,Guest only,Through an event,Martin,,,www.arterritory.com,,,,,,,,,,,,,,,,,,,,,,,,,,Yes,08/29/2017 18:24,,,,https://www.humanhotel.com,
08/29/2017 22:09,2425,G,Romain Couturier,,Romain,,Couturier,Romain,Couturier,romain.couturier@radiofrance.com,asdqweG2425,active,Member,France,Paris,"Paris, France",28/01/1986,,32,"Musical librarian, researcher","<img src=""https://s3.amazonaws.com/assets.knackhq.com/assets/5853e6992e7f151d490cd3f6/59a5c9f4cac83c31f7592a51/thumb/14354943_10154045730698315_6765024981991995576_n.jpg"" />",https://s3.amazonaws.com/assets.knackhq.com/assets/5853e6992e7f151d490cd3f6/59a5c9f4cac83c31f7592a51/original/14354943_10154045730698315_6765024981991995576_n.jpg,,,https://www.facebook.com/romain.couturier.167,Guest only,Word of mouth,,"Hello,<br /><br />I'm Romain. I'm 31 years old. I work at Radio France, the French national radio (the equivalent of NPR for the Americans!). I work as a musical librarian so I get to listen to music all day long. <br /><br />I love listening to great music, eating great food and exploring new places. My dream destination is New York.<br />","museums, food, music",https://www.francemusique.fr/emissions/easy-tempo/la-discotheque-vinyle-de-radio-france-7888,"music, research, memory",,,,,,,,,,,,,,,,,,,My job is to use the musical library of Radio France in order to provide music for various broadcasts - everything from documentaries and reports to chronicles. I provide music for shows based around themes and concepts explored by the presenters and producers.<br /><br />Here are few examples of shows that I have worked on. <br /><br /><br />https://www.franceinter.fr/emissions/very-good-trip/very-good-trip-29-juin-2017 <br /><br />https://www.franceculture.fr/emissions/les-series-musicales-dete/lair-rebelle-25-de-montreal-buenos-aires-ameriques <br /><br />https://www.franceculture.fr/emissions/les-series-musicales-dete/les-fous-du-son-15-les-maitres-de-lether <br /><br />https://www.franceinter.fr/emissions/interception/interception-11-septembre-2016,,,,,,Yes,08/29/2017 22:22,,,,https://www.humanhotel.com,
08/30/2017 8:50,2426,H,david delany,,david,,delany,david,delany,delany40@gmail.com,asdqweH2426,active,Member,United States of America (USA),Berkeley,"Berkeley, United States of America (USA)",29/08/1959,,59,Artist / Writer,"<img src=""https://s3.amazonaws.com/assets.knackhq.com/assets/5853e6992e7f151d490cd3f6/59a65fa4ead78f3571e4f287/thumb/daviddelanycastingphoto.jpg"" />",https://s3.amazonaws.com/assets.knackhq.com/assets/5853e6992e7f151d490cd3f6/59a65fa4ead78f3571e4f287/original/daviddelanycastingphoto.jpg,1,5104809460,https://www.facebook.com/daviddelanyartist/,Guest & Host,Word of mouth,,Middle aged male artist. I live in my family home in the Berkeley Hills with my brother. I can only offer you an air mattress on the floor in my room for one night. But it's free.,Painter/Writer,daviddelany.com,"#daviddelany.com,#painting","<img src=""https://s3.amazonaws.com/assets.knackhq.com/assets/5853e6992e7f151d490cd3f6/59a8fe4d4455072f22b17b11/thumb/20170831_194118_burst01.jpg"" />",https://s3.amazonaws.com/assets.knackhq.com/assets/5853e6992e7f151d490cd3f6/59a8fe4d4455072f22b17b11/original/20170831_194118_burst01.jpg,Working on this...www.daviddelany.com,,,,,,,,,,,,,,,,I paint and practice kindness.,,,,,,Yes,09/01/2017 8:32,,,,https://www.humanhotel.com,
08/30/2017 10:06,2427,I,Anne Keller,,Anne,,Keller,Anne,Keller,johkeller@de-wild.ch,asdqweI2427,active,Member,Switzerland,Bottmingen,"Bottmingen, Switzerland",10/10/1971,,47,"Naturopath, Kinesiologist, Biography worker","<img src=""https://s3.amazonaws.com/assets.knackhq.com/assets/5853e6992e7f151d490cd3f6/59a67148a4fbd7385121da8a/thumb/foto.jpg"" />",https://s3.amazonaws.com/assets.knackhq.com/assets/5853e6992e7f151d490cd3f6/59a67148a4fbd7385121da8a/original/foto.jpg,41,41793194574,facebook.com/anne.kellerdewild,Guest only,Word of mouth,,I am a self employed therapist from Switzerland. I like to travel as much as I like to teach around the world. Look forward to meet new people.,"art, beach, teaching",https://www.linkedin.com/in/anne-keller-de-wild-a8085736/,"self employed, listener, space creator",,,,,,,,,,,,,,,,,,,"I am naturopath, a kinesiologist and a biography worker. I work in my own office in Switzerland. ",,,,,,Yes,08/30/2017 10:23,,,,https://www.humanhotel.com,
08/30/2017 10:30,2428,J,Karolina  Guc,,Karolina,,Guc,Karolina,Guc,karolina@techfestival.co,asdqweJ2428,active,Member,Denmark,Copenhagen,"Copenhagen, Denmark",17/07/1995,,23,Member of Techfestival,"<img src=""https://s3.amazonaws.com/assets.knackhq.com/assets/5853e6992e7f151d490cd3f6/59a6774ea02bdf39f6362987/thumb/screenshot20170830at10.28.40.png"" />",https://s3.amazonaws.com/assets.knackhq.com/assets/5853e6992e7f151d490cd3f6/59a6774ea02bdf39f6362987/original/screenshot20170830at10.28.40.png,,,https://www.facebook.com/techfestivalCPH/,Guest only,Word of mouth,,,,http://techfestival.co,,,,,,,,,,,,,,,,,,,,,,,,,,Yes,08/30/2017 10:30,,,,https://www.humanhotel.com,
08/30/2017 15:45,2429,K,Elisabete Fragoso,,Elisabete,,Fragoso,Elisabete,Fragoso,elisabetefragoso@gmail.com,asdqweK2429,active,Member,Portugal,Lisbon,"Lisbon, Portugal",23/08/1981,0,37,Arts manager for contemporary dance and theater,"<img src=""https://s3.amazonaws.com/assets.knackhq.com/assets/5853e6992e7f151d490cd3f6/59a6c13646bdf72db65dda5f/thumb/14199336_10210096268300759_4994127201603708116_n.jpg"" />",https://s3.amazonaws.com/assets.knackhq.com/assets/5853e6992e7f151d490cd3f6/59a6c13646bdf72db65dda5f/original/14199336_10210096268300759_4994127201603708116_n.jpg,351,351966142437,https://www.instagram.com/elisabetefr/,Guest only,Email,,I like a lot of different things. Quite hard to explain how my synapses work...really.,#neuroscience #anthropology #sound #cooking #cognition,https://pt.linkedin.com/in/elisabetefragoso,#dance #theatre #production #communication #management #dramaturgy,,,,,,,,,,,,,,,,,,,I had my own artistic group just to work from time to time. We had support from the portuguese state a few times and worked twice at the national theatre. Apart from that I worked at Teatro Praga for 3 years and since second month of 2016 working with portuguese choreographer Clara Andermatt. I also worked with Theatre of the Oppressed methodology and at a Circus organization.,,,,,,Yes,09/07/2017 15:39,,,,https://www.humanhotel.com,
08/30/2017 21:03,2430,L,Line Hvass,,Line,,Hvass,Line,Hvass,vitavass@gmail.com,asdqweL2430,active,Member,Denmark,Copenhagen,"Copenhagen, Denmark",23/07/1980,,38,designer,"<img src=""https://s3.amazonaws.com/assets.knackhq.com/assets/5853e6992e7f151d490cd3f6/59a70b12b4651039367ce333/thumb/vitavass_profilfoto.jpg"" />",https://s3.amazonaws.com/assets.knackhq.com/assets/5853e6992e7f151d490cd3f6/59a70b12b4651039367ce333/original/vitavass_profilfoto.jpg,45,25134085,https://www.facebook.com/Vita-Vass-691857774157677/,Guest only,Social Media,,,,https://www.instagram.com/vitavass/,,,,,,,,,,,,,,,,,,,,,,,,,,Yes,08/30/2017 21:03,,,,https://www.humanhotel.com,
08/30/2017 22:41,2431,M,Francis Raffay,,Francis,,Raffay,Francis,Raffay,francis@raffay.org,asdqweM2431,active,Member,United Kingdom (UK),Jersey,"Jersey, United Kingdom (UK)",13/11/1959,,59,Accountant/Therapist,"<img src=""https://s3.amazonaws.com/assets.knackhq.com/assets/5853e6992e7f151d490cd3f6/59a72281aedbfb399e21c31c/thumb/17390748_10155222616279421_8157186725218065762_o.jpg"" />",https://s3.amazonaws.com/assets.knackhq.com/assets/5853e6992e7f151d490cd3f6/59a72281aedbfb399e21c31c/original/17390748_10155222616279421_8157186725218065762_o.jpg,353,4484787,francis_kinsiologist@hotmail.com,Guest only,Word of mouth,,Unusual 57 year old accountant (regrettably just become single) working in offshore finance industry but heart not in it and much more focussed on social injustices and complementary health - at a cross roads career wise and not sure where going.  Developing interest in regenerative agriculture and sustainability.  Young at heart - cheeky - healthy non-smoker non-drinker.,"Running, Complementary Therapy, Photography",http://www.rawlinson-hunter.com/our-locations/jersey/,"Offshore finance, Trust Manager, Kinesiologist",,,,,,,,,,,,,,,,,,,As an accountant I really can't find anything to share of interest but then that is what is expected of accountants.  <br /><br />Passionate about kinesiology but not currently in practice but hoping to change that shortly.,,,,,,Yes,08/30/2017 23:03,,,,https://www.humanhotel.com,
08/31/2017 9:15,2432,N,valerio strati,,valerio,,strati,valerio,strati,valerio.strati@libero.it,asdqweN2432,active,Member,Italy,palermo,"palermo, Italy",20/08/1976,,42,actor - theatre director,"<img src=""https://s3.amazonaws.com/assets.knackhq.com/assets/5853e6992e7f151d490cd3f6/59a7b68211f61d2db2106acc/thumb/web2462.jpg"" />",https://s3.amazonaws.com/assets.knackhq.com/assets/5853e6992e7f151d490cd3f6/59a7b68211f61d2db2106acc/original/web2462.jpg,39,393406801322,https://www.linkedin.com/in/valerio-strati-6b816a34/,Guest & Host,Wooloo.org Newsletter,,,,https://www.facebook.com/valerio.strati,,,,,,,,,,,,,,,,,,,,,,,,,,Yes,08/31/2017 9:15,,,,https://www.humanhotel.com,
08/31/2017 12:57,2433,O,Gitte Skjodt Madsen,,Gitte Skjodt,,Madsen,Gitte Skjodt,Madsen,gsm@nicolaiwallner.com,asdqweO2433,active,Member,Denmark,Copenhagen,"Copenhagen, Denmark",31/01/1977,,41,"Art historian, gallery director","<img src=""https://s3.amazonaws.com/assets.knackhq.com/assets/5853e6992e7f151d490cd3f6/59a7eb702129ad2db36ab0d1/thumb/img_2591.jpg"" />",https://s3.amazonaws.com/assets.knackhq.com/assets/5853e6992e7f151d490cd3f6/59a7eb702129ad2db36ab0d1/original/img_2591.jpg,45,61306257,@parismadsen,Guest & Host,Word of mouth,,,,www.nicolaiwallner.com,,,,,,,,,,,,,,,,,,,,,,,,,,Yes,08/31/2017 12:57,,,,https://www.humanhotel.com,
08/31/2017 20:34,2434,P,Eva Cederwall,,Eva,,Cederwall,Eva,Cederwall,evacederwall@gmail.com,asdqweP2434,active,Member,Sweden,Norrköping,"Norrköping, Sweden",27/07/1971,,47,Artist,"<img src=""https://s3.amazonaws.com/assets.knackhq.com/assets/5853e6992e7f151d490cd3f6/59a856842bd8e42ebc6cb5a9/thumb/14045940_994994447280035_2366501795983752025_n.jpg"" />",https://s3.amazonaws.com/assets.knackhq.com/assets/5853e6992e7f151d490cd3f6/59a856842bd8e42ebc6cb5a9/original/14045940_994994447280035_2366501795983752025_n.jpg,46,46760198168,facebook.com/evacederwall,Guest & Host,Word of mouth,,,,www.evacederwall.com,,,,,,,,,,,,,,,,,,,,,,,,,,Yes,08/31/2017 20:34,,,,https://www.humanhotel.com,
09/01/2017 12:21,2435,Q,Yana Klichuk,,Yana,,Klichuk,Yana,Klichuk,klichuk@gmail.com,asdqweQ2435,active,Member,Italy,Palermo,"Palermo, Italy",01/09/2017,30,1,Educator/curator,"<img src=""https://s3.amazonaws.com/assets.knackhq.com/assets/5853e6992e7f151d490cd3f6/59a934337ff50a2db0364e44/thumb/ykcropped.jpg"" />",https://s3.amazonaws.com/assets.knackhq.com/assets/5853e6992e7f151d490cd3f6/59a934337ff50a2db0364e44/original/ykcropped.jpg,39,393407844071,https://www.facebook.com/yana.klichuk?ref=bookmarks,Guest only,Word of mouth,,,,manifesta.org,,,,,,,,,,,,,,,,,,,,,,,,,,Yes,09/01/2017 12:21,,,,https://www.humanhotel.com,
09/01/2017 13:11,2436,R,Leopold van de Ven,,Leopold,,van de Ven,Leopold,van de Ven,leopoldvandeven@xs4all.nl,asdqweR2436,active,Member,Netherlands,Boxtel,"Boxtel, Netherlands",22/03/1966,,52,artist,"<img src=""https://s3.amazonaws.com/assets.knackhq.com/assets/5853e6992e7f151d490cd3f6/59a93f4878c4572db510c5b1/thumb/portret_zw.jpg"" />",https://s3.amazonaws.com/assets.knackhq.com/assets/5853e6992e7f151d490cd3f6/59a93f4878c4572db510c5b1/original/portret_zw.jpg,31,31629981234,https://www.facebook.com/leopoldvandeven,Guest only,Email,,"At school I wanted to do things differently. In my own way and method to find out how to do something. Only then I could work with it and only then did that knowledge mean something for me. That's still the case today. Fortunately, there was a profession that I hadn't thought possible; to be an artist. Now I can do things in freedom, playfully. Create something with materials and ideas that I really want to make. New York is the city I love most. For the energy and because my work belongs there, I think. ","Art, New York, Museums",www.leopoldvandeven.com,"Sculpture, Drawing, Mixed media","<img src=""https://s3.amazonaws.com/assets.knackhq.com/assets/5853e6992e7f151d490cd3f6/59aa6b3695a4c43897cda776/thumb/dsc_7283uitsnede_wc.jpg"" />",https://s3.amazonaws.com/assets.knackhq.com/assets/5853e6992e7f151d490cd3f6/59aa6b3695a4c43897cda776/original/dsc_7283uitsnede_wc.jpg,"Part of installation at Artgouda, Mixed Media","<img src=""https://s3.amazonaws.com/assets.knackhq.com/assets/5853e6992e7f151d490cd3f6/59aa74d48482ae347a4c0b53/thumb/dsc_7261_72.jpg"" />",https://s3.amazonaws.com/assets.knackhq.com/assets/5853e6992e7f151d490cd3f6/59aa74d48482ae347a4c0b53/original/dsc_7261_72.jpg,"Middle green', encoustic, photo transfer, paint on panel 2015","<img src=""https://s3.amazonaws.com/assets.knackhq.com/assets/5853e6992e7f151d490cd3f6/59aa75988482ae347a4c0ba4/thumb/dsc_80077_potlood72.jpg"" />",https://s3.amazonaws.com/assets.knackhq.com/assets/5853e6992e7f151d490cd3f6/59aa75988482ae347a4c0ba4/original/dsc_80077_potlood72.jpg,"Cited blue', acryl paint, encoustic, photo transfer on panel 250x 96 cm, 2015","<img src=""https://s3.amazonaws.com/assets.knackhq.com/assets/5853e6992e7f151d490cd3f6/59aa75027e32ec35306e7095/thumb/dsc_6767_in_atelier2_72.jpg"" />",https://s3.amazonaws.com/assets.knackhq.com/assets/5853e6992e7f151d490cd3f6/59aa75027e32ec35306e7095/original/dsc_6767_in_atelier2_72.jpg,"Untitled, wood, paint, metal, fabric, tape 73 x 46 x 10 cm, 2014","<img src=""https://s3.amazonaws.com/assets.knackhq.com/assets/5853e6992e7f151d490cd3f6/59aa750b7e32ec35306e7099/thumb/khalkopie72.jpg"" />",https://s3.amazonaws.com/assets.knackhq.com/assets/5853e6992e7f151d490cd3f6/59aa750b7e32ec35306e7099/original/khalkopie72.jpg,"Untitled installation at the 6 month Triangle artist-in-residence, Brooklyn. NY 2014. photo by E. Frossard","<img src=""https://s3.amazonaws.com/assets.knackhq.com/assets/5853e6992e7f151d490cd3f6/59aa7521c5e00c387eb8917f/thumb/dsc_3855kopie72.jpg"" />",https://s3.amazonaws.com/assets.knackhq.com/assets/5853e6992e7f151d490cd3f6/59aa7521c5e00c387eb8917f/original/dsc_3855kopie72.jpg,"Untitled, wood, plasterboard, cardboard,papier-mache 86 x 106 x 89 cm, 2013","Leopold is born in the Netherlands. He studied at the Art Academy St. Joost Breda with specialization in architectural design. After the Academy he went living and working in France for one year. When he came back in the Netherlands he started making “furniture objects”. This slowly turned into making sculptures, drawings and installations. His work has been shown at Artgouda 2016 in The Netherlands, Kunsthal Charlottenborg 2013 in Copenhagen, and he attended the Triangle Arts Association residency in 2014 and workshop in 2012 in Brooklyn, NY. And has recently illustrated a picture book in a collaboration",,,,,,Yes,09/02/2017 11:13,,,,https://www.humanhotel.com,
09/02/2017 0:58,2437,S,Paloma Checa Gismero,,Paloma,,Checa Gismero,Paloma,Checa Gismero,lapalo@gmail.com,asdqweS2437,active,Member,United States of America (USA),San Diego,"San Diego, United States of America (USA)",17/09/1985,,33,Phd Student,"<img src=""https://s3.amazonaws.com/assets.knackhq.com/assets/5853e6992e7f151d490cd3f6/59a9e4d0a9f2dd34ebdbdb3c/thumb/pcgfoto.jpg"" />",https://s3.amazonaws.com/assets.knackhq.com/assets/5853e6992e7f151d490cd3f6/59a9e4d0a9f2dd34ebdbdb3c/original/pcgfoto.jpg,1,8589523841,https://twitter.com/lapalo?lang=es,Guest only,Word of mouth,,,,http://visarts.ucsd.edu/phd/paloma-checa-gismero,,,,,,,,,,,,,,,,,,,,,,,,,,Yes,09/02/2017 0:58,,,,https://www.humanhotel.com,
09/04/2017 13:48,2438,T,CHEN  XING,,CHEN,,XING,CHEN,XING,xtine7023@gmail.com,asdqweT2438,active,Member,China,Zibo,"Zibo, China",09/11/1993,,25,Student,"<img src=""https://s3.amazonaws.com/assets.knackhq.com/assets/5853e6992e7f151d490cd3f6/59ad3d13a2347235679f566d/thumb/img_0588.jpg"" />",https://s3.amazonaws.com/assets.knackhq.com/assets/5853e6992e7f151d490cd3f6/59ad3d13a2347235679f566d/original/img_0588.jpg,86,393318876595,https://www.facebook.com/profile.php?id=100003467870840,Guest & Host,Word of mouth,,,,https://www.facebook.com/profile.php?id=100003467870840,,,,,,,,,,,,,,,,,,,,,,,,,,Yes,09/04/2017 13:48,,,,https://www.humanhotel.com,
09/06/2017 9:58,2439,U,Mattias Edström,,Mattias,,Edström,Mattias,Edström,mattiasedstrom@icloud.com,asdqweU2439,active,Member,Denmark,Aarhus,"Aarhus, Denmark",15/06/1985,,33,Entrepreneur,"<img src=""https://s3.amazonaws.com/assets.knackhq.com/assets/5853e6992e7f151d490cd3f6/59afa9c5c541b33439487274/thumb/img_7623.png"" />",https://s3.amazonaws.com/assets.knackhq.com/assets/5853e6992e7f151d490cd3f6/59afa9c5c541b33439487274/original/img_7623.png,45,50305761,Instagram.com/mattiasedstroem,Guest & Host,Word of mouth,,,,www.brelly.net,,,,,,,,,,,,,,,,,,,,,,,,,,Yes,09/06/2017 9:58,,,,https://www.humanhotel.com,
09/06/2017 15:37,2440,V,Tomek Paszek,,Tomek,,Paszek,Tomek,Paszek,tomek.paszek@gmail.com,asdqweV2440,active,Member,Denmark,Copenhagen,"Copenhagen, Denmark",10/05/1987,,31,Programmer,"<img src=""https://s3.amazonaws.com/assets.knackhq.com/assets/5853e6992e7f151d490cd3f6/59aff9c33b1e1d34b7b7a510/thumb/img_20170902_151359.jpg"" />",https://s3.amazonaws.com/assets.knackhq.com/assets/5853e6992e7f151d490cd3f6/59aff9c33b1e1d34b7b7a510/original/img_20170902_151359.jpg,45,71638397,https://www.facebook.com/tomek.paszek,Guest only,Word of mouth,CLOWN POLICE,,,https://www.linkedin.com/in/tomek-paszek-46a31142/,,,,,,,,,,,,,,,,,,,,,,,,,,Yes,09/06/2017 15:37,,,,https://www.humanhotel.com,
09/06/2017 20:19,2441,W,Jaani Lucifer Rothman,,Jaani Lucifer,,Rothman,Jaani Lucifer,Rothman,mechamantraa@gmail.com,asdqweW2441,active,Member,Denmark,København Sv,"København Sv, Denmark",12/05/1988,,30,Eventmanager and Artist,"<img src=""https://s3.amazonaws.com/assets.knackhq.com/assets/5853e6992e7f151d490cd3f6/59b03beeeb66752dfd173c43/thumb/14680924_1176400875779486_7865538721918538610_o.jpg"" />",https://s3.amazonaws.com/assets.knackhq.com/assets/5853e6992e7f151d490cd3f6/59b03beeeb66752dfd173c43/original/14680924_1176400875779486_7865538721918538610_o.jpg,45,26998746,https://www.facebook.com/joni.fakebook,Guest & Host,Word of mouth,,"Helle Dear Guest's and Host's :)<br /><br />I'm an easy going, fun loving maniac living in the south harbour district of CPH - centrally located with 7min to the main train station. My naighbourhood holds a lot of great nature, loads of secret areas to discover in the harbour area - I can take you on an adventure :)<br /><br />",#Ethnography #Music #Film,https://mechanical-mantra.bandcamp.com/,#Music #Film #entrepreneur,"<img src=""https://s3.amazonaws.com/assets.knackhq.com/assets/5853e6992e7f151d490cd3f6/5afecd0cbd066d2e659565bf/thumb/dive.jpg"" />",https://s3.amazonaws.com/assets.knackhq.com/assets/5853e6992e7f151d490cd3f6/5afecd0cbd066d2e659565bf/original/dive.jpg,Picture from underwater concert,"<img src=""https://s3.amazonaws.com/assets.knackhq.com/assets/5853e6992e7f151d490cd3f6/5afecd257a61036b678d6376/thumb/jonnyok.jpg"" />",https://s3.amazonaws.com/assets.knackhq.com/assets/5853e6992e7f151d490cd3f6/5afecd257a61036b678d6376/original/jonnyok.jpg,Picture from underwater concert,"<img src=""https://s3.amazonaws.com/assets.knackhq.com/assets/5853e6992e7f151d490cd3f6/5afed53f80b7866cc6371167/thumb/30704874_766342730420710_3559474453165375488_o.jpg"" />",https://s3.amazonaws.com/assets.knackhq.com/assets/5853e6992e7f151d490cd3f6/5afed53f80b7866cc6371167/original/30704874_766342730420710_3559474453165375488_o.jpg,Northern Routes - iceland film project,"<img src=""https://s3.amazonaws.com/assets.knackhq.com/assets/5853e6992e7f151d490cd3f6/5afed56ec1ecf4295ba01897/thumb/30727698_766341697087480_5027466254571536384_o.jpg"" />",https://s3.amazonaws.com/assets.knackhq.com/assets/5853e6992e7f151d490cd3f6/5afed56ec1ecf4295ba01897/original/30727698_766341697087480_5027466254571536384_o.jpg,Northern Routes - iceland film project,,,,,,,"I do music, film, Installation & Performance hosting a range of experimental concepts and art projects, both in CPH and across borders.<br /><br />Worked daily as a technician, sound/light/tech, but lately im phasing into more art stuff and a bunch of cultural activities. I run the ""Copenhagen Acid Puppies"" & ""OW sound studios"". Also do Ethnographic work in northern europe with the ""Northern Routes Association"", here we search for old methods, myths & secrets of the ""lost"" identities in our modern society.<br /><br />With the Acid Puppies we do a bunch of different concepts - and were always looking for collaborators! We did stuff like ""Panic room""(participants get locked in a dark room and get a sensoric overstimulation). Underwaterconcert - in full scuba gear, home build instruments. And host a various shows of experimental nature.<br /><br />If you need at curator in CPH - I have the linkup and can make your project happen - I can also help with interlinking and crowdfunding in many cases when some projects have momentum or leverage (A name or a solid project) its easy to get more in DK - I can also offer sound studio & video editing lounge! Dont hesitate to hit me up :)<br />",https://vimeo.com/189775361,Live Performance,https://vimeo.com/198582579,"Teaser to our Hybrid Documentray film. Peru 2017<br /><br />A film about Curanderos, Plants & People",,Yes,05/18/2018 15:34,,,,https://www.humanhotel.com,
09/06/2017 22:09,2442,X,Liubov Moskvina,,Liubov,,Moskvina,Liubov,Moskvina,liubov.moskvina@gmail.com,asdqweX2442,active,Member,Germany,Braunschweig,"Braunschweig, Germany",15/03/1985,,33,Lighting Designer & Light Artist,"<img src=""https://s3.amazonaws.com/assets.knackhq.com/assets/5853e6992e7f151d490cd3f6/59b055242cf58634002be57a/thumb/lmoskvina.jpg"" />",https://s3.amazonaws.com/assets.knackhq.com/assets/5853e6992e7f151d490cd3f6/59b055242cf58634002be57a/original/lmoskvina.jpg,49,497641111764,https://www.facebook.com/luba.moskvina,Guest only,Through an event,Reflektor Light Festival,"Hello dear members, a short intro to myself.<br /><br />I´m originally from St. Petersburg in Russia. In 1999 I moved to Germany. Since 2006 I live in Brunswick with my husband and my daugther. Currently I am working as light planner and light artist. <br />","light arts, architecture, carving ski",http://cargocollective.com/liubovmoskvina,"Lighting Design, Light Art, Painting ","<img src=""https://s3.amazonaws.com/assets.knackhq.com/assets/5853e6992e7f151d490cd3f6/59b05aae1ce3e02e47501766/thumb/grandevalsebrillante_lichtcampus_lmoskvina.jpg"" />",https://s3.amazonaws.com/assets.knackhq.com/assets/5853e6992e7f151d490cd3f6/59b05aae1ce3e02e47501766/original/grandevalsebrillante_lichtcampus_lmoskvina.jpg,"Grande Valse Brillante 2015, Liubov Moskvina","<img src=""https://s3.amazonaws.com/assets.knackhq.com/assets/5853e6992e7f151d490cd3f6/59b05ae1a1fe892e18605d92/thumb/art_suite_x__y_z_anna_baumgarte_and_liubov_moskvina_photo_asaf_kliger.jpg"" />",https://s3.amazonaws.com/assets.knackhq.com/assets/5853e6992e7f151d490cd3f6/59b05ae1a1fe892e18605d92/original/art_suite_x__y_z_anna_baumgarte_and_liubov_moskvina_photo_asaf_kliger.jpg,"X,Y & Z, Artsuite f. ICEHOTEL #26, L.Moskvina, Anna Baumgarte","<img src=""https://s3.amazonaws.com/assets.knackhq.com/assets/5853e6992e7f151d490cd3f6/59b05b4d01cf052e9bd84392/thumb/flux1.0travellinglightphotoliubovmoskvina.jpg"" />",https://s3.amazonaws.com/assets.knackhq.com/assets/5853e6992e7f151d490cd3f6/59b05b4d01cf052e9bd84392/original/flux1.0travellinglightphotoliubovmoskvina.jpg,"Travelling Light 2015, L.Moskvina",,,,,,,,,,"After highschool I started with Design at the Braunschweig University of Art with main subjects Industrial Design and Communication Design. From 2013 till 2016 I did my master courses in design with supplement subject Lighting Design at the University of Applied Sciences and Arts in Hildesheim (Germany). My courses were fully aimed on the field of lighting design such like outdoor and indoor light planning and some applied research focused in LED lighting.  <br /><br />For me, as lighting designer and artist, it is important to have a global understanding on light subject as well, to observe the interplay of light with surroundings or perception. Like a diamond which has so many facets in it, visible and hidden at the same time, it makes me curious to get an idea of this eternal enigma.",https://vimeo.com/228706097,"Weaving Workshop // SEE Djerba 2017<br /><br />Being for many years closed, I tried to re-organize the point of view on forgotten place and it’s lost tradition and tired to recall on the rich potential of such places in whole country. The development of the Artwork was of an explorative nature. I found fascinating stories about island and the people living here. Each story is for me always a process and like a growing story in reality I like to implement such uncontrollable elements like wind into my works. From this moment on the Artwork starts to live it’s own life.<br /><br />",https://vimeo.com/150584922,"Grande Valse Brillante, Lichtcampus Hamburg 2015<br /><br />The Light Art Installation ""Grande Valse Brillante"" was realised during a workshop with Prof. Rainer Plum at Lichtcampus Hamburg in 2015",,Yes,09/06/2017 22:36,,,,https://www.humanhotel.com,
09/07/2017 7:32,2443,Y,Ona Rihu,,Ona,,Rihu,Ona,Rihu,ona.rihu@gmail.com,asdqweY2443,active,Member,Finland,Helsinki,"Helsinki, Finland",09/09/1997,20,21,"Model, blogger","<img src=""https://s3.amazonaws.com/assets.knackhq.com/assets/5853e6992e7f151d490cd3f6/59b0d99d01cf052e9bd8aa2e/thumb/b1b39e3bdc284203b4fa2342c24d9271.jpg"" />",https://s3.amazonaws.com/assets.knackhq.com/assets/5853e6992e7f151d490cd3f6/59b0d99d01cf052e9bd8aa2e/original/b1b39e3bdc284203b4fa2342c24d9271.jpg,358,358443080997,@onadoes (insta),Guest only,Word of mouth,,,,www.onalemona.com,,,,,,,,,,,,,,,,,,,,,,,,,,Yes,09/07/2017 7:32,,,,https://www.humanhotel.com,
09/07/2017 14:44,2444,Z,Amanda Millet-Sorsa,,Amanda,,Millet-Sorsa,Amanda,Millet-Sorsa,amandamilletsorsa@gmail.com,asdqweZ2444,active,Member,United States of America (USA),New York City,"New York City, United States of America (USA)",26/08/1987,,31,Artist Painter,"<img src=""https://s3.amazonaws.com/assets.knackhq.com/assets/5853e6992e7f151d490cd3f6/59b13e6811ee7c2db16f565c/thumb/profilegva.jpg"" />",https://s3.amazonaws.com/assets.knackhq.com/assets/5853e6992e7f151d490cd3f6/59b13e6811ee7c2db16f565c/original/profilegva.jpg,1,2028129970,https://www.facebook.com/amanda.ms.31,Guest & Host,Word of mouth,,"As an artist painter living and working in NYC, my life is filled with encounters of all kinds. This city has something for everybody. I speak four languages which can be helpful for better communication: English, French, Finnish, and Spanish. Since I live alone, there is a quiet peacefulness to my apartment and I welcome visitors from all over to stay with me and share the silence or to shake it up a bit. ","water, tastes, color",https://www.linkedin.com/in/amanda-millet-sorsa-14468b8/,"painting, printmaking, murals","<img src=""https://s3.amazonaws.com/assets.knackhq.com/assets/5853e6992e7f151d490cd3f6/59b13f8bc8cba72dadeee123/thumb/suenos_icon.jpg"" />",https://s3.amazonaws.com/assets.knackhq.com/assets/5853e6992e7f151d490cd3f6/59b13f8bc8cba72dadeee123/original/suenos_icon.jpg,Un Pasaje de Sueños,"<img src=""https://s3.amazonaws.com/assets.knackhq.com/assets/5853e6992e7f151d490cd3f6/59b13fadb2842e2daea1b67d/thumb/mfa29.jpg"" />",https://s3.amazonaws.com/assets.knackhq.com/assets/5853e6992e7f151d490cd3f6/59b13fadb2842e2daea1b67d/original/mfa29.jpg,Turtle Dive,"<img src=""https://s3.amazonaws.com/assets.knackhq.com/assets/5853e6992e7f151d490cd3f6/59b13fcf286afd2daf7657ad/thumb/2015_tarot_lg_5.jpg"" />",https://s3.amazonaws.com/assets.knackhq.com/assets/5853e6992e7f151d490cd3f6/59b13fcf286afd2daf7657ad/original/2015_tarot_lg_5.jpg,A Game of Tarot,,,,,,,,,,I paint with colors.,,,,,,Yes,09/07/2017 14:56,,,,https://www.humanhotel.com,
09/08/2017 10:30,2445,A,schmidt mona,,schmidt,,mona,schmidt,mona,schmidtmona8@gmail.com,asdqweA2445,active,Member,Switzerland,lausanne,"lausanne, Switzerland",06/08/1970,,48,utopist,"<img src=""https://s3.amazonaws.com/assets.knackhq.com/assets/5853e6992e7f151d490cd3f6/59b25473a060b62db0ec5c3e/thumb/monash1.jpg"" />",https://s3.amazonaws.com/assets.knackhq.com/assets/5853e6992e7f151d490cd3f6/59b25473a060b62db0ec5c3e/original/monash1.jpg,41,417988887925,https://www.facebook.com/denfranskeklub.dk/,Guest only,Word of mouth,,jeg tager det rolig,"contemporary art, theatre",https://www.linkedin.com/in/mona-schmidt-2a86a931/,producer,,,,,,,,,,,,,,,,,,,social or cultural innovation,,,,,,Yes,09/10/2017 22:53,,,,https://www.humanhotel.com,
09/08/2017 15:02,2446,B,Hannah Wood,,Hannah,,Wood,Hannah,Wood,studiohannahwood@gmail.com,asdqweB2446,active,Member,Denmark,Copenhagen,"Copenhagen, Denmark",26/04/1991,,27,Architect,"<img src=""https://s3.amazonaws.com/assets.knackhq.com/assets/5853e6992e7f151d490cd3f6/59f3041d66c6f34f91189253/thumb/_dsc1987.jpg"" />",https://s3.amazonaws.com/assets.knackhq.com/assets/5853e6992e7f151d490cd3f6/59f3041d66c6f34f91189253/original/_dsc1987.jpg,45,31625072,https://www.facebook.com/hannahwood42,Guest & Host,Email,,Based in Copenhagen originally from Yorkshire in the UK.,#travel #design #denmark,https://www.studiohannahwood.com/,#architecture #design #research,,,,,,,,,,,,,,,,,,,"I'm an architect and writer based in Copenhagen, Denmark. My monthly feature column for Archinect explores developments in architecture within wider cultural and political discussions. I run a small architecture and design studio and I co-founded the NGO Freiraum Kollektive in 2014 which aims to teach construction skills and raise design awareness in underprivileged communities.",,,,,,Yes,10/27/2017 12:09,,,,https://www.humanhotel.com,
09/08/2017 19:57,2447,C,Brittany,,Brittany,,,Brittany,,bcraig507@gmail.com,asdqweC2447,active,Member,United States of America (USA),Philadelphia,"Philadelphia, United States of America (USA)",07/05/1988,,30,Accounting,"<img src=""https://s3.amazonaws.com/assets.knackhq.com/assets/5853e6992e7f151d490cd3f6/59b2d99960a22634a539bbce/thumb/brit.jpg"" />",https://s3.amazonaws.com/assets.knackhq.com/assets/5853e6992e7f151d490cd3f6/59b2d99960a22634a539bbce/original/brit.jpg,1,6108231677,http://facebook.com/brundis,Guest only,Social Media,,,,http://facebook.com/brundis,,,,,,,,,,,,,,,,,,,,,,,,,,Yes,09/08/2017 19:57,,,,https://www.humanhotel.com,
09/09/2017 0:59,2448,D,Antonio Carvalho,,Antonio,,Carvalho,Antonio,Carvalho,5dcreativehub@gmail.com,asdqweD2448,active,Member,Portugal,Lisboa,"Lisboa , Portugal",04/11/1961,,57,Author Photographer,"<img src=""https://s3.amazonaws.com/assets.knackhq.com/assets/5853e6992e7f151d490cd3f6/59e0c95e5c112f4eed2992e1/thumb/dsc_0118copy.jpg"" />",https://s3.amazonaws.com/assets.knackhq.com/assets/5853e6992e7f151d490cd3f6/59e0c95e5c112f4eed2992e1/original/dsc_0118copy.jpg,351,351968046321,facebook.com/antonioproencadecarvalho,Guest & Host,Word of mouth,,"Art lover, photobook collector, Born at Coimbra, Portugal living between Lisbon and Cuba (Portugal)",#art #photography #people,facebook.com/5dcreativehub,#dance # photography #photobook,"<img src=""https://s3.amazonaws.com/assets.knackhq.com/assets/5853e6992e7f151d490cd3f6/59e1011a419a754f02d44276/thumb/20170115dsc_5842.jpg"" />",https://s3.amazonaws.com/assets.knackhq.com/assets/5853e6992e7f151d490cd3f6/59e1011a419a754f02d44276/original/20170115dsc_5842.jpg,,"<img src=""https://s3.amazonaws.com/assets.knackhq.com/assets/5853e6992e7f151d490cd3f6/59e1015c83e9a04a9245a3b3/thumb/20170203dsc_6677.jpg"" />",https://s3.amazonaws.com/assets.knackhq.com/assets/5853e6992e7f151d490cd3f6/59e1015c83e9a04a9245a3b3/original/20170203dsc_6677.jpg,,"<img src=""https://s3.amazonaws.com/assets.knackhq.com/assets/5853e6992e7f151d490cd3f6/59e10180ba1e1656b206bbb8/thumb/dsc_8267sq.jpg"" />",https://s3.amazonaws.com/assets.knackhq.com/assets/5853e6992e7f151d490cd3f6/59e10180ba1e1656b206bbb8/original/dsc_8267sq.jpg,,"<img src=""https://s3.amazonaws.com/assets.knackhq.com/assets/5853e6992e7f151d490cd3f6/59e101bebdbd755480c2313d/thumb/dsc_8742.jpg"" />",https://s3.amazonaws.com/assets.knackhq.com/assets/5853e6992e7f151d490cd3f6/59e101bebdbd755480c2313d/original/dsc_8742.jpg,,"<img src=""https://s3.amazonaws.com/assets.knackhq.com/assets/5853e6992e7f151d490cd3f6/59e101d1a433a54b0f0ea9e9/thumb/dsc_0168a.jpg"" />",https://s3.amazonaws.com/assets.knackhq.com/assets/5853e6992e7f151d490cd3f6/59e101d1a433a54b0f0ea9e9/original/dsc_0168a.jpg,,"<img src=""https://s3.amazonaws.com/assets.knackhq.com/assets/5853e6992e7f151d490cd3f6/59e1020ed4e5464bf0749674/thumb/dscf0233.jpg"" />",https://s3.amazonaws.com/assets.knackhq.com/assets/5853e6992e7f151d490cd3f6/59e1020ed4e5464bf0749674/original/dscf0233.jpg,,Photobook and exhibition author http://foodforyoureyes.com/antonio-proena-de-carvalho/,http://foodforyoureyes.com/antonio-proena-de-carvalho/,My photobook with photos from the 80s,https://www.youtube.com/watch?v=_v6cU7aSWoc,"Love to play piano, here's an improvised piece",,Yes,10/13/2017 20:18,,,,https://www.humanhotel.com,
09/09/2017 16:27,2449,E,Jason Bauer,,Jason,,Bauer,Jason,Bauer,jasonrobertbauer@gmail.com,asdqweE2449,active,Member,United States of America (USA),Brooklyn,"Brooklyn, United States of America (USA)",09/12/1986,,32,Artist,"<img src=""https://s3.amazonaws.com/assets.knackhq.com/assets/5853e6992e7f151d490cd3f6/59b3f9ef03a3562e19ce61b6/thumb/me2.jpg"" />",https://s3.amazonaws.com/assets.knackhq.com/assets/5853e6992e7f151d490cd3f6/59b3f9ef03a3562e19ce61b6/original/me2.jpg,1,9377264836,https://www.instagram.com/jasonbauerart/,Guest & Host,Word of mouth,,,,http://jasonrbauer.com/,,,,,,,,,,,,,,,,,,,,,,,,,,Yes,09/09/2017 16:27,,,,https://www.humanhotel.com,
09/10/2017 13:22,2450,F,Andrea Mason,,Andrea,,Mason,Andrea,Mason,andrea65mason@gmail.com,asdqweF2450,active,Member,United Kingdom (UK),London,"London, United Kingdom (UK)",23/06/1965,,53,"Writer, lecturer, director of Literary Kitchen","<img src=""https://s3.amazonaws.com/assets.knackhq.com/assets/5853e6992e7f151d490cd3f6/59ccd7b48b80ff2553d31781/thumb/andrea_mason_pp.jpg"" />",https://s3.amazonaws.com/assets.knackhq.com/assets/5853e6992e7f151d490cd3f6/59ccd7b48b80ff2553d31781/original/andrea_mason_pp.jpg,44,7791805470,https://twitter.com/Andrea__Mason?lang=en-gb,Guest & Host,Word of mouth,,"I am an artist, writer, educator, entrepreneur and events organiser. I have exhibited in the UK and internationally, undertaken public art commissions and published short stories in art and literary publications and journals. I am the director of Literary Kitchen, a creative writing enterprise, and in 2014 founded the Literary Kitchen Festival. I am a PhD candidate in creative writing at Goldsmiths, UoL.",#creativewriting #art #environment,http://www.literarykitchen.co.uk,#writing #art #Fluxus,"<img src=""https://s3.amazonaws.com/assets.knackhq.com/assets/5853e6992e7f151d490cd3f6/59ccd8b603d4741b2a0d350e/thumb/smile.jpg"" />",https://s3.amazonaws.com/assets.knackhq.com/assets/5853e6992e7f151d490cd3f6/59ccd8b603d4741b2a0d350e/original/smile.jpg,Smile',,,,,,,,,,,,,,,,"My research interests include (un)creative writing, the novel and short story, genre theory, writing practice and pedagogy, inventory, concrete prose, critical urbanism, waste, Fluxus, participatory art practice and collaboration. Recent published works include ‘Touches’, Otoliths ♯43 and Megacity Fictions, ‘Ada + Carter’ in New Writing: The International Journal for the Practice and Theory of Creative Writing vol. 12, issue 1. Recent publications include Good News, Bad News (Twelve +), Aspex Gallery. Recent exhibitions include Now It Is Permitted: 24 wayside pulpits, Swedenborg Society (group). Recent public art commissions include ‘R-kive™ Fever by Bankers Box’, as part of Kaleidoscope Live at Modern Art Oxford.  Recent curatorial practice includes Literary Kitchen Festival 2014 and 2015.",,,,,,Yes,09/28/2017 13:11,,,,https://www.humanhotel.com,