Created on,Number,Letter,displayName,Name: Title,Name: First,Name: Middle,Name: Last,firstName,lastName,email,password,User Status,User Roles,country,city,location,dateOfBirth,Age,Age - 2,occupation,Profile photo,picture,phoneCountryCode,phoneNumber,socialProfileLink,memberType,memberDetail,recommandedBy,info,interestsTags,workRelatedLink,practiceTags,Work Img. 1,imageOne,imageDescriptionOne,Work Img. 2,imageTwo,imageDescriptionTwo,Work Img. 3,imageThree,imageDescriptionThree,Work Img. 4,imageFour,imageDescriptionFour,Work Img. 5,imageFive,imageDescriptionFive,Work Img. 6,imageSix,imageDescriptionSix,descriptionYourPractices,videoLinkOne,videoDescriptionOne,videoLinkTwo,videoDescriptionTwo,INTERNAL NOTES,I agree to the Terms of Use,Last Updated,Connections,emailConfirmed,Connections/Helpful Details,www.humanhotel.com,Host?
02/14/2017 0:01,451,I,Johan Vossen,Johan Vossen,Johan,,Vossen,Johan,Vossen,ster.5@planet.nl,asdqweI451,active,Member,,Weert,"Weert, ",,54,48,,"<img src=""https://s3.amazonaws.com/assets.knackhq.com/assets/5853e6992e7f151d490cd3f6/5a5253a843f86157fb983e27/thumb/profileimagefiller.png"" />",https://s3.amazonaws.com/assets.knackhq.com/assets/5853e6992e7f151d490cd3f6/5a5253a843f86157fb983e27/original/profileimagefiller.png,,,http://www.facebook.com/johan.vossen,guest & host,Email,,,,@Vossen5,,,,,,,,,,,,,,,,,,,,,,,,,,,,,,,https://www.humanhotel.com,
02/14/2017 0:01,452,J,Adarsha Benjamin,,Adarsha,,Benjamin,Adarsha,Benjamin,adarsha@mama.gallery,asdqweJ452,active,Member,United States of America (USA),Los Angeles,"Los Angeles, United States of America (USA)",,31,48,"Artist, Curator","<img src=""https://s3.amazonaws.com/assets.knackhq.com/assets/5853e6992e7f151d490cd3f6/58a6c27ce0ad7b375f932cc0/thumb/usermaleshapeinacircleios7interfacesymbol_31835357.jpg"" />",https://s3.amazonaws.com/assets.knackhq.com/assets/5853e6992e7f151d490cd3f6/58a6c27ce0ad7b375f932cc0/original/usermaleshapeinacircleios7interfacesymbol_31835357.jpg,,,@adarsha_benjamin,Guest & Host,Word of mouth,Lani Trock,,..,@_mamagallery_,..,,,,,,,,,,,,,,,,,,,,,,,,,,,,,,https://www.humanhotel.com,
02/14/2017 0:01,453,K,Ilse Ermen,,Ilse,,Ermen,Ilse,Ermen,hiragana@posteo.jp,asdqweK453,active,Member,France,Brest,"Brest, France",,58,48,Artist,"<img src=""https://s3.amazonaws.com/assets.knackhq.com/assets/5853e6992e7f151d490cd3f6/592c0e37273e174769fa5c7b/thumb/nomade3077c.jpg"" />",https://s3.amazonaws.com/assets.knackhq.com/assets/5853e6992e7f151d490cd3f6/592c0e37273e174769fa5c7b/original/nomade3077c.jpg,33,33686746166,https://www.facebook.com/IAM.Pressestelle,Guest & Host,Email,Martin Rosengaard,Me,Conceptual artist traveling this spring,www.ilse-ermen.com,The artist is not present,"<img src=""https://s3.amazonaws.com/assets.knackhq.com/assets/5853e6992e7f151d490cd3f6/592c0dea5833d948c9ee1b87/thumb/amrum_0896.jpg"" />",https://s3.amazonaws.com/assets.knackhq.com/assets/5853e6992e7f151d490cd3f6/592c0dea5833d948c9ee1b87/original/amrum_0896.jpg,Berlin subway Amumer Strasse,"<img src=""https://s3.amazonaws.com/assets.knackhq.com/assets/5853e6992e7f151d490cd3f6/592c0dfbd3f9c9491f521309/thumb/alle1.jpg"" />",https://s3.amazonaws.com/assets.knackhq.com/assets/5853e6992e7f151d490cd3f6/592c0dfbd3f9c9491f521309/original/alle1.jpg,,"<img src=""https://s3.amazonaws.com/assets.knackhq.com/assets/5853e6992e7f151d490cd3f6/592c0df9bf08ea476b8717a7/thumb/return_frontal.jpg"" />",https://s3.amazonaws.com/assets.knackhq.com/assets/5853e6992e7f151d490cd3f6/592c0df9bf08ea476b8717a7/original/return_frontal.jpg,,,,,,,,,,,"Conceptual artist, see website www.ilse-ermen.com",,,,,,,05/29/2017 14:05,,,,https://www.humanhotel.com,
02/14/2017 0:01,454,L,Chad Kouri,,Chad,,Kouri,Chad,Kouri,chad@chadkouri.com,asdqweL454,active,Member,United States of America (USA),Chicago,"Chicago, United States of America (USA)",25/09/2017,31,1,"Artist, Designer","<img src=""https://s3.amazonaws.com/assets.knackhq.com/assets/5853e6992e7f151d490cd3f6/59ca4452e6db8620e659dadb/thumb/www.fastmail.com.jpg"" />",https://s3.amazonaws.com/assets.knackhq.com/assets/5853e6992e7f151d490cd3f6/59ca4452e6db8620e659dadb/original/www.fastmail.com.jpg,1,2334456677,instagram: @chadkouri,Guest & Host,Email,,,,chadkouri.com,,,,,,,,,,,,,,,,,,,,,,,,,"She is one of those people that can say they grew up in a museum, as her mother was a docent at the High Museum of Art in Atlanta. She makes paintings out of the art of those who came before her, and she defines them as ""art historical in nature"".",,,,,,https://www.humanhotel.com,
02/14/2017 0:01,455,M,Aurèle  Castel,,Aurèle,,Castel,Aurèle,Castel,aurele@unlearn.fr,asdqweM455,active,Member,France,Paris,"Paris, France",,27,48,Student,"<img src=""https://s3.amazonaws.com/assets.knackhq.com/assets/5853e6992e7f151d490cd3f6/58b93342ba382b26e38ddb42/thumb/857779_10151403222739197_739750695_o.jpg"" />",https://s3.amazonaws.com/assets.knackhq.com/assets/5853e6992e7f151d490cd3f6/58b93342ba382b26e38ddb42/original/857779_10151403222739197_739750695_o.jpg,33,33671949738,https://www.facebook.com/aurele.castel,Guest & Host,Word of mouth,,,"Music enthusiast, philosophy student & party promoter",https://soundcloud.com/elerua,...,,,,,,,,,,,,,,,,,,,,,,,,Free of Booking Fee for first booking for helping out,,,,,,https://www.humanhotel.com,
02/14/2017 0:01,456,N,Susana Lopez F.,,Susana,,Lopez F.,Susana,Lopez F.,caracolll@hotmail.es,asdqweN456,active,Member,Spain,Gijon,"Gijon , Spain",,39,48,Visual Artist,"<img src=""https://s3.amazonaws.com/assets.knackhq.com/assets/5853e6992e7f151d490cd3f6/58b5ac32d1c428bf253decf9/thumb/_mg_7554_1.jpg"" />",https://s3.amazonaws.com/assets.knackhq.com/assets/5853e6992e7f151d490cd3f6/58b5ac32d1c428bf253decf9/original/_mg_7554_1.jpg,34,+34 696914081,https://www.instagram.com/caracolllf/,Guest & Host,Wooloo.org Newsletter,,"Susana López is a visual artist from Spain. She holds a Bachelor's Degree in Fine Arts (Painting) and a PhD, both from the University of Barcelona.<br />","Spanish, love listen and see. ",www.susanalf.es,"City, time, migration","<img src=""https://s3.amazonaws.com/assets.knackhq.com/assets/5853e6992e7f151d490cd3f6/58b5acd2ba7ef88925810500/thumb/territorioslondon.bricklane.susanalopezf.jpg"" />",https://s3.amazonaws.com/assets.knackhq.com/assets/5853e6992e7f151d490cd3f6/58b5acd2ba7ef88925810500/original/territorioslondon.bricklane.susanalopezf.jpg,"Territorios is a photographic investigation as well as a personal reflection, born through my observation of different communities coexisting in the same territory.","<img src=""https://s3.amazonaws.com/assets.knackhq.com/assets/5853e6992e7f151d490cd3f6/58b5ad17813789d82733c030/thumb/04_timesloane_2017_susanalf.jpg"" />",https://s3.amazonaws.com/assets.knackhq.com/assets/5853e6992e7f151d490cd3f6/58b5ad17813789d82733c030/original/04_timesloane_2017_susanalf.jpg,#Time is a self portrait that talks about the speed of time. #Time is a wish to make it stand still for a while in the present day.,"<img src=""https://s3.amazonaws.com/assets.knackhq.com/assets/5853e6992e7f151d490cd3f6/58b5ad1f11b3418c264ab488/thumb/0perlora.jpg"" />",https://s3.amazonaws.com/assets.knackhq.com/assets/5853e6992e7f151d490cd3f6/58b5ad1f11b3418c264ab488/original/0perlora.jpg,"One of my last project, a reflection about the death and those who left us too early.",,,,,,,,,,"<br />	Her subjects are taken from, and inspired by, personal experiences in the city and her daily life. Susana tries to communicate through her pictures the history, architecture, consumerism and even immigration patterns of a city.  She seeks to reveal these from a distance that reflects an objective and striking honesty.<br /><br />	A few years ago, she discovered the power of social media which allowed her to expand her aims and engage on a wider digital platform. She loves using Twitter and her personal blog diffuses her projects, making her images, views and personal experiences accessible to everyone.<br /><br />	Her work is in private and public collections and is been shown in solo and group exhibitions in Spain and abroad. She recently showed at the Cervantes Institute in Sofia, 1aSpace in Hong Kong, The Other Art Fair in London, PointB in Brooklyn, NY or Woman Made Gallery in Chicago.<br />",,,,,,,,,,,https://www.humanhotel.com,
02/14/2017 0:01,457,O,Simon Terrill,Simon Terrill,Simon,,Terrill,Simon,Terrill,simonterrill@yahoo.com,asdqweO457,active,Member,United Kingdom (UK),London,"London, United Kingdom (UK)",,47,48,Artist,"<img src=""https://s3.amazonaws.com/assets.knackhq.com/assets/5853e6992e7f151d490cd3f6/5a5253a843f86157fb983e27/thumb/profileimagefiller.png"" />",https://s3.amazonaws.com/assets.knackhq.com/assets/5853e6992e7f151d490cd3f6/5a5253a843f86157fb983e27/original/profileimagefiller.png,,,I have no social media accounts :),guest only,Email,Francesca Galli & Martin Rosengaard,,,www.simonterrill.com,,,,,,,,,,,,,,,,,,,,,,,,,,,,,,,https://www.humanhotel.com,
02/14/2017 0:01,458,P,Natalja Safronova,Natalja Safronova,Natalja,,Safronova,Natalja,Safronova,n_safronova@yahoo.co.uk,asdqweP458,active,Member,United Kingdom (UK),London,"London, United Kingdom (UK)",,26,48,"Artist, Photographer, Filmmaker","<img src=""https://s3.amazonaws.com/assets.knackhq.com/assets/5853e6992e7f151d490cd3f6/5a5253a843f86157fb983e27/thumb/profileimagefiller.png"" />",https://s3.amazonaws.com/assets.knackhq.com/assets/5853e6992e7f151d490cd3f6/5a5253a843f86157fb983e27/original/profileimagefiller.png,,,@nsafronova,guest & host,Email,,,,www.nsafronova.com,,,,,,,,,,,,,,,,,,,,,,,,,,,,,,,https://www.humanhotel.com,
02/14/2017 0:01,459,Q,Karin Bos,,Karin,,Bos,Karin,Bos,karinbos@xs4all.nl,asdqweQ459,active,Member,Netherlands,Amsterdam,"Amsterdam, Netherlands",09/05/1966,50,52,Visual Artist,"<img src=""https://s3.amazonaws.com/assets.knackhq.com/assets/5853e6992e7f151d490cd3f6/58a4509ff77fca1e49c39450/thumb/b0000284_karinbos_cedricverhelst.jpg"" />",https://s3.amazonaws.com/assets.knackhq.com/assets/5853e6992e7f151d490cd3f6/58a4509ff77fca1e49c39450/original/b0000284_karinbos_cedricverhelst.jpg,31,31644452956,www.facebook.com/karin.bos.792,Guest & Host,Wooloo.org Newsletter,Francesca Galli & Martin Rosengaard,"Together with my husband, who is a sculptor, I live in Amsterdam where I have my art practice as a painter. We know a lot about our home town and its cultural life, and find it very interesting to connect with colleagues from other countries. ",visual artists couple based in Amsterdam,www.karinbos.info,Best comfortable base camp to explore Amsterdam!,"<img src=""https://s3.amazonaws.com/assets.knackhq.com/assets/5853e6992e7f151d490cd3f6/58f632185a4d9a11b4fde895/thumb/lost2_site.jpg"" />",https://s3.amazonaws.com/assets.knackhq.com/assets/5853e6992e7f151d490cd3f6/58f632185a4d9a11b4fde895/original/lost2_site.jpg,"Karin Bos, Lost 2, oil on canvas, 70 x 100 cm, 2014","<img src=""https://s3.amazonaws.com/assets.knackhq.com/assets/5853e6992e7f151d490cd3f6/58f6325d9809a30bd902dda4/thumb/ol_parade_site.jpg"" />",https://s3.amazonaws.com/assets.knackhq.com/assets/5853e6992e7f151d490cd3f6/58f6325d9809a30bd902dda4/original/ol_parade_site.jpg,"Karin Bos, Parade, oil on canvas, 70 x 100 cm, 2015","<img src=""https://s3.amazonaws.com/assets.knackhq.com/assets/5853e6992e7f151d490cd3f6/58f632a54a04ac0d8f1f4c4e/thumb/ol_redarmy2site.jpg"" />",https://s3.amazonaws.com/assets.knackhq.com/assets/5853e6992e7f151d490cd3f6/58f632a54a04ac0d8f1f4c4e/original/ol_redarmy2site.jpg,"Karin Bos, Red Army 2, oil on canvas, 100 x 130 cm, 2016","<img src=""https://s3.amazonaws.com/assets.knackhq.com/assets/5853e6992e7f151d490cd3f6/58f633923830fb0d936eaed4/thumb/boskarinboyscouts.jpg"" />",https://s3.amazonaws.com/assets.knackhq.com/assets/5853e6992e7f151d490cd3f6/58f633923830fb0d936eaed4/original/boskarinboyscouts.jpg,"Karin Bos, Boy scouts, oil on canvas, 100 x 130 cm, 2007","<img src=""https://s3.amazonaws.com/assets.knackhq.com/assets/5853e6992e7f151d490cd3f6/58f63427291ed20bda253b90/thumb/ol_marchinggirls2site.jpg"" />",https://s3.amazonaws.com/assets.knackhq.com/assets/5853e6992e7f151d490cd3f6/58f63427291ed20bda253b90/original/ol_marchinggirls2site.jpg,"Karin Bos, marching Girls 2, oil on canvas, 40 x 50 cm, 2010","<img src=""https://s3.amazonaws.com/assets.knackhq.com/assets/5853e6992e7f151d490cd3f6/58f634d145da7c0d66a03dd1/thumb/gt_dollabusesite.jpg"" />",https://s3.amazonaws.com/assets.knackhq.com/assets/5853e6992e7f151d490cd3f6/58f634d145da7c0d66a03dd1/original/gt_dollabusesite.jpg,"Karin Bos, Doll Abuse, watercolour and charcoal on paper, 102 x 66 cm, 2006, collection Teylers Museum","My husband makes abstract, organic shaped sculptures. (His artist studio is not at home, unlike mine.) My main media are painting and work on paper.<br />People are the focus point of my work. Main characters are usually girls or women. Especially mutual relative power and relations have my interest. Frictions and inequality in these relationships is a recurrent theme. <br />In my recent work there is a shift towards the landscape. I asked herself if I could tell something about people without having them literally in sight. It resulted in fairytale-like landscapes with an ominous undertone, where always something odd is present. These 'Slightly Creepy Camping Sites' are paintings of barns, sheds and abandoned caravans in harsh landscapes which get their suspense no longer by the act or look of the main character, but by the use of color, light and the way it is painted. Important in my work is the suggestion. It evokes a cinematic world, a world of stories, where nothing is what it seems, and where a merry holiday scene could as well be the site of a terrible crime. This tension, this ambiguity is what interests me as an artist.<br />In 2009 I published the catalogue 'A Trip to the Countryside'.<br />Outdoor life and nature play a large part in my recent work. In search for interesting source material, I have done several artist-in-residencies abroad. I focus on landscapes that provoke mixed feelings. What attracts me is 'ugly' rough scenery, and the ruthlessness of nature. It is not there to please. It has a dark side, which fits my work very well.<br />Currently I'm working towards a retrospective which will be on view at the Contemporary Art Museum CODA in Apeldoorn, the Netherlands, from November 5 2017 until March 4 2018. This solo exhibition will contain work of the past 10 years with an emphasis on the landscape, and man in relationship to nature.<br />The CODA Museum has the scoop to present my most recent series 'Fuente' and 'Back to Basecamp', which are the result of my travels to Spain and Iceland.<br />In addition, CODA Museum appointed me as guest curator, and asked me to compose an accompanying group show at the museum. The show titled 'Expedition Nature' will contain works of approximately 20 artists who work in the fields of painting, sculpting, video and photography.",,,,,,,10/08/2017 12:48,,,,https://www.humanhotel.com,
02/14/2017 0:01,460,R,Zoran Dragelj,,Zoran,,Dragelj,Zoran,Dragelj,zoran75@yahoo.com,asdqweR460,active,Member,Canada,Vancouver,"Vancouver, Canada",30/06/1975,41,43,director,"<img src=""https://s3.amazonaws.com/assets.knackhq.com/assets/5853e6992e7f151d490cd3f6/59d3c13da447df20deb0dc4b/thumb/profile.jpg"" />",https://s3.amazonaws.com/assets.knackhq.com/assets/5853e6992e7f151d490cd3f6/59d3c13da447df20deb0dc4b/original/profile.jpg,1,16047718737,https://www.instagram.com/attentionvan/,Guest & Host,Wooloo.org Newsletter,,"an auteur filmmaker with mélange of talents like music video and film director, producer and visual artist",..film art,http://www.youtube.com/user/zoxx,..filmmaker art visual,,,,,,,,,,,,,,,,,,,Experimental films and videos,,,,,,,10/03/2017 18:57,,,,https://www.humanhotel.com,
02/14/2017 0:01,461,S,non studio,,non,,studio,non,studio,info@nonstudio.info,asdqweS461,active,Member,United States of America (USA),Brooklyn,"Brooklyn, United States of America (USA)",08/01/1988,28,30,artists / educators,"<img src=""https://s3.amazonaws.com/assets.knackhq.com/assets/5853e6992e7f151d490cd3f6/59d3d9cf5d1b4e24b00bd915/thumb/original.jpg"" />",https://s3.amazonaws.com/assets.knackhq.com/assets/5853e6992e7f151d490cd3f6/59d3d9cf5d1b4e24b00bd915/original/original.jpg,1,5162501797,@invisiblelabor,guest & host,Email,,"Callen & Marisa are herbalists, queer theory nerds and educators. They regularly employ horizontal pedagogies to reach 'students' who end up being more like teachers. Callen has held posts at the Textile Arts Center, does freelance gigs as an educator and also teaches as an adjunct professor in the CUNY system. Marisa spends lots of time in gardens, working on a floating food forest, Swale and also at arts & cultural centers as a horticultural and permaculture advisor. Somewhat of a mobile unit, the duo have lived in Oakland, CA, Montpelier, VT and now in Brooklyn, NY where they drink lots of coffee.","queer theories, plants, moving water",http://nonstudio.info,"healing, social sculpture, radical pedagogy","<img src=""https://s3.amazonaws.com/assets.knackhq.com/assets/5853e6992e7f151d490cd3f6/59d3d76a8480bf262ebc7712/thumb/1.jpg"" />",https://s3.amazonaws.com/assets.knackhq.com/assets/5853e6992e7f151d490cd3f6/59d3d76a8480bf262ebc7712/original/1.jpg,working with youth at the Berkeley Art Museum to create a kid-run restaurant,"<img src=""https://s3.amazonaws.com/assets.knackhq.com/assets/5853e6992e7f151d490cd3f6/59d3d7c6af3d0d341521b238/thumb/4.png"" />",https://s3.amazonaws.com/assets.knackhq.com/assets/5853e6992e7f151d490cd3f6/59d3d7c6af3d0d341521b238/original/4.png,"healing bodies for social networks, at Sage Mountain Botanical Sanctuary","<img src=""https://s3.amazonaws.com/assets.knackhq.com/assets/5853e6992e7f151d490cd3f6/59d3d82964aa5825780b1721/thumb/img_6517.jpg"" />",https://s3.amazonaws.com/assets.knackhq.com/assets/5853e6992e7f151d490cd3f6/59d3d82964aa5825780b1721/original/img_6517.jpg,"herb bundles at a craft fair in Oakland, CA","<img src=""https://s3.amazonaws.com/assets.knackhq.com/assets/5853e6992e7f151d490cd3f6/59d3d88172555f20ea5898e9/thumb/spindle.jpg"" />",https://s3.amazonaws.com/assets.knackhq.com/assets/5853e6992e7f151d490cd3f6/59d3d88172555f20ea5898e9/original/spindle.jpg,making drop spindles out of cd's,"<img src=""https://s3.amazonaws.com/assets.knackhq.com/assets/5853e6992e7f151d490cd3f6/59d3d8ad69915f246db19714/thumb/covercrop.png"" />",https://s3.amazonaws.com/assets.knackhq.com/assets/5853e6992e7f151d490cd3f6/59d3d8ad69915f246db19714/original/covercrop.png,design project for the Great Kosmic Kitchen's first cookbook,"<img src=""https://s3.amazonaws.com/assets.knackhq.com/assets/5853e6992e7f151d490cd3f6/59d3d8d2021aa327293aa274/thumb/digest.png"" />",https://s3.amazonaws.com/assets.knackhq.com/assets/5853e6992e7f151d490cd3f6/59d3d8d2021aa327293aa274/original/digest.png,design of zine series with Homestead Apothecary,"Together, we work across ecology, holistic education and craft histories, employing trans-disciplinary methods while creating tools and strategies to heal bodies & minds.",,,,,,,10/03/2017 20:41,,,,https://www.humanhotel.com,
02/14/2017 0:01,462,T,Leah Gordon,,Leah,,Gordon,Leah,Gordon,leahgordon@aol.com,asdqweT462,active,Member,United Kingdom (UK),London,"London, United Kingdom (UK)",,57,48,"Artist, Curator, Haitian Art","<img src=""https://s3.amazonaws.com/assets.knackhq.com/assets/5853e6992e7f151d490cd3f6/58a315bcf462352049df1c87/thumb/leah.jpg"" />",https://s3.amazonaws.com/assets.knackhq.com/assets/5853e6992e7f151d490cd3f6/58a315bcf462352049df1c87/original/leah.jpg,44,7958566791,@leah_gordon_1804,Guest & Host,Email,Martin Rosengaard,,...,www.leahgordon.co.uk,...,,,,,,,,,,,,,,,,,,,,,,,,"She works across a variety of media including photography, film and installations, often including commissioned sculpture and painting. In the 1980's she wrote lyrics, sang and played for the feminist folk punk band, 'The Doonicans'.",,,,,,https://www.humanhotel.com,
02/14/2017 0:01,463,U,Anne Waak,,Anne,,Waak,Anne,Waak,anne@annewaak.de,asdqweU463,active,Member,Germany,Berlin,"Berlin, Germany",25/08/1982,34,36,freelance journalist and writer,"<img src=""https://s3.amazonaws.com/assets.knackhq.com/assets/5853e6992e7f151d490cd3f6/58d3942141212b2e2523a68a/thumb/bildschirmfoto20170323um10.23.16.png"" />",https://s3.amazonaws.com/assets.knackhq.com/assets/5853e6992e7f151d490cd3f6/58d3942141212b2e2523a68a/original/bildschirmfoto20170323um10.23.16.png,49,+49(0)1771792246,https://www.facebook.com/anne.waak,Guest & Host,Word of mouth,Martin Rosengaard,"I am a journalist who tries to travel a lot. When I am in town I enjoy the full cultural landscape of my home town of 16 years, Berlin.","travels, food, art and culture ",http://annewaak.de/,cultural journalist interested in almost everything but cars and watches,"<img src=""https://s3.amazonaws.com/assets.knackhq.com/assets/5853e6992e7f151d490cd3f6/5a940c38c1661613cf195fb6/thumb/dsc_1350.jpg"" />",https://s3.amazonaws.com/assets.knackhq.com/assets/5853e6992e7f151d490cd3f6/5a940c38c1661613cf195fb6/original/dsc_1350.jpg,,"<img src=""https://s3.amazonaws.com/assets.knackhq.com/assets/5853e6992e7f151d490cd3f6/5a940c5318e3a113c26e34ab/thumb/screenshot20180226at14.30.04.png"" />",https://s3.amazonaws.com/assets.knackhq.com/assets/5853e6992e7f151d490cd3f6/5a940c5318e3a113c26e34ab/original/screenshot20180226at14.30.04.png,My last book,"<img src=""https://s3.amazonaws.com/assets.knackhq.com/assets/5853e6992e7f151d490cd3f6/5a940c817d0d8d13c025c326/thumb/screenshot20180226at14.26.30.png"" />",https://s3.amazonaws.com/assets.knackhq.com/assets/5853e6992e7f151d490cd3f6/5a940c817d0d8d13c025c326/original/screenshot20180226at14.26.30.png,My column in German art magazine Monopol,"<img src=""https://s3.amazonaws.com/assets.knackhq.com/assets/5853e6992e7f151d490cd3f6/5a940cba623d8113d93365d9/thumb/screenshot20180226at14.26.44.png"" />",https://s3.amazonaws.com/assets.knackhq.com/assets/5853e6992e7f151d490cd3f6/5a940cba623d8113d93365d9/original/screenshot20180226at14.26.44.png,,,,,,,,"As a journalist I am interested in all things culture, art, and society. I write for magazines and newspapers, and authored three books so for such as ""Hartz IV und wir"" (2014, about people getting creative with the German social welfare system) and ""Der freie Tod – Eine kleine Geschichte des Suizids"", (2016, a short cultural history of suicide).",,,,,"free bookings to any of the 25 destination the next time she's traveling<br /><br />As a journalist, she is interested in culture, art, and society. She writes for magazines and newspapers, and authored three books so for such as ""Hartz IV und wir"" (2014, about people getting creative with the German social welfare system) and ""Der freie Tod – Eine kleine Geschichte des Suizids"", (2016, a short cultural history of suicide).",,02/26/2018 14:36,,,,https://www.humanhotel.com,
02/14/2017 0:01,464,V,Benjamin Hersh,,Benjamin,,Hersh,Benjamin,Hersh,mostlycogent@gmail.com,asdqweV464,active,Member,United States of America (USA),San Francisco,"San Francisco, United States of America (USA)",14/07/1988,28,30,Artst and Designer,"<img src=""https://s3.amazonaws.com/assets.knackhq.com/assets/5853e6992e7f151d490cd3f6/59c095664742c10d6e9e6417/thumb/unnamed.jpg"" />",https://s3.amazonaws.com/assets.knackhq.com/assets/5853e6992e7f151d490cd3f6/59c095664742c10d6e9e6417/original/unnamed.jpg,1,3106255743,https://www.facebook.com/bhersh,Guest & Host,Word of mouth,,"I'm an artist and designer in the Bay Area. I work at Medium, a digital platform for sharing stories and ideas, and have a studio at the Berkeley Arthouse. ","Art, Design, Journalism ",http://benjaminhersh.com/,"Illustration, Drawing, Design ",,,,,,,,,,,,,,,,,,,"I make things as simple as possible, but not simpler. ",,,,,,,09/19/2017 6:00,,,,https://www.humanhotel.com,
02/14/2017 0:01,465,W,Forest Keegel,,Forest,,Keegel,Forest,Keegel,forest@keegel.id.au,asdqweW465,active,Member,Australia,Maldon,"Maldon , Australia",04/03/1971,45,47,..Visual Artist,"<img src=""https://s3.amazonaws.com/assets.knackhq.com/assets/5853e6992e7f151d490cd3f6/59d359a03c115d24dde0fe68/thumb/headshotaa.jpg"" />",https://s3.amazonaws.com/assets.knackhq.com/assets/5853e6992e7f151d490cd3f6/59d359a03c115d24dde0fe68/original/headshotaa.jpg,61,61402035521,forestkeegel.com,Guest & Host,Social Media,,Forest Keegel lives and works on Dja Dja Wurrung Country and listens deeply to the stories of the Traditional Owners who continue to share their rich cultural heritage with a generosity which astounds her. As a settler she can trace back roots to her Sri Lankan Father and other boat arrivals in the 1860’s. A practising artist since 1992 and graduate of Honours in Sculpture Performance and Installation from Sydney College of the Arts.,"..contemporary art, participatory art",forestkeegel.com,"..sculpture, community engaged, environmental",,,,,,,,,,,,,,,,,,,"Her work has a strong environmental research focus and sharing her findings by highlighting conditions endangered species need to thrive is paramount to her practice. With more than a decade creating artworks that evoke a sense of the landscape of Victoria prior to colonisation and the gold rush. Keegel often uses Indigenous plants and waste paper to create ephemeral sculpture in public space. Creating a visual interpretation of scientific, historic and environmental research and illuminating those themes through engaging in conversation is crucial to her practice. In 2014 she was awarded the Lorne Biennale Sculpturescape Prize.<br /><br /> <br /><br />She has twenty years experience as a visual artist in Community Cultural Development and is passionate about creating participatory artworks that engage the public with the themes of her research or to generate work that expresses their voice and identity. Since 2006Keegel has held a position at the Artful Dodgers Studios, Jesuit Social Services working collaboratively with young people 15-28. She was a member of the Art Central team of artists in the Central Goldfields Shire creating art with the community for public exhibition. Keegel has just accepted a position with Multicultural Arts Victoria to create an Emerge Hub in Bendigo.",,,,,,,10/03/2017 11:35,,,,https://www.humanhotel.com,
02/14/2017 0:01,466,X,Pablo Rasgado,,Pablo,,Rasgado,Pablo,Rasgado,prasgado@gmail.com,asdqweX466,active,Member,Mexico,Mexico,"Mexico, Mexico",,32,48,Artist,"<img src=""https://s3.amazonaws.com/assets.knackhq.com/assets/5853e6992e7f151d490cd3f6/58adad2230f48f6725c5fa0a/thumb/16899956_10155868050728206_257065946_n.jpg"" />",https://s3.amazonaws.com/assets.knackhq.com/assets/5853e6992e7f151d490cd3f6/58adad2230f48f6725c5fa0a/original/16899956_10155868050728206_257065946_n.jpg,52,+521(55)40903644,https://www.facebook.com/pablo.rasgado.12,Guest & Host,Email,Francesca Galli & Martin Rosengaard,,"Art, Movies, Food, Book and Ping Pong",http://steveturner.la/exhibition/pablo-rasgado-3#1,"Art, Movies, Food, Book and Ping Pong",,,,,,,,,,,,,,,,,,,,,,,,,,,,,,https://www.humanhotel.com,
02/14/2017 0:01,467,Y,Jason Das,Jason Das,Jason,,Das,Jason,Das,jason.das@gmail.com,asdqweY467,active,Member,United States of America (USA),Brooklyn,"Brooklyn, United States of America (USA)",,39,48,Artist,"<img src=""https://s3.amazonaws.com/assets.knackhq.com/assets/5853e6992e7f151d490cd3f6/5a5253a843f86157fb983e27/thumb/profileimagefiller.png"" />",https://s3.amazonaws.com/assets.knackhq.com/assets/5853e6992e7f151d490cd3f6/5a5253a843f86157fb983e27/original/profileimagefiller.png,,,@floodfish,guest only,Word of mouth,Martin Rosengaard,,,http://jasondas.com,,,,,,,,,,,,,,,,,,,,,,,,,,,,,,,https://www.humanhotel.com,
02/14/2017 0:01,468,Z,Anna Kamay,,Anna,,Kamay,Anna,Kamay,anna.avetisyan@gmail.com,asdqweZ468,active,Member,Armenia,Yerevan,"Yerevan, Armenia",,34,48,Artists residency and community center of ICA Yerevan,"<img src=""https://s3.amazonaws.com/assets.knackhq.com/assets/5853e6992e7f151d490cd3f6/58a310f3a65e6547525ea12e/thumb/usermaleshapeinacircleios7interfacesymbol_31835357.jpg"" />",https://s3.amazonaws.com/assets.knackhq.com/assets/5853e6992e7f151d490cd3f6/58a310f3a65e6547525ea12e/original/usermaleshapeinacircleios7interfacesymbol_31835357.jpg,374,0037455227053 or 0037455362915,anna@ica.am,Guest & Host,Social Media,wooloo,,...,www.ica.am,...,,,,,,,,,,,,,,,,,,,"Nest artists residency and community center of ICA Yerevan is suited for artists, writers, curators, cultural managers, academics and other practitioners providing them with the opportunity to live and work in Yerevan while developing individual projects and immersing themselves in Armenia’s creative sphere.<br /><br />Run alongside ICA Yerevan’s Curatorial School, Theory and Project Labs, it also enables residents to benefit from collaboration with these departments that draw participants and mentors from a wide range of complementary artistic and critical backgrounds, as well as attend talks, lectures and workshops by local and international prominent curators, artists and thinkers.",,,,,,,,,,,https://www.humanhotel.com,
02/14/2017 0:01,469,A,Sirio Magnabosco,,Sirio,,Magnabosco,Sirio,Magnabosco,mrsirio@icloud.com,asdqweA469,active,Member,Germany,Berlin,"Berlin, Germany",01/03/1980,36,38,"filmmaker, photographer ","<img src=""https://s3.amazonaws.com/assets.knackhq.com/assets/5853e6992e7f151d490cd3f6/58a43095cc91e9704940354c/thumb/noname1.jpeg"" />",https://s3.amazonaws.com/assets.knackhq.com/assets/5853e6992e7f151d490cd3f6/58a43095cc91e9704940354c/original/noname1.jpeg,49,491631724585,@mrsirio (IG),Guest & Host,Word of mouth,Martin Rosengaard,"I'm a filmmaker and photographer and when I'm not traveling, during the day I work in a studio nearby.",...,www.mrsirio.com,...,,,,,,,,,,,,,,,,,,,"My work deals with the grey zones in-between where life happens unnoticed, from time to time I work with commercial clients and magazines on more concrete projects.",,,,,"Paypal: mrsirio@mrsirio.com<br /><br />He deals with the grey zones in-between where life happens unnoticed. But Sirio clearly doesn't get unnoticed, as one of his reviews said that his work ""Reminds you why you liked photography in the first place"". Not convinced yet? He has a private garden and a vine that produce delicious grapes. ",,,,,,https://www.humanhotel.com,
02/14/2017 0:01,470,B,Carlos Doy,,Carlos,,Doy,Carlos,Doy,info@no-id.art.br,asdqweB470,active,Member,Brazil,São Paulo,"São Paulo, Brazil",,33,48,Artist,"<img src=""https://s3.amazonaws.com/assets.knackhq.com/assets/5853e6992e7f151d490cd3f6/58a6c3f169606bee6b70a56b/thumb/usermaleshapeinacircleios7interfacesymbol_31835357.jpg"" />",https://s3.amazonaws.com/assets.knackhq.com/assets/5853e6992e7f151d490cd3f6/58a6c3f169606bee6b70a56b/original/usermaleshapeinacircleios7interfacesymbol_31835357.jpg,55,,@sosek_san (insta),Guest & Host,Email,William Rawlings,,..,www.no-id.art.br,..,,,,,,,,,,,,,,,,,,,,,,,,,,,,,,https://www.humanhotel.com,
02/14/2017 0:01,471,C,Romy Arroyo Fernandez,,Romy,,Arroyo Fernandez,Romy,Arroyo Fernandez,romyclick.photo@gmail.com,asdqweC471,active,Member,,Nijmegen,"Nijmegen, ",,35,48,Photojournalist,"<img src=""https://s3.amazonaws.com/assets.knackhq.com/assets/5853e6992e7f151d490cd3f6/592d8f5805127a4b48366954/thumb/141008103utrecht.jpg"" />",https://s3.amazonaws.com/assets.knackhq.com/assets/5853e6992e7f151d490cd3f6/592d8f5805127a4b48366954/original/141008103utrecht.jpg,,,https://www.facebook.com/allromy,guest only,Wooloo.org Newsletter,,"Hi, <br />My name is Romy, and I'm Spanish freelance photojournalist based in Nijmegen since 2013 with my boyfriend.<br />","#responsible, #open-minded,  #reliable",http://www.romyclick.com/portfolio-selection/,#social-issues #photo-reportage #demonstrations,,,,,,,,,,,,,,,,,,,My background is in Graphic Design. During my years in the School of Arts I learnt the power of image. Later I decided to reoriented my career and use my skills as a photographer to portrait the society in my surroundings and rise consciousness about social issues all around the world. During the last years I found the way to do so working as a published freelance photojournalist.,,,,,,,05/30/2017 17:28,,,,https://www.humanhotel.com,
02/14/2017 0:01,472,D,Meik Brüsch,,Meik,,Brüsch,Meik,Brüsch,meikbb@gmail.com,asdqweD472,active,Member,Denmark,Copenhagen,"Copenhagen, Denmark",,30,48,Artist,"<img src=""https://s3.amazonaws.com/assets.knackhq.com/assets/5853e6992e7f151d490cd3f6/59996991e58cc92b96acb7c8/thumb/meikbillede2.jpg"" />",https://s3.amazonaws.com/assets.knackhq.com/assets/5853e6992e7f151d490cd3f6/59996991e58cc92b96acb7c8/original/meikbillede2.jpg,,,https://www.facebook.com/meikjb,Guest & Host,Wooloo.org Newsletter,None,"30 year old Copenhagen native, master of Ethnology with special interest in innovation, design processes, and a self-taught artist and sculptor.","#art, #food, #design",www.meikbrusch.com,"#sculpture, #painting, #relief",,,,,,,,,,,,,,,,,,,"I am a sculptor, rarity-collector and ethnologist based in Copenhagen, Denmark. I scavenge, hoard and haggle for leftover and residual materials that I turn into altar-like sculptures by improvising and adapting forms and textures lent by a mix of coincidence and intention. I haven’t received formal artistic training, however, raised as the only child of a father working as a traveling circus artist, and a cockscombed mother working as a blacksmith and sculptor, life has afforded me certain practical and creative skills. It has also situated me – at least in a Danish context - in the fringes of normality and equipped me with a paradoxical urge to belong as well as to escape. An urge I have later brought with me through my academic training as a master of European ethnology to which I owe parts of my artistic vocabulary and imagery. Both of which are fused into an artistic practice that I see as a yearning as well as an anxiety for a guiding line. One that lends points of fixation to a collective and individual existence that I perceive as obsessed with the flux of newness, of social, cultural, and material revolution. My academic training and interest in cultural change, and my urge to belong and escape have surely influenced my practice. It has informed an imagery that has totemic and spiritual resemblances, rising from a meticulous and practical worship that aspires togetherness and shared vision. Most likely, however, as is the case with most outcomes - it is a complex mixture of acknowledged, coincidental and unknown influences. ",,,,,,,08/20/2017 13:02,,,,https://www.humanhotel.com,
02/14/2017 0:01,473,E,Peg Rapp,,Peg,,Rapp,Peg,Rapp,rap8643@aol.com,asdqweE473,active,Member,United States of America (USA),NYC,"NYC, United States of America (USA)",,73,48,..,"<img src=""https://s3.amazonaws.com/assets.knackhq.com/assets/5853e6992e7f151d490cd3f6/58a6cd1a1011d5a40e5da6bd/thumb/usermaleshapeinacircleios7interfacesymbol_31835357.jpg"" />",https://s3.amazonaws.com/assets.knackhq.com/assets/5853e6992e7f151d490cd3f6/58a6cd1a1011d5a40e5da6bd/original/usermaleshapeinacircleios7interfacesymbol_31835357.jpg,,,Facebook/PegRapp,Guest & Host,Email,You emailed me after I posted an ad on craigslist last week,,..,Abovetgebridge@gmail.com,..,,,,,,,,,,,,,,,,,,,,,,,,,,,,,,https://www.humanhotel.com,
02/14/2017 0:01,474,F,Daniel Mirer,Daniel Mirer,Daniel,,Mirer,Daniel,Mirer,mirer.daniel@gmail.com,asdqweF474,active,Member,,Redwood City,"Redwood City, ",,50,48,"Artist, Photographer, Educator","<img src=""https://s3.amazonaws.com/assets.knackhq.com/assets/5853e6992e7f151d490cd3f6/5a5253a843f86157fb983e27/thumb/profileimagefiller.png"" />",https://s3.amazonaws.com/assets.knackhq.com/assets/5853e6992e7f151d490cd3f6/5a5253a843f86157fb983e27/original/profileimagefiller.png,,,https://www.facebook.com,guest only,Email,Francesca and Martin Wooloo.org,,,www.danielmirer.com,,,,,,,,,,,,,,,,,,,,,,,,,,,,,,,https://www.humanhotel.com,
02/14/2017 0:01,475,G,Dave Walsh,Dave Walsh,Dave,,Walsh,Dave,Walsh,dave@davewalshphoto.com,asdqweG475,active,Member,Spain,Barcelona,"Barcelona, Spain",,43,48,Photographer,"<img src=""https://s3.amazonaws.com/assets.knackhq.com/assets/5853e6992e7f151d490cd3f6/5a5253a843f86157fb983e27/thumb/profileimagefiller.png"" />",https://s3.amazonaws.com/assets.knackhq.com/assets/5853e6992e7f151d490cd3f6/5a5253a843f86157fb983e27/original/profileimagefiller.png,,,https://www.instagram.com/davewalshphoto/,guest only,Email,Francesca and Martin,,,http://www.davewalshphoto.com/,,,,,,,,,,,,,,,,,,,,,,,,,,,,,,,https://www.humanhotel.com,
02/14/2017 0:01,476,H,Lucia Giardino,,Lucia,,Giardino,Lucia,Giardino,lucygarden@gmail.com,asdqweH476,active,Member,,Firenze,"Firenze, ",,47,48,Artist,"<img src=""https://s3.amazonaws.com/assets.knackhq.com/assets/5853e6992e7f151d490cd3f6/5a5253a843f86157fb983e27/thumb/profileimagefiller.png"" />",https://s3.amazonaws.com/assets.knackhq.com/assets/5853e6992e7f151d490cd3f6/5a5253a843f86157fb983e27/original/profileimagefiller.png,,,https://www.facebook.com/lucia.giardino.16,guest only,Email,you,,,https://guilmiartproject.wordpress.com/,,,,,,,,,,,,,,,,,,,,,,,,,,,,,,,https://www.humanhotel.com,
02/14/2017 0:01,477,I,René  Paré,,René,,Paré,René,Paré,pare@dse.nl,asdqweI477,active,Member,Netherlands,Eindhoven,"Eindhoven, Netherlands",,60,48,Program Director,"<img src=""https://s3.amazonaws.com/assets.knackhq.com/assets/5853e6992e7f151d490cd3f6/58a6c2f399b1822f5f9beab5/thumb/usermaleshapeinacircleios7interfacesymbol_31835357.jpg"" />",https://s3.amazonaws.com/assets.knackhq.com/assets/5853e6992e7f151d490cd3f6/58a6c2f399b1822f5f9beab5/original/usermaleshapeinacircleios7interfacesymbol_31835357.jpg,31,,https://www.facebook.com/rene.pare,Guest & Host,Email,,,..,madlab.nl,..,,,,,,,,,,,,,,,,,,,,,,,,,,,,,,https://www.humanhotel.com,
02/14/2017 0:01,478,J,Jennifer Jaskey,,Jennifer,,Jaskey,Jennifer,Jaskey,jennyjaskey@gmail.com,asdqweJ478,active,Member,United States of America (USA),Brooklyn,"Brooklyn, United States of America (USA)",,35,48,Artist,"<img src=""https://s3.amazonaws.com/assets.knackhq.com/assets/5853e6992e7f151d490cd3f6/58a58a24fb0aaec051c08198/thumb/usermaleshapeinacircleios7interfacesymbol_31835357.jpg"" />",https://s3.amazonaws.com/assets.knackhq.com/assets/5853e6992e7f151d490cd3f6/58a58a24fb0aaec051c08198/original/usermaleshapeinacircleios7interfacesymbol_31835357.jpg,1,3473003882,@jennyjaskey,Guest & Host,Word of mouth,Martin Rosengaard,,...,theartistsinstitute.org,...,,,,,,,,,,,,,,,,,,,,,,,,,,,,,,https://www.humanhotel.com,
02/14/2017 0:01,479,K,Tom Backe Rasmussen,,Tom Backe,,Rasmussen,Tom Backe,Rasmussen,tombacke@gmail.com,asdqweK479,active,Member,Germany,Berlin,"Berlin, Germany",,42,48,Visual Artist,"<img src=""https://s3.amazonaws.com/assets.knackhq.com/assets/5853e6992e7f151d490cd3f6/58a6c3998983361f5d761192/thumb/usermaleshapeinacircleios7interfacesymbol_31835357.jpg"" />",https://s3.amazonaws.com/assets.knackhq.com/assets/5853e6992e7f151d490cd3f6/58a6c3998983361f5d761192/original/usermaleshapeinacircleios7interfacesymbol_31835357.jpg,,,https://www.facebook.com/rot.art.7,Guest & Host,Email,,,..,www.tombackerasmussen.net,..,,,,,,,,,,,,,,,,,,,,,,,,,,,,,,https://www.humanhotel.com,
02/14/2017 0:01,480,L,Michael Kuhn,,Michael,,Kuhn,Michael,Kuhn,mich@elkuhn.com,asdqweL480,active,Member,Germany,Berlin,"Berlin, Germany",,0,48,Art Collector,"<img src=""https://s3.amazonaws.com/assets.knackhq.com/assets/5853e6992e7f151d490cd3f6/58a42875990fc60a54684265/thumb/bnjogemaijpmopac.png"" />",https://s3.amazonaws.com/assets.knackhq.com/assets/5853e6992e7f151d490cd3f6/58a42875990fc60a54684265/original/bnjogemaijpmopac.png,,,https://www.facebook.com/kuhnmichael?fref=ts,Guest & Host,Word of mouth,,,Private collection - Joseph Beuys - Max Frey - Art as a permanently influencing roommate,kuhn-collection.com,...,,,,,,,,,,,,,,,,,,,,,,,,"The collection is dominated by innovative contemporary art with an emphasis on concept, installation and new media. When collecting new artworks, not the name nor the CV of an artist is important, it is the expression of the works concept and not seldom the artists own character...",,,,,,https://www.humanhotel.com,
02/14/2017 0:01,481,M,Felipe Astolfi,,Felipe,,Astolfi,Felipe,Astolfi,fastolfi@gmail.com,asdqweM481,active,Member,Netherlands,The Hague,"The Hague, Netherlands",,37,48,Visual Artist,"<img src=""https://s3.amazonaws.com/assets.knackhq.com/assets/5853e6992e7f151d490cd3f6/58a6c3834169357167bda765/thumb/usermaleshapeinacircleios7interfacesymbol_31835357.jpg"" />",https://s3.amazonaws.com/assets.knackhq.com/assets/5853e6992e7f151d490cd3f6/58a6c3834169357167bda765/original/usermaleshapeinacircleios7interfacesymbol_31835357.jpg,31,,https://www.facebook.com/felipeastolfi,Guest & Host,Email,Francesca and Martin,,..,www.felipeastolfi.com,..,,,,,,,,,,,,,,,,,,,,,,,,,,,,,,https://www.humanhotel.com,
02/14/2017 0:01,482,N,Mark Brounen,,Mark,,Brounen,Mark,Brounen,markbrounen@gmail.com,asdqweN482,active,Member,Netherlands,Amsterdam,"Amsterdam, Netherlands",,42,48,Artist Manager,"<img src=""https://s3.amazonaws.com/assets.knackhq.com/assets/5853e6992e7f151d490cd3f6/592e798c6415a24aafdaf5cf/thumb/screenshot20170531at10.06.18.png"" />",https://s3.amazonaws.com/assets.knackhq.com/assets/5853e6992e7f151d490cd3f6/592e798c6415a24aafdaf5cf/original/screenshot20170531at10.06.18.png,31,31681145691,https://www.linkedin.com/in/mark-brounen-256388?trk=nav_responsive_tab_profile,Guest only,Email,Francesca & Martin,Always hard this So happy with my girlfriend Esther. Love to travel the world with her or for work or enjoy my beautiful home town Amsterdam.,#curious#wanderlust#happy,www.joepbeving.com,#thefixer#music#beauty,"<img src=""https://s3.amazonaws.com/assets.knackhq.com/assets/5853e6992e7f151d490cd3f6/592e7673cdef244d0af5e727/thumb/joepbevingprehensionalbumcover72dpimediauseonlyrahirezvani.jpg"" />",https://s3.amazonaws.com/assets.knackhq.com/assets/5853e6992e7f151d490cd3f6/592e7673cdef244d0af5e727/original/joepbevingprehensionalbumcover72dpimediauseonlyrahirezvani.jpg,Prehension - Album Cover,"<img src=""https://s3.amazonaws.com/assets.knackhq.com/assets/5853e6992e7f151d490cd3f6/592e76931270184c55b263fd/thumb/joepbevingabovosingle72dpimediauseonlyrahirezvani.jpg"" />",https://s3.amazonaws.com/assets.knackhq.com/assets/5853e6992e7f151d490cd3f6/592e76931270184c55b263fd/original/joepbevingabovosingle72dpimediauseonlyrahirezvani.jpg,Ab Ovo - Single Cover,"<img src=""https://s3.amazonaws.com/assets.knackhq.com/assets/5853e6992e7f151d490cd3f6/592e8a5c12db504e270bcc37/thumb/joepbevingsonderlingsingle72dpimediauseonlyrahirezvani.jpg"" />",https://s3.amazonaws.com/assets.knackhq.com/assets/5853e6992e7f151d490cd3f6/592e8a5c12db504e270bcc37/original/joepbevingsonderlingsingle72dpimediauseonlyrahirezvani.jpg,Sonderling - Single Cover,"<img src=""https://s3.amazonaws.com/assets.knackhq.com/assets/5853e6992e7f151d490cd3f6/592e8a81cf1c064bcde24e59/thumb/joepbevinghangingdsingle72dpimediauseonlyrahirezvani.jpg"" />",https://s3.amazonaws.com/assets.knackhq.com/assets/5853e6992e7f151d490cd3f6/592e8a81cf1c064bcde24e59/original/joepbevinghangingdsingle72dpimediauseonlyrahirezvani.jpg,Hanging D - Single Cover,"<img src=""https://s3.amazonaws.com/assets.knackhq.com/assets/5853e6992e7f151d490cd3f6/592e8a9fe2ebbb4b27f4c719/thumb/joepbevingliveparadisorahirezvani2017.jpg"" />",https://s3.amazonaws.com/assets.knackhq.com/assets/5853e6992e7f151d490cd3f6/592e8a9fe2ebbb4b27f4c719/original/joepbevingliveparadisorahirezvani2017.jpg,Album release concert Paradiso Amsterdam,"<img src=""https://s3.amazonaws.com/assets.knackhq.com/assets/5853e6992e7f151d490cd3f6/592e8c473400334d73806fc9/thumb/joepbevingliveparadisorahirezvani2017_2.jpg"" />",https://s3.amazonaws.com/assets.knackhq.com/assets/5853e6992e7f151d490cd3f6/592e8c473400334d73806fc9/original/joepbevingliveparadisorahirezvani2017_2.jpg,Album release concert Paradiso Amsterdam,Have the best  'job' as manager of Joep Beving (www.joepbeving.com),https://www.youtube.com/watch?v=Tuh4_h93DZk,Music Film I produced for Prehension,https://www.youtube.com/watch?v=-chZu7V3NTM,Music Film I produced for Solipsism,will be available from 2-24 Jan 2018,,05/31/2017 11:26,,,,https://www.humanhotel.com,
02/14/2017 0:01,483,O,Iris and Arno Honderdos and Peeters,Iris and Arno Honderdos and Peeters,Iris and Arno,,Honderdos and Peeters,Iris and Arno,Honderdos and Peeters,iris@artonlocation.nl,asdqweO483,active,Member,,Utrecht,"Utrecht, ",,4758,48,Sound Designer,"<img src=""https://s3.amazonaws.com/assets.knackhq.com/assets/5853e6992e7f151d490cd3f6/5a5253a843f86157fb983e27/thumb/profileimagefiller.png"" />",https://s3.amazonaws.com/assets.knackhq.com/assets/5853e6992e7f151d490cd3f6/5a5253a843f86157fb983e27/original/profileimagefiller.png,,,http://tapetv.nl/presentation.html,guest only,Email,,,,http://tapetv.nl/presentation.html,,,,,,,,,,,,,,,,,,,,,,,,,,,,,,,https://www.humanhotel.com,
02/14/2017 0:01,484,P,Juan delGado,Juan delGado,Juan,,delGado,Juan,delGado,outgrain@gmail.com,asdqweP484,active,Member,,,", ",,,48,Artist,"<img src=""https://s3.amazonaws.com/assets.knackhq.com/assets/5853e6992e7f151d490cd3f6/5a5253a843f86157fb983e27/thumb/profileimagefiller.png"" />",https://s3.amazonaws.com/assets.knackhq.com/assets/5853e6992e7f151d490cd3f6/5a5253a843f86157fb983e27/original/profileimagefiller.png,,,@delgado_artist,guest & host,Email,,,,www.juandelgado.co,,,,,,,,,,,,,,,,,,,,,,,,,,,,,,,https://www.humanhotel.com,
02/14/2017 0:01,485,Q,Cecilia Arditto,Cecilia Arditto,Cecilia,,Arditto,Cecilia,Arditto,ceciarditto@yahoo.com.ar,asdqweQ485,active,Member,,Diemen,"Diemen, ",,50,48,Musician,"<img src=""https://s3.amazonaws.com/assets.knackhq.com/assets/5853e6992e7f151d490cd3f6/5a5253a843f86157fb983e27/thumb/profileimagefiller.png"" />",https://s3.amazonaws.com/assets.knackhq.com/assets/5853e6992e7f151d490cd3f6/5a5253a843f86157fb983e27/original/profileimagefiller.png,,,https://www.facebook.com/cecilia.arditto,guest & host,Email,,,,www.ceciliaarditto.com,,,,,,,,,,,,,,,,,,,,,,,,,,,,,,,https://www.humanhotel.com,
02/14/2017 0:01,486,R,Bareket Kezwer,,Bareket,,Kezwer,Bareket,Kezwer,bareket.kezwer@gmail.com,asdqweR486,active,Member,Canada,Toronto,"Toronto, Canada",,31,48,Visual artist,"<img src=""https://s3.amazonaws.com/assets.knackhq.com/assets/5853e6992e7f151d490cd3f6/58ada94f65d14b2525cf5029/thumb/16899956_10155868050728206_257065946_n.jpg"" />",https://s3.amazonaws.com/assets.knackhq.com/assets/5853e6992e7f151d490cd3f6/58ada94f65d14b2525cf5029/original/16899956_10155868050728206_257065946_n.jpg,1,6477797056,@bkez (instagram),Guest & Host,Email,Invitation,,Pro-positivity visual artist,Www.Bareketkezwer.com,Pro-positivity visual artist,,,,,,,,,,,,,,,,,,,,,,,,,,,,,,https://www.humanhotel.com,
02/14/2017 0:01,487,S,Victoria Bianchetti,,Victoria,,Bianchetti,Victoria,Bianchetti,vbianchetti@gmail.com,asdqweS487,active,Member,United States of America (USA),Haiku (Hawaii),"Haiku (Hawaii), United States of America (USA)",,53,48,Visual Artist,"<img src=""https://s3.amazonaws.com/assets.knackhq.com/assets/5853e6992e7f151d490cd3f6/58a6c32d95a8706665782920/thumb/usermaleshapeinacircleios7interfacesymbol_31835357.jpg"" />",https://s3.amazonaws.com/assets.knackhq.com/assets/5853e6992e7f151d490cd3f6/58a6c32d95a8706665782920/original/usermaleshapeinacircleios7interfacesymbol_31835357.jpg,1,,https://www.facebook.com/victoriabianchetti,Guest & Host,Social Media,,,..,http://bianchettivictoria.blogspot.com,..,,,,,,,,,,,,,,,,,,,,,,,,,,,,,,https://www.humanhotel.com,
02/14/2017 0:01,488,T,Clemence Barret,,Clemence,,Barret,Clemence,Barret,cb@clemencebarret.com,asdqweT488,active,Member,France,Chiang Mai,"Chiang Mai, France",13/12/1965,50,53,artist,"<img src=""https://s3.amazonaws.com/assets.knackhq.com/assets/5853e6992e7f151d490cd3f6/59d5deefa210733b30afb2d7/thumb/logoclemdef.jpg"" />",https://s3.amazonaws.com/assets.knackhq.com/assets/5853e6992e7f151d490cd3f6/59d5deefa210733b30afb2d7/original/logoclemdef.jpg,33,66999733506,https://www.facebook.com/clemencebarret,guest only,Email,/,I am a self- taught French artist based in Asia.<br /><br /><br /><br />,contemporary art,www.clemencebarret.com,"video, painting, installations",,,,,,,,,,,,,,,,,,,"Intimacy, the quest for a better life, belonging, identity, and migration are some favorite notions I have been exploring. I have often used my own experiences as filters to enter into, explore and understand these notions in new geographies and communities. My expressions are composed of varied media - video, photography, sound, movement, objects, paintings - combined together or not. Some of my latest works pose critical questions about gender and national identity, as well as the concept of otherness. <br /> <br />I have been exhibiting and performing in India, Thailand, France, Italy, UK, Finland, Greece, Argentina, Serbia, Colombia, Mexico, Morocco and Myanmar.",,,,,,,,,,,https://www.humanhotel.com,
02/14/2017 0:01,489,U,Jonathan Ron,,Jonathan,,Ron,Jonathan,Ron,nushka.ron@gmail.com,asdqweU489,active,,Israel and the Occupied Territories,Tel Aviv,"Tel Aviv, Israel and the Occupied Territories",,29,48,...,"<img src=""https://s3.amazonaws.com/assets.knackhq.com/assets/5853e6992e7f151d490cd3f6/58a58c9141ca63574939f567/thumb/usermaleshapeinacircleios7interfacesymbol_31835357.jpg"" />",https://s3.amazonaws.com/assets.knackhq.com/assets/5853e6992e7f151d490cd3f6/58a58c9141ca63574939f567/original/usermaleshapeinacircleios7interfacesymbol_31835357.jpg,972,972547944699,Jonathan ron,Guest only,Wooloo.org Newsletter,,,...,https://www.youtube.com/watch?v=s8pE9-2jcdI&feature=youtu.be,...,,,,,,,,,,,,,,,,,,,,,,,,,,,,,,https://www.humanhotel.com,
02/14/2017 0:01,490,V,Amanda Marchand,,Amanda,,Marchand,Amanda,Marchand,amandabethmarchand@gmail.com,asdqweV490,active,Member,United States of America (USA),Brooklyn,"Brooklyn, United States of America (USA)",,44,48,"Artist, Photographer","<img src=""https://s3.amazonaws.com/assets.knackhq.com/assets/5853e6992e7f151d490cd3f6/58a6c307dd033f326c0325d5/thumb/usermaleshapeinacircleios7interfacesymbol_31835357.jpg"" />",https://s3.amazonaws.com/assets.knackhq.com/assets/5853e6992e7f151d490cd3f6/58a6c307dd033f326c0325d5/original/usermaleshapeinacircleios7interfacesymbol_31835357.jpg,,,amandabethmarchand (Instagram),Guest & Host,Wooloo.org Newsletter,,,..,amandamarchand.com,..,,,,,,,,,,,,,,,,,,,,,,,,,,,,,,https://www.humanhotel.com,
02/14/2017 0:01,491,W,Jeremy Holton,,Jeremy,,Holton,Jeremy,Holton,jeremyholton@gmail.com,asdqweW491,active,Member,Cambodia,Phon Phisai,"Phon Phisai, Cambodia",,75,48,Artist,"<img src=""https://s3.amazonaws.com/assets.knackhq.com/assets/5853e6992e7f151d490cd3f6/58a6c4f8dcd8d7655e0ab854/thumb/usermaleshapeinacircleios7interfacesymbol_31835357.jpg"" />",https://s3.amazonaws.com/assets.knackhq.com/assets/5853e6992e7f151d490cd3f6/58a6c4f8dcd8d7655e0ab854/original/usermaleshapeinacircleios7interfacesymbol_31835357.jpg,855,,https://www.facebook.com/jeremyholton https://twitter.com/jeremyholton,Guest & Host,Email,,,..,http://JeremyHolton.com,..,,,,,,,,,,,,,,,,,,,,,,,,,,,,,,https://www.humanhotel.com,
02/14/2017 0:01,492,X,Carl Rubino,Carl Rubino,Carl,,Rubino,Carl,Rubino,carl@carlrubinophotography.com,asdqweX492,active,Member,,Wilmington,"Wilmington, ",,,48,Photographer,"<img src=""https://s3.amazonaws.com/assets.knackhq.com/assets/5853e6992e7f151d490cd3f6/5a5253a843f86157fb983e27/thumb/profileimagefiller.png"" />",https://s3.amazonaws.com/assets.knackhq.com/assets/5853e6992e7f151d490cd3f6/5a5253a843f86157fb983e27/original/profileimagefiller.png,,,@carlrubinophotography,guest only,Email,,,,www.carlrubinophotography.com,,,,,,,,,,,,,,,,,,,,,,,,,,,,,,,https://www.humanhotel.com,
02/14/2017 0:01,493,Y,Carlos Delgado,,Carlos,,Delgado,Carlos,Delgado,artcarlosdelgado@gmail.com,asdqweY493,active,Member,"Canada, Colombia",Toronto,"Toronto , Canada, Colombia",19/10/1980,36,38,Artist,"<img src=""https://s3.amazonaws.com/assets.knackhq.com/assets/5853e6992e7f151d490cd3f6/58fe1053dcca310f912fffdb/thumb/07.jpg"" />",https://s3.amazonaws.com/assets.knackhq.com/assets/5853e6992e7f151d490cd3f6/58fe1053dcca310f912fffdb/original/07.jpg,,647-607-8002,@artcarlosdelgado (instagram),Guest only,Email,I was invited by Francesca and Martin,I am a visual artist and painter.,"friendly, creative, social",www.artcarlosdelgado.com,"abstract, contemporary, portraits",,,,,,,,,,,,,,,,,,,"My work is influenced by the environments that I am in. I try to capture the grand human emotions through subtle facial gestures and use of abstract elements, reminding us of the human elements inside. <br /><br />My website has my collection of images and videos. ",,,,,,,02/20/2018 23:37,,,,https://www.humanhotel.com,
02/14/2017 0:01,494,Z,Enamul Hoque,,Enamul,,Hoque,Enamul,Hoque,info@enamul.co.uk,asdqweZ494,active,Member,United Kingdom (UK),London,"London, United Kingdom (UK)",,48,48,Artist,"<img src=""https://s3.amazonaws.com/assets.knackhq.com/assets/5853e6992e7f151d490cd3f6/58a5a0b0fb0aaec051c086e4/thumb/usermaleshapeinacircleios7interfacesymbol_31835357.jpg"" />",https://s3.amazonaws.com/assets.knackhq.com/assets/5853e6992e7f151d490cd3f6/58a5a0b0fb0aaec051c086e4/original/usermaleshapeinacircleios7interfacesymbol_31835357.jpg,44,7956466132,https://www.instagram.com/enamulhoque/,Guest & Host,Email,,,...,https://vimeo.com/178971680,...,,,,,,,,,,,,,,,,,,,,,,,,,,,,,,https://www.humanhotel.com,
02/14/2017 0:01,495,A,Annemarie Cabri,,Annemarie,,Cabri,Annemarie,Cabri,annemarie@cabridance.com,asdqweA495,active,Member,Canada,Toronto,"Toronto, Canada",,54,48,Artist Dance Educator for all ages and abilities,"<img src=""https://s3.amazonaws.com/assets.knackhq.com/assets/5853e6992e7f151d490cd3f6/5900abc633d7102e76521ab7/thumb/image.jpg"" />",https://s3.amazonaws.com/assets.knackhq.com/assets/5853e6992e7f151d490cd3f6/5900abc633d7102e76521ab7/original/image.jpg,1,416 656 1618,https://www.facebook.com/annemarie.cabri,guest & host,Email,Francesca and Martin,"I grew up in a family of artists and scientists from around the world, and adore my two grown young adult daughters. We have travelled much and love to stay connected to the greater world at large while loving the community we are in.  We moved to Toronto from the West Coast of Canada in 2010.  My one daughter lives with me together with our cat Coco in a lovely home on a tree-lined neighbourhood street conveniently located to transit, restaurants, and groceries.",Welcoming Professional Creative,https://national.ballet.ca/Explore/YOU-dance/The-Artists  or www.CabriDance.com,Brain-Compatible Dance,,,,,,,,,,,,,,,,,,,"I work as a free lance teacher, choreographer, and multi-arts program developer here in Toronto for Canada's National Ballet Co. and in several cities on other contracts.  I have a creative and direct teaching style that leaves room for accommodations and engagement in a fresh new way.  I have been working in this method for over 20 years now after a professional ballet/contemporary dance career with international companies.  As well as teaching in school gyms or private coaching my work has taken me to the dementia and rehabilitation wing in hospitals, to the library, to art galleries, and to dance in the landscape and on the beach.  I love what I do, am eager to be in new environments, and work with varied groups connecting to the community.",https://www.youtube.com/watch?v=M2_N3i98yJg,,,,,,,,,,https://www.humanhotel.com,
02/14/2017 0:01,496,B,Erin Fussell,,Erin,,Fussell,Erin,Fussell,erinfussell@gmail.com,asdqweB496,active,Member,United States of America (USA),Los Angeles,"Los Angeles, United States of America (USA)",07/04/1979,37,39,"Artist, Archivist","<img src=""https://s3.amazonaws.com/assets.knackhq.com/assets/5853e6992e7f151d490cd3f6/595162e5f8971e48e25d9be5/thumb/dsc02708.jpg"" />",https://s3.amazonaws.com/assets.knackhq.com/assets/5853e6992e7f151d490cd3f6/595162e5f8971e48e25d9be5/original/dsc02708.jpg,1,5033829824,@erinfussell,guest & host,Email,,Artist,#creative #organized #listener,http://erinfussell.com,#installation #scores #performance,,,,,,,,,,,,,,,,,,,"I make interdisciplinary artwork exploring landscape and the body. I investigate my internal and external landscapes to bring the experiential undertow into the seen, heard, and felt. Intuition and daily experience drive my process. I often include partners in the making, both human and non-human, like the wind or insects.<br /><br />Through relationships, research, writing, engaging in the environment, and active listening, I cultivate self-awareness and a sense of place in a way that transforms perspective and observe how my perspective shifts over time. The resulting work communicates what I discover about navigating the liminal spaces of everyday life.",,,,,,,10/03/2017 19:09,,,,https://www.humanhotel.com,
02/14/2017 0:01,497,C,Carlos Cabral Nunes,,Carlos Cabral,,Nunes,Carlos Cabral,Nunes,nunes_carlos@hotmail.com,asdqweC497,active,Member,Portugal,Lisbon,"Lisbon, Portugal",,45,48,Artist and curator,"<img src=""https://s3.amazonaws.com/assets.knackhq.com/assets/5853e6992e7f151d490cd3f6/58ada3f0ef3371302ac30685/thumb/usermaleshapeinacircleios7interfacesymbol_31835357.jpg"" />",https://s3.amazonaws.com/assets.knackhq.com/assets/5853e6992e7f151d490cd3f6/58ada3f0ef3371302ac30685/original/usermaleshapeinacircleios7interfacesymbol_31835357.jpg,351,+351 912521449,https://www.facebook.com/carlos.c.nunes,Guest & Host,Wooloo.org Newsletter,,I have a great knowledge about Lisbon's culture and art scene and I can help artists to get in touch with it.,...,www.pervegaleria.eu,...,,,,,,,,,,,,,,,,,,,,,,,,,,,,,,https://www.humanhotel.com,
02/14/2017 0:01,498,D,Cathrine Kramer,Cathrine Kramer,Cathrine,,Kramer,Cathrine,Kramer,cathrine.kramer@gmail.com,asdqweD498,active,Member,,Dublin,"Dublin, ",,34,48,Artist,"<img src=""https://s3.amazonaws.com/assets.knackhq.com/assets/5853e6992e7f151d490cd3f6/5a5253a843f86157fb983e27/thumb/profileimagefiller.png"" />",https://s3.amazonaws.com/assets.knackhq.com/assets/5853e6992e7f151d490cd3f6/5a5253a843f86157fb983e27/original/profileimagefiller.png,,,@fraukramer,guest & host,Word of mouth,,,,http://genomicgastronomy.com/,,,,,,,,,,,,,,,,,,,,,,,,,,,,,,,https://www.humanhotel.com,
02/14/2017 0:01,499,E,Lisa Kirk,,Lisa,,Kirk,Lisa,Kirk,lisa@lisakirkprojects.com,asdqweE499,active,Member,United States of America (USA),Palenville,"Palenville , United States of America (USA)",,49,48,Visual Artist,"<img src=""https://s3.amazonaws.com/assets.knackhq.com/assets/5853e6992e7f151d490cd3f6/58a5a121990fc60a54687e2b/thumb/usermaleshapeinacircleios7interfacesymbol_31835357.jpg"" />",https://s3.amazonaws.com/assets.knackhq.com/assets/5853e6992e7f151d490cd3f6/58a5a121990fc60a54687e2b/original/usermaleshapeinacircleios7interfacesymbol_31835357.jpg,1,2126200875,https://www.facebook.com/lisa.kirk.583,Guest & Host,Email,,,...,lisakirkprojects.com,...,,,,,,,,,,,,,,,,,,,,,,,,,,,,,,https://www.humanhotel.com,
02/14/2017 0:01,500,F,John Wilson,,John,,Wilson,John,Wilson,johnwilson@studio9i.com,asdqweF500,active,Member,United States of America (USA),Roanoke,"Roanoke , United States of America (USA)",,74,48,Artist,"<img src=""https://s3.amazonaws.com/assets.knackhq.com/assets/5853e6992e7f151d490cd3f6/58a6c450c8ac25fc506e1f4d/thumb/usermaleshapeinacircleios7interfacesymbol_31835357.jpg"" />",https://s3.amazonaws.com/assets.knackhq.com/assets/5853e6992e7f151d490cd3f6/58a6c450c8ac25fc506e1f4d/original/usermaleshapeinacircleios7interfacesymbol_31835357.jpg,1,,facebook.com johnwilson or facebook.com wilsonhughesgallery.com,Guest & Host,Email,,,..,Wilsonhughesgallery.com,..,,,,,,,,,,,,,,,,,,,,,,,,,,,,,,https://www.humanhotel.com,